{
    "columns": [
        "feature_1",
        "feature_2",
        "feature_3",
        "feature_4",
        "feature_5",
        "feature_6",
        "feature_7",
        "feature_8",
        "feature_9",
        "feature_10",
        "feature_11",
        "feature_12",
        "feature_13",
        "feature_14",
        "feature_15",
        "feature_16",
        "feature_17",
        "feature_18",
        "feature_19",
        "feature_20",
        "feature_21",
        "feature_22",
        "feature_23",
        "feature_24",
        "feature_25",
        "feature_26",
        "feature_27",
        "feature_28",
        "feature_29",
        "feature_30",
        "feature_31",
        "feature_32",
        "feature_33",
        "feature_34",
        "feature_35",
        "feature_36",
        "feature_37",
        "feature_38",
        "feature_39",
        "feature_40"
    ],
    "rows": 272041,
    "cols": 40,
    "target_is_numeric": true,
    "columns_info": {
        "feature_1": [
            "scale"
        ],
        "feature_2": [
            "scale"
        ],
        "feature_3": [
            "scale"
        ],
        "feature_4": [
            "scale"
        ],
        "feature_5": [
            "scale"
        ],
        "feature_6": [],
        "feature_7": [],
        "feature_8": [],
        "feature_9": [],
        "feature_10": [],
        "feature_11": [],
        "feature_12": [],
        "feature_13": [],
        "feature_14": [],
        "feature_15": [],
        "feature_16": [],
        "feature_17": [],
        "feature_18": [],
        "feature_19": [],
        "feature_20": [
            "scale"
        ],
        "feature_21": [
            "scale"
        ],
        "feature_22": [
            "scale"
        ],
        "feature_23": [
            "scale"
        ],
        "feature_24": [
            "scale"
        ],
        "feature_25": [],
        "feature_26": [
            "scale"
        ],
        "feature_27": [],
        "feature_28": [
            "scale"
        ],
        "feature_29": [],
        "feature_30": [],
        "feature_31": [],
        "feature_32": [
            "scale"
        ],
        "feature_33": [
            "scale"
        ],
        "feature_34": [],
        "feature_35": [
            "scale"
        ],
        "feature_36": [
            "scale"
        ],
        "feature_37": [
            "scale"
        ],
        "feature_38": [],
        "feature_39": [
            "scale"
        ],
        "feature_40": [
            "scale"
        ]
    },
    "target_info": [],
    "n_features": 40
}