{
    "mode": "Perform",
    "ml_task": "regression",
    "results_path": "AutoML_7",
    "total_time_limit": 3600,
    "model_time_limit": null,
    "algorithms": [
        "Linear",
        "Random Forest",
        "LightGBM",
        "Xgboost",
        "CatBoost",
        "Neural Network"
    ],
    "train_ensemble": true,
    "stack_models": false,
    "eval_metric": "rmse",
    "validation_strategy": {
        "validation_type": "kfold",
        "k_folds": 5,
        "shuffle": true,
        "X_path": "AutoML_7/X.parquet",
        "y_path": "AutoML_7/y.parquet",
        "results_path": "AutoML_7"
    },
    "verbose": 1,
    "explain_level": 1,
    "golden_features": true,
    "features_selection": true,
    "start_random_models": 5,
    "hill_climbing_steps": 2,
    "top_models_to_improve": 2,
    "random_state": 1234,
    "saved": [
        "AutoML_7/1_Linear",
        "AutoML_7/2_Default_RandomForest",
        "AutoML_7/3_Default_Xgboost",
        "AutoML_7/4_Default_LightGBM",
        "AutoML_7/5_Default_CatBoost",
        "AutoML_7/6_Default_NeuralNetwork",
        "AutoML_7/Ensemble"
    ]
}