feature,mean_importance
feature_38,4.778122605233331e-06
feature_36,1.2386374681244011e-05
feature_6,1.2543032805582139e-05
feature_27,1.4872468354410612e-05
feature_7,1.660993134115496e-05
feature_9,1.834358015295606e-05
feature_8,1.9106924226180295e-05
feature_18,2.1666426040237857e-05
feature_11,2.4672439254393164e-05
feature_29,3.008332980648232e-05
feature_30,3.2979551114400986e-05
feature_26,4.4160218773268975e-05
feature_28,4.430504350323647e-05
feature_10,4.70704991703319e-05
feature_2,5.130548131890775e-05
feature_37,5.361697125344303e-05
feature_40,5.699904387767851e-05
feature_32,5.734913098543876e-05
feature_12,5.9449316901522e-05
feature_22,6.702671221179985e-05
feature_13,6.873984949638881e-05
feature_3,7.133607043921242e-05
feature_31,7.358943423172934e-05
feature_1,7.69647935313221e-05
feature_33,7.78199350912466e-05
feature_16,0.00011412943084955774
feature_23,0.0001571588156778929
feature_21,0.00017088150607871556
feature_17,0.00026342875050315643
feature_34,0.000322912892716401
feature_39,0.0004013749283449296
feature_19,0.0005123892662235105
feature_25,0.0005289809561698396
feature_35,0.0006721094063889294
feature_15,0.000957540156884508
feature_14,0.000989630943292953
feature_20,0.0011978757323585977
feature_5,0.0020462513931494486
feature_24,0.0021272260962631505
feature_4,0.0033055436925316026
