feature,mean_importance
feature_9,-2.3013158970197274e-05
feature_30,-2.1565905816358418e-05
feature_38,-1.7516543302498015e-05
feature_13,-1.7328911857913532e-05
feature_2,-1.4691610752394936e-05
feature_29,-1.374554703764616e-05
feature_33,-1.1460144737699113e-05
feature_1,-9.512472875234258e-06
feature_28,-8.00078175477309e-06
feature_37,-7.749104815495816e-06
feature_7,-3.2062191524153544e-06
feature_3,7.666943732841797e-07
feature_10,4.70791270212002e-06
feature_11,5.568612111683281e-06
feature_22,6.875249566691988e-06
feature_21,7.829767379739523e-06
feature_6,8.730286242980383e-06
feature_12,9.577121672977185e-06
feature_18,1.0208325634015938e-05
feature_20,1.1887884696357241e-05
feature_32,1.2683188477331624e-05
feature_23,1.6465374251362162e-05
feature_34,1.9064220962978443e-05
feature_27,1.9202464406069783e-05
feature_26,2.9194151139314875e-05
feature_8,3.1438932093413865e-05
feature_40,4.0806068889138665e-05
feature_3_ratio_feature_23,4.112052179823323e-05
feature_31,5.437929310540242e-05
feature_39,5.733186125140973e-05
feature_15,6.564736441061376e-05
feature_36,9.020099419133811e-05
feature_16,9.561358525788169e-05
feature_17,0.00012723546760562177
feature_25,0.00012925648139159888
feature_19,0.00015542326795563616
feature_14,0.00033596544165026337
feature_24,0.0003855224861556442
feature_4,0.0006245873787424632
feature_35,0.0009049772653354591
feature_4_ratio_feature_24,0.0009638486918747618
feature_23_ratio_feature_3,0.0013462851717596636
feature_5,0.0019964648203862926
feature_24_ratio_feature_4,0.018284670367611354
feature_3_diff_feature_23,0.025869846251921215
