{
    "uid": "aff868b6-c3b7-4601-acc3-1e1c45e4fe87",
    "name": "24_LightGBM_GoldenFeatures_SelectedFeatures",
    "preprocessing": [
        {
            "golden_features": {
                "new_features": "[\n    {\n        \"feature1\": \"feature_3\",\n        \"feature2\": \"feature_23\",\n        \"operation\": \"diff\",\n        \"score\": 0.0168407631\n    },\n    {\n        \"feature1\": \"feature_23\",\n        \"feature2\": \"feature_3\",\n        \"operation\": \"ratio\",\n        \"score\": 0.0188988713\n    },\n    {\n        \"feature1\": \"feature_3\",\n        \"feature2\": \"feature_23\",\n        \"operation\": \"ratio\",\n        \"score\": 0.0189329891\n    },\n    {\n        \"feature1\": \"feature_24\",\n        \"feature2\": \"feature_4\",\n        \"operation\": \"ratio\",\n        \"score\": 0.0279166498\n    },\n    {\n        \"feature1\": \"feature_4\",\n        \"feature2\": \"feature_24\",\n        \"operation\": \"ratio\",\n        \"score\": 0.0279166498\n    }\n]",
                "new_columns": "[\n    \"feature_3_diff_feature_23\",\n    \"feature_23_ratio_feature_3\",\n    \"feature_3_ratio_feature_23\",\n    \"feature_24_ratio_feature_4\",\n    \"feature_4_ratio_feature_24\"\n]",
                "result_file": "AutoML_6/golden_features.json",
                "ml_task": "regression"
            },
            "ml_task": "regression",
            "drop_features": [
                "feature_33",
                "feature_3",
                "feature_10",
                "feature_28",
                "feature_11",
                "feature_7",
                "feature_22",
                "feature_21",
                "feature_8",
                "feature_9",
                "feature_1",
                "feature_30",
                "feature_27"
            ],
            "params": {
                "columns_preprocessing": {},
                "target_preprocessing": [
                    "na_exclude"
                ],
                "ml_task": "regression",
                "golden_features": {
                    "results_path": "AutoML_6",
                    "ml_task": "regression"
                },
                "drop_features": [
                    "feature_33",
                    "feature_3",
                    "feature_10",
                    "feature_28",
                    "feature_11",
                    "feature_7",
                    "feature_22",
                    "feature_21",
                    "feature_8",
                    "feature_9",
                    "feature_1",
                    "feature_30",
                    "random_feature",
                    "feature_27"
                ]
            }
        },
        {
            "golden_features": {
                "new_features": "[\n    {\n        \"feature1\": \"feature_3\",\n        \"feature2\": \"feature_23\",\n        \"operation\": \"diff\",\n        \"score\": 0.0168407631\n    },\n    {\n        \"feature1\": \"feature_23\",\n        \"feature2\": \"feature_3\",\n        \"operation\": \"ratio\",\n        \"score\": 0.0188988713\n    },\n    {\n        \"feature1\": \"feature_3\",\n        \"feature2\": \"feature_23\",\n        \"operation\": \"ratio\",\n        \"score\": 0.0189329891\n    },\n    {\n        \"feature1\": \"feature_24\",\n        \"feature2\": \"feature_4\",\n        \"operation\": \"ratio\",\n        \"score\": 0.0279166498\n    },\n    {\n        \"feature1\": \"feature_4\",\n        \"feature2\": \"feature_24\",\n        \"operation\": \"ratio\",\n        \"score\": 0.0279166498\n    }\n]",
                "new_columns": "[\n    \"feature_3_diff_feature_23\",\n    \"feature_23_ratio_feature_3\",\n    \"feature_3_ratio_feature_23\",\n    \"feature_24_ratio_feature_4\",\n    \"feature_4_ratio_feature_24\"\n]",
                "result_file": "AutoML_6/golden_features.json",
                "ml_task": "regression"
            },
            "ml_task": "regression",
            "drop_features": [
                "feature_33",
                "feature_3",
                "feature_10",
                "feature_28",
                "feature_11",
                "feature_7",
                "feature_22",
                "feature_21",
                "feature_8",
                "feature_9",
                "feature_1",
                "feature_30",
                "feature_27"
            ],
            "params": {
                "columns_preprocessing": {},
                "target_preprocessing": [
                    "na_exclude"
                ],
                "ml_task": "regression",
                "golden_features": {
                    "results_path": "AutoML_6",
                    "ml_task": "regression"
                },
                "drop_features": [
                    "feature_33",
                    "feature_3",
                    "feature_10",
                    "feature_28",
                    "feature_11",
                    "feature_7",
                    "feature_22",
                    "feature_21",
                    "feature_8",
                    "feature_9",
                    "feature_1",
                    "feature_30",
                    "random_feature",
                    "feature_27"
                ]
            }
        },
        {
            "golden_features": {
                "new_features": "[\n    {\n        \"feature1\": \"feature_3\",\n        \"feature2\": \"feature_23\",\n        \"operation\": \"diff\",\n        \"score\": 0.0168407631\n    },\n    {\n        \"feature1\": \"feature_23\",\n        \"feature2\": \"feature_3\",\n        \"operation\": \"ratio\",\n        \"score\": 0.0188988713\n    },\n    {\n        \"feature1\": \"feature_3\",\n        \"feature2\": \"feature_23\",\n        \"operation\": \"ratio\",\n        \"score\": 0.0189329891\n    },\n    {\n        \"feature1\": \"feature_24\",\n        \"feature2\": \"feature_4\",\n        \"operation\": \"ratio\",\n        \"score\": 0.0279166498\n    },\n    {\n        \"feature1\": \"feature_4\",\n        \"feature2\": \"feature_24\",\n        \"operation\": \"ratio\",\n        \"score\": 0.0279166498\n    }\n]",
                "new_columns": "[\n    \"feature_3_diff_feature_23\",\n    \"feature_23_ratio_feature_3\",\n    \"feature_3_ratio_feature_23\",\n    \"feature_24_ratio_feature_4\",\n    \"feature_4_ratio_feature_24\"\n]",
                "result_file": "AutoML_6/golden_features.json",
                "ml_task": "regression"
            },
            "ml_task": "regression",
            "drop_features": [
                "feature_33",
                "feature_3",
                "feature_10",
                "feature_28",
                "feature_11",
                "feature_7",
                "feature_22",
                "feature_21",
                "feature_8",
                "feature_9",
                "feature_1",
                "feature_30",
                "feature_27"
            ],
            "params": {
                "columns_preprocessing": {},
                "target_preprocessing": [
                    "na_exclude"
                ],
                "ml_task": "regression",
                "golden_features": {
                    "results_path": "AutoML_6",
                    "ml_task": "regression"
                },
                "drop_features": [
                    "feature_33",
                    "feature_3",
                    "feature_10",
                    "feature_28",
                    "feature_11",
                    "feature_7",
                    "feature_22",
                    "feature_21",
                    "feature_8",
                    "feature_9",
                    "feature_1",
                    "feature_30",
                    "random_feature",
                    "feature_27"
                ]
            }
        },
        {
            "golden_features": {
                "new_features": "[\n    {\n        \"feature1\": \"feature_3\",\n        \"feature2\": \"feature_23\",\n        \"operation\": \"diff\",\n        \"score\": 0.0168407631\n    },\n    {\n        \"feature1\": \"feature_23\",\n        \"feature2\": \"feature_3\",\n        \"operation\": \"ratio\",\n        \"score\": 0.0188988713\n    },\n    {\n        \"feature1\": \"feature_3\",\n        \"feature2\": \"feature_23\",\n        \"operation\": \"ratio\",\n        \"score\": 0.0189329891\n    },\n    {\n        \"feature1\": \"feature_24\",\n        \"feature2\": \"feature_4\",\n        \"operation\": \"ratio\",\n        \"score\": 0.0279166498\n    },\n    {\n        \"feature1\": \"feature_4\",\n        \"feature2\": \"feature_24\",\n        \"operation\": \"ratio\",\n        \"score\": 0.0279166498\n    }\n]",
                "new_columns": "[\n    \"feature_3_diff_feature_23\",\n    \"feature_23_ratio_feature_3\",\n    \"feature_3_ratio_feature_23\",\n    \"feature_24_ratio_feature_4\",\n    \"feature_4_ratio_feature_24\"\n]",
                "result_file": "AutoML_6/golden_features.json",
                "ml_task": "regression"
            },
            "ml_task": "regression",
            "drop_features": [
                "feature_33",
                "feature_3",
                "feature_10",
                "feature_28",
                "feature_11",
                "feature_7",
                "feature_22",
                "feature_21",
                "feature_8",
                "feature_9",
                "feature_1",
                "feature_30",
                "feature_27"
            ],
            "params": {
                "columns_preprocessing": {},
                "target_preprocessing": [
                    "na_exclude"
                ],
                "ml_task": "regression",
                "golden_features": {
                    "results_path": "AutoML_6",
                    "ml_task": "regression"
                },
                "drop_features": [
                    "feature_33",
                    "feature_3",
                    "feature_10",
                    "feature_28",
                    "feature_11",
                    "feature_7",
                    "feature_22",
                    "feature_21",
                    "feature_8",
                    "feature_9",
                    "feature_1",
                    "feature_30",
                    "random_feature",
                    "feature_27"
                ]
            }
        },
        {
            "golden_features": {
                "new_features": "[\n    {\n        \"feature1\": \"feature_3\",\n        \"feature2\": \"feature_23\",\n        \"operation\": \"diff\",\n        \"score\": 0.0168407631\n    },\n    {\n        \"feature1\": \"feature_23\",\n        \"feature2\": \"feature_3\",\n        \"operation\": \"ratio\",\n        \"score\": 0.0188988713\n    },\n    {\n        \"feature1\": \"feature_3\",\n        \"feature2\": \"feature_23\",\n        \"operation\": \"ratio\",\n        \"score\": 0.0189329891\n    },\n    {\n        \"feature1\": \"feature_24\",\n        \"feature2\": \"feature_4\",\n        \"operation\": \"ratio\",\n        \"score\": 0.0279166498\n    },\n    {\n        \"feature1\": \"feature_4\",\n        \"feature2\": \"feature_24\",\n        \"operation\": \"ratio\",\n        \"score\": 0.0279166498\n    }\n]",
                "new_columns": "[\n    \"feature_3_diff_feature_23\",\n    \"feature_23_ratio_feature_3\",\n    \"feature_3_ratio_feature_23\",\n    \"feature_24_ratio_feature_4\",\n    \"feature_4_ratio_feature_24\"\n]",
                "result_file": "AutoML_6/golden_features.json",
                "ml_task": "regression"
            },
            "ml_task": "regression",
            "drop_features": [
                "feature_33",
                "feature_3",
                "feature_10",
                "feature_28",
                "feature_11",
                "feature_7",
                "feature_22",
                "feature_21",
                "feature_8",
                "feature_9",
                "feature_1",
                "feature_30",
                "feature_27"
            ],
            "params": {
                "columns_preprocessing": {},
                "target_preprocessing": [
                    "na_exclude"
                ],
                "ml_task": "regression",
                "golden_features": {
                    "results_path": "AutoML_6",
                    "ml_task": "regression"
                },
                "drop_features": [
                    "feature_33",
                    "feature_3",
                    "feature_10",
                    "feature_28",
                    "feature_11",
                    "feature_7",
                    "feature_22",
                    "feature_21",
                    "feature_8",
                    "feature_9",
                    "feature_1",
                    "feature_30",
                    "random_feature",
                    "feature_27"
                ]
            }
        }
    ],
    "learners": [
        {
            "library_version": "3.0.0",
            "algorithm_name": "LightGBM",
            "algorithm_short_name": "LightGBM",
            "uid": "61eeb976-340b-46ba-a8ec-d4937e6c7cc9",
            "params": {
                "model_type": "LightGBM",
                "ml_task": "regression",
                "seed": 1238,
                "objective": "regression",
                "metric": "l2",
                "num_leaves": 31,
                "learning_rate": 0.05,
                "feature_fraction": 0.9,
                "bagging_fraction": 0.9,
                "min_data_in_leaf": 20,
                "explain_level": 1
            }
        },
        {
            "library_version": "3.0.0",
            "algorithm_name": "LightGBM",
            "algorithm_short_name": "LightGBM",
            "uid": "8346fcb9-f8d6-4e68-aaba-c88ab7be4d59",
            "params": {
                "model_type": "LightGBM",
                "ml_task": "regression",
                "seed": 1238,
                "objective": "regression",
                "metric": "l2",
                "num_leaves": 31,
                "learning_rate": 0.05,
                "feature_fraction": 0.9,
                "bagging_fraction": 0.9,
                "min_data_in_leaf": 20,
                "explain_level": 1
            }
        },
        {
            "library_version": "3.0.0",
            "algorithm_name": "LightGBM",
            "algorithm_short_name": "LightGBM",
            "uid": "c620b772-2da7-49b1-9ea0-e5831a45411f",
            "params": {
                "model_type": "LightGBM",
                "ml_task": "regression",
                "seed": 1238,
                "objective": "regression",
                "metric": "l2",
                "num_leaves": 31,
                "learning_rate": 0.05,
                "feature_fraction": 0.9,
                "bagging_fraction": 0.9,
                "min_data_in_leaf": 20,
                "explain_level": 1
            }
        },
        {
            "library_version": "3.0.0",
            "algorithm_name": "LightGBM",
            "algorithm_short_name": "LightGBM",
            "uid": "b4bc0c3a-1a76-455c-9845-2559307e624e",
            "params": {
                "model_type": "LightGBM",
                "ml_task": "regression",
                "seed": 1238,
                "objective": "regression",
                "metric": "l2",
                "num_leaves": 31,
                "learning_rate": 0.05,
                "feature_fraction": 0.9,
                "bagging_fraction": 0.9,
                "min_data_in_leaf": 20,
                "explain_level": 1
            }
        },
        {
            "library_version": "3.0.0",
            "algorithm_name": "LightGBM",
            "algorithm_short_name": "LightGBM",
            "uid": "3a58ec29-2d9b-4f1f-ad0e-967610545786",
            "params": {
                "model_type": "LightGBM",
                "ml_task": "regression",
                "seed": 1238,
                "objective": "regression",
                "metric": "l2",
                "num_leaves": 31,
                "learning_rate": 0.05,
                "feature_fraction": 0.9,
                "bagging_fraction": 0.9,
                "min_data_in_leaf": 20,
                "explain_level": 1
            }
        }
    ],
    "params": {
        "additional": {
            "max_rounds": 10000,
            "early_stopping_rounds": 50,
            "max_rows_limit": null,
            "max_cols_limit": null
        },
        "preprocessing": {
            "columns_preprocessing": {},
            "target_preprocessing": [
                "na_exclude"
            ],
            "ml_task": "regression",
            "golden_features": {
                "results_path": "AutoML_6",
                "ml_task": "regression"
            },
            "drop_features": [
                "feature_33",
                "feature_3",
                "feature_10",
                "feature_28",
                "feature_11",
                "feature_7",
                "feature_22",
                "feature_21",
                "feature_8",
                "feature_9",
                "feature_1",
                "feature_30",
                "random_feature",
                "feature_27"
            ]
        },
        "validation_strategy": {
            "validation_type": "kfold",
            "k_folds": 5,
            "shuffle": true,
            "X_path": "AutoML_6/X.parquet",
            "y_path": "AutoML_6/y.parquet",
            "results_path": "AutoML_6"
        },
        "learner": {
            "model_type": "LightGBM",
            "ml_task": "regression",
            "seed": 1238,
            "objective": "regression",
            "metric": "l2",
            "num_leaves": 31,
            "learning_rate": 0.05,
            "feature_fraction": 0.9,
            "bagging_fraction": 0.9,
            "min_data_in_leaf": 20,
            "explain_level": 1
        },
        "ml_task": "regression",
        "explain_level": 1,
        "name": "24_LightGBM_GoldenFeatures_SelectedFeatures",
        "status": "initialized",
        "final_loss": null,
        "train_time": null
    },
    "saved": [
        "AutoML_6/24_LightGBM_GoldenFeatures_SelectedFeatures/learner_1.lightgbm",
        "AutoML_6/24_LightGBM_GoldenFeatures_SelectedFeatures/learner_2.lightgbm",
        "AutoML_6/24_LightGBM_GoldenFeatures_SelectedFeatures/learner_3.lightgbm",
        "AutoML_6/24_LightGBM_GoldenFeatures_SelectedFeatures/learner_4.lightgbm",
        "AutoML_6/24_LightGBM_GoldenFeatures_SelectedFeatures/learner_5.lightgbm"
    ],
    "predictions_fname": "AutoML_6/24_LightGBM_GoldenFeatures_SelectedFeatures/predictions_out_of_folds.csv",
    "metric_name": "rmse",
    "final_loss": 0.06596791086605862,
    "train_time": 12.695282459259033,
    "is_stacked": false
}