feature,mean_importance
feature_13,2.167788367898882e-06
feature_23,3.021120703844589e-06
feature_2,1.0176226353625189e-05
feature_12,2.1989253278948025e-05
feature_38,2.8173280464280533e-05
feature_32,3.0502028406782962e-05
feature_15,3.150084899770384e-05
feature_34,3.363710726067993e-05
feature_6,3.4547413585697163e-05
feature_18,4.974301459335449e-05
feature_39,5.2683280983140127e-05
feature_37,5.4500779518082756e-05
feature_40,6.154606394111126e-05
feature_26,6.715867499043904e-05
feature_36,7.31825897380788e-05
feature_20,7.701998812469166e-05
feature_29,7.937381422054336e-05
feature_3_ratio_feature_23,8.914890134911132e-05
feature_16,9.26379210988794e-05
feature_14,0.00012324924677217206
feature_31,0.00014350662337039196
feature_17,0.0002576729224782864
feature_25,0.0003094701011420077
feature_19,0.0003222934201146119
feature_4_ratio_feature_24,0.0003306797999572338
feature_24,0.0005492173156045859
feature_35,0.0006406394950150389
feature_4,0.0009455700260114494
feature_5,0.0026188631046725466
feature_23_ratio_feature_3,0.004518128224373393
feature_24_ratio_feature_4,0.02345623745561292
feature_3_diff_feature_23,0.02633667035045261
