feature,mean_importance
feature_39,-1.6615797081685323e-05
feature_38,-4.05290480031623e-06
feature_23,8.916234878014652e-06
feature_6,9.715409716984543e-06
feature_20,1.0519843782649981e-05
feature_2,1.2690838699831036e-05
feature_12,1.3691257465541384e-05
feature_32,1.5167481345603005e-05
feature_25,1.7717371594506806e-05
feature_26,3.286728544270728e-05
feature_13,3.317730785771401e-05
feature_34,4.297970185801105e-05
feature_3_ratio_feature_23,4.567678149049684e-05
feature_29,4.718328362772308e-05
feature_37,5.943790082330851e-05
feature_40,6.427108040303183e-05
feature_36,6.521957029577557e-05
feature_15,6.696992126938028e-05
feature_18,7.860033782207173e-05
feature_16,9.366588014892768e-05
feature_31,0.00010589035432701761
feature_17,0.00013769411140441532
feature_19,0.00016691169690439162
feature_14,0.0001838890176294146
feature_35,0.0004589257255063226
feature_24,0.0006107082330066772
feature_4,0.0008142195357781108
feature_23_ratio_feature_3,0.0022885010284418583
feature_5,0.0025006292330259977
feature_4_ratio_feature_24,0.0025567874715196645
feature_24_ratio_feature_4,0.01443324691372369
feature_3_diff_feature_23,0.021673149282530422
