feature,mean_importance
feature_38,-4.5497724136291107e-07
feature_12,-1.7333010853253644e-07
feature_34,-1.5173437955600873e-07
feature_14,-4.5974219489708365e-08
feature_11,-3.132044379986973e-08
feature_7,-4.649688045525735e-09
feature_6,2.684959501961584e-08
feature_10,4.1547679861635156e-08
feature_17,3.4513197626229523e-06
feature_18,3.637731788451795e-06
feature_16,3.903724930617337e-06
feature_27,4.457811384125012e-05
feature_20,8.94998110425242e-05
feature_31,0.00010223892903773518
feature_39,0.0001645093419363505
feature_19,0.00018641099712426697
feature_35,0.00023012966729273342
feature_37,0.0003156733849491846
feature_15,0.0004015414167016284
feature_33,0.0006546568841635486
feature_29,0.0009596928322536854
feature_30,0.001214045152715499
feature_36,0.001306442544131372
feature_40,0.0023034058458346767
feature_22,0.006450740329598398
feature_25,0.007930258283119187
feature_21,0.008850627031518414
feature_2,0.011018104493714853
feature_1,0.01111285398800107
feature_28,0.013585232771663264
feature_5,0.015499763496625654
feature_24,0.024919622201110984
feature_4,0.02577752230769787
feature_23,0.029824800713963134
feature_3,0.029860488983275424
feature_26,0.040463505392467236
