feature,mean_importance
feature_28,3.586952609111807e-05
feature_26,7.520533819989419e-05
feature_40,9.128775366700829e-05
feature_31,9.628094301196155e-05
feature_6,0.00010492946049573022
feature_27,0.00012041625469014425
feature_9,0.0001220304217846229
feature_8,0.00013062116171826468
feature_29,0.00017038942571287463
feature_30,0.00017463690719978707
feature_11,0.00018750212031691318
feature_33,0.00018831240253928475
feature_18,0.00020448161769598682
feature_10,0.00021509809254685597
feature_7,0.0002369059879399088
feature_38,0.0002509049743530334
feature_39,0.00025201936888965724
feature_19,0.0003093556325894413
feature_32,0.0003400555735229075
feature_16,0.0003483480153647259
feature_36,0.00035503186533032276
feature_12,0.00042977783793564026
feature_37,0.00045554946579730163
feature_17,0.0005248211314202392
feature_13,0.0005410354054670771
feature_35,0.0006667089489497478
feature_25,0.0008824589077864313
feature_14,0.0010077304913607612
feature_34,0.0014849388524300507
feature_1,0.0016859955323711815
feature_22,0.0016867476888403053
feature_21,0.0017287120235241003
feature_2,0.0017293996555985472
feature_20,0.0020729996196148072
feature_5,0.0025266384566338786
feature_3,0.0026389918535854617
feature_15,0.0029033754191480107
feature_23,0.003528590207940696
feature_24,0.006878891962415314
feature_4,0.009251489795086389
