0,0.03341292037012594,0.02981584587977606
1,0.033001992254480764,0.029127025948125898
2,0.03245448321287822,0.028742341060441445
3,0.03206755057671001,0.028385180331104588
4,0.032115233485543834,0.02841924511245864
5,0.03191582342066071,0.02838486143943671
6,0.03200240296331505,0.02841966188764743
7,0.03198860684475383,0.028453029669354098
8,0.03195399320798413,0.02842121537036092
9,0.031872828095620635,0.02832117285077765
10,0.03187952172753282,0.028341648791957982
11,0.03185233050970215,0.02827040326631275
12,0.031831327243426806,0.02825287912246908
13,0.03181166925754246,0.028267145548622686
14,0.031723855606093955,0.028185346100773154
15,0.03173196442714382,0.028216729172491503
16,0.031736535294121765,0.02824590598543611
17,0.03157176056085091,0.02810697080352814
18,0.03159475542534858,0.028131393679864718
19,0.031606069579797155,0.028134333292988097
20,0.031564979896899194,0.02811085008600111
21,0.03161898804464339,0.028136485597368675
22,0.03161958962645172,0.028152431473678744
23,0.0316320299288128,0.028166664244180916
24,0.031655602125686313,0.02818264214094056
25,0.03166386111969058,0.02817135785830888
26,0.0316500657226862,0.028190809161029222
27,0.03165814344906163,0.02818396141165059
28,0.03167697914544067,0.028204305083760605
29,0.031642299200662,0.028191346663702013
30,0.031675726557739724,0.02820662931761965
31,0.03169348027251113,0.028213505492136623
32,0.031658490091733826,0.028205888824579983
33,0.0316809552786041,0.0282174507118633
34,0.03171230213685737,0.028235823065378744
35,0.03171890004887572,0.02822983737184112
36,0.03172038684177478,0.028231142842917303
37,0.03174635443244529,0.02824998122791725
38,0.03175550524013702,0.028238711233504642
39,0.03177571461160364,0.02825124475477718
40,0.031791248134473434,0.028270828833084977
41,0.03171461887424039,0.028212187943218513
42,0.03171816150587296,0.02822590819609908
43,0.03170696132095693,0.02821864805865386
44,0.03171340509510225,0.028217834558917278
45,0.03172558589162413,0.028223759501746198
46,0.031740280025834296,0.02823167011250692
47,0.03171624785974771,0.028231806431070542
48,0.031701511816364096,0.028226888775119224
49,0.03168751522605242,0.028225709152742518
50,0.031698140936028636,0.02823490091445119
51,0.03170907094448443,0.02822974085799095
52,0.031721005339207665,0.028229527939643523
53,0.031719199441370256,0.028230379265789213
54,0.031723942202891445,0.028232331898121944
55,0.03173206375183695,0.028242687501931332
56,0.03174391193454334,0.028235499355995973
57,0.0317548601377968,0.02824042775648558
58,0.031732417478496,0.02823674375126904
59,0.03172842158296951,0.02822944074508146
60,0.03174255473637852,0.02823854023588058
61,0.03175841324067228,0.028250849031988184
62,0.03175535767029736,0.028246219396077302
63,0.03176393827287475,0.028257175684336618
64,0.03175407059067021,0.028240915562341533
65,0.031750978349015115,0.02824357884581631
66,0.03174809486443441,0.028240425696535138
67,0.03172623687394563,0.028216895310657134
