feature,mean_importance
feature_34,-7.832200744916501e-07
feature_10,-5.031223221825531e-08
feature_11,-4.4297602646257984e-08
feature_6,-1.4390013898003818e-08
feature_7,-1.123617822396117e-09
feature_9,-4.758137441343568e-10
feature_8,3.008689923537228e-08
feature_38,5.5968809335379954e-08
feature_12,1.1063469688016303e-07
feature_14,1.3263553433860709e-07
feature_13,4.903168246970721e-07
feature_18,2.814024532066424e-06
feature_17,3.0234040067763854e-06
feature_16,3.077524467199298e-06
feature_27,9.368988389021025e-06
feature_31,4.06626832825897e-05
feature_20,5.5665733822543587e-05
feature_40,5.9251003587497926e-05
feature_35,7.522735964933333e-05
feature_19,0.00016209967762982283
feature_39,0.00020544381520674025
feature_37,0.0003334759009842824
feature_15,0.00035856732864465723
feature_36,0.00043495165956304973
feature_32,0.0005251324495482105
feature_33,0.0006844425683988506
feature_30,0.0009107769058477593
feature_29,0.0010316296738311851
feature_28,0.0020719323987371785
feature_26,0.0022229692778467885
feature_25,0.003896381288996327
feature_5,0.01135741550687674
feature_22,0.017507596917724192
feature_21,0.018363226480728245
feature_2,0.018803625411697222
feature_1,0.019260074141598863
feature_3,0.020301318701511088
feature_23,0.020587823712312513
feature_24,0.023347056625230483
feature_4,0.023766694571138242
