feature,mean_importance
feature_28,2.295942050890773e-05
feature_6,4.865311042808046e-05
feature_31,7.753219301849939e-05
feature_11,8.738747597705487e-05
feature_26,9.541608152439513e-05
feature_18,9.724433996131446e-05
feature_38,0.00011567891376199485
feature_27,0.00012120343720212826
feature_29,0.00013662830275736824
feature_40,0.0001390535108131523
feature_30,0.00014385508875592242
feature_8,0.00014968667269194894
feature_7,0.0001501108646136527
feature_9,0.0002013764499031373
feature_32,0.00022475306161573867
feature_12,0.0002560785017517053
feature_37,0.0002584683213178521
feature_10,0.00034505353128556004
feature_36,0.00045210152242194793
feature_19,0.000460614331289963
feature_17,0.00046915327356224223
feature_25,0.0004720891286407958
feature_3,0.0005006738561398397
feature_33,0.0005077423604203206
feature_16,0.0005144694765688886
feature_39,0.0006648078880065446
feature_13,0.0006761417526074904
feature_35,0.0008993912057245243
feature_1,0.000936476203869057
feature_14,0.0012348530559857392
feature_23,0.0012900692429216264
feature_2,0.001327746718627218
feature_20,0.001712975642810359
feature_21,0.0017192704122638645
feature_22,0.0017268853541413866
feature_15,0.00216259305700384
feature_34,0.0022410320819722163
feature_5,0.00334503741464015
feature_24,0.005867709564213102
feature_4,0.007991682251072954
