feature,mean_importance
feature_9,-2.6882046587976307e-06
feature_8,-1.0390930688778526e-06
feature_11,2.4783814978578123e-09
feature_27,3.8655571621909816e-07
feature_18,1.49336781758002e-06
feature_32,2.8738974445547195e-06
feature_6,4.642723957519641e-06
feature_33,6.781876815184669e-06
feature_34,7.073437839481486e-06
feature_13,1.0001939102400378e-05
feature_10,1.0173765335810911e-05
feature_30,1.0565865504347152e-05
feature_29,1.1292229860056061e-05
feature_7,1.2721459695658274e-05
feature_12,1.3209410737138276e-05
feature_36,1.7607523962859336e-05
feature_1,1.833174603731386e-05
feature_38,2.0742672339108587e-05
feature_16,2.2040094142444355e-05
feature_2,2.606517073705109e-05
feature_3,2.8714856720938545e-05
feature_3_ratio_feature_23,3.056388592131863e-05
feature_28,4.044618583536443e-05
feature_20,6.162897714621389e-05
feature_14,7.781701287415746e-05
feature_17,9.04464311157976e-05
feature_37,0.00010355281078838355
feature_26,0.00010631446425951007
feature_39,0.00010852045017788782
feature_40,0.00016825691535738265
feature_15,0.0001891645942674108
feature_19,0.00022140478304195102
feature_22,0.0002713256695928669
feature_24,0.0002742983393835282
feature_31,0.0003058182126858859
feature_23,0.0003359976342573373
feature_21,0.00036154196218968475
feature_25,0.0006252506688760841
feature_4,0.0007994727279517309
feature_35,0.0008093219855143781
feature_24_ratio_feature_4,0.00666678332194269
feature_23_ratio_feature_3,0.007729601517220899
feature_5,0.0082622118146756
feature_4_ratio_feature_24,0.011381176327720463
feature_3_diff_feature_23,0.016766012370608666
