feature,mean_importance
feature_8,-2.5386384560819457e-06
feature_6,9.224091707443239e-07
feature_7,1.6970616623823882e-06
feature_9,3.664757507963485e-06
feature_10,4.772342710052373e-06
feature_27,8.162950665706586e-06
feature_34,8.398015361293487e-06
feature_11,1.1305503934647218e-05
feature_13,1.603611328646337e-05
feature_38,1.6270778691269277e-05
feature_12,2.191892576072843e-05
feature_36,2.4345890591785572e-05
feature_32,2.488762861521587e-05
feature_33,2.702234575646537e-05
feature_29,3.208228469223891e-05
feature_1,3.449004323005959e-05
feature_16,3.5372196262223324e-05
feature_20,3.937304323948813e-05
feature_31,4.0548284497216386e-05
feature_2,4.084032815835697e-05
feature_18,4.741807202784118e-05
feature_30,5.217815802827435e-05
feature_26,7.82338366658729e-05
feature_28,8.485060722955469e-05
feature_40,8.519543537390349e-05
feature_37,0.00010957108222385869
feature_17,0.00010972356321240582
feature_24,0.0001542759621782695
feature_14,0.00015732859537324835
feature_15,0.00017149627231399667
feature_19,0.0001809372634206407
feature_22,0.00019497176748985433
feature_39,0.00020738230018216278
feature_21,0.00023630898283705134
feature_23,0.00024558807094950016
feature_3,0.00025179424499505355
feature_25,0.0005173821950532412
feature_4,0.0006934188609152452
feature_35,0.0009277559926850858
feature_5,0.0032746702586215403
feature_3_diff_feature_23,0.005502807394318969
feature_23_ratio_feature_3,0.005832324118849201
feature_24_ratio_feature_4,0.00669191409819295
feature_4_ratio_feature_24,0.0072910289102804905
feature_3_ratio_feature_23,0.007988182214341794
