feature,mean_importance
feature_7,-1.949689141443611e-06
feature_8,-1.8786845099971576e-06
feature_6,1.2799131079998388e-06
feature_9,1.8773054836148348e-06
feature_34,2.9834090334899566e-06
feature_12,4.184699082774093e-06
feature_27,8.416911244267435e-06
feature_38,8.565912983568656e-06
feature_33,1.3344460691102918e-05
feature_32,1.6118952874258437e-05
feature_10,1.6794508224248027e-05
feature_11,1.8818921396474704e-05
feature_29,2.2417736862229317e-05
feature_13,2.3811185662627517e-05
feature_2,2.6937788469987966e-05
feature_30,2.829346916722762e-05
feature_26,3.226623399941878e-05
feature_18,4.2957648852420295e-05
feature_16,4.6235818661169434e-05
feature_36,4.699502239052774e-05
feature_31,5.685730436520821e-05
feature_1,6.108497643028312e-05
feature_28,6.499993558212996e-05
feature_20,7.108405264821338e-05
feature_40,7.183245629628458e-05
feature_37,0.00010192066306229687
feature_3,0.00011204639668447791
feature_19,0.00012661109397934774
feature_23,0.00014493290698510027
feature_17,0.00015897156281832755
feature_14,0.0001620295434427342
feature_24,0.00018598123824940718
feature_22,0.00019693336659907672
feature_21,0.0001970864503206651
feature_15,0.0002002678680808759
feature_25,0.0003123074983312535
feature_39,0.0003248370819611713
feature_4,0.0005172987309562799
feature_35,0.0009491327431988411
feature_5,0.002977636470917273
feature_24_ratio_feature_4,0.004752040723536995
feature_3_diff_feature_23,0.005272164679788495
feature_23_ratio_feature_3,0.005514384986175666
feature_3_ratio_feature_23,0.006080301030204634
feature_4_ratio_feature_24,0.009012402125098616
