feature,mean_importance
feature_13,7.549638720626746e-06
feature_2,1.1054744700583329e-05
feature_39,1.4369556186304926e-05
feature_12,2.189932923204402e-05
feature_32,2.22088101065835e-05
feature_38,2.433796286240627e-05
feature_23,2.542630893116555e-05
feature_34,3.260714424455505e-05
feature_6,3.402710258466274e-05
feature_15,3.710214034335748e-05
feature_20,3.734327808402032e-05
feature_26,4.3713192503577315e-05
feature_18,4.6416569002961404e-05
feature_37,4.7956324169479495e-05
feature_3_ratio_feature_23,4.820795520260202e-05
feature_36,4.975657102434848e-05
feature_40,5.1114756013023816e-05
feature_29,7.419922162986157e-05
feature_25,7.923271704159484e-05
feature_31,8.914335204045039e-05
feature_16,9.047609865283965e-05
feature_14,0.00016540638121957272
feature_17,0.00019710306672006379
feature_19,0.00022017947990662793
feature_35,0.0004329075702775214
feature_24,0.0007048795206618642
feature_4,0.0007135568058336193
feature_23_ratio_feature_3,0.0019451102816076486
feature_5,0.0022106864539333995
feature_4_ratio_feature_24,0.0022295550081521576
feature_24_ratio_feature_4,0.014376524835238732
feature_3_diff_feature_23,0.021649343600441334
