feature,mean_importance
feature_12,-0.00010633658615191183
feature_32,-0.00010459848963551166
feature_29,-3.0032596588877234e-05
feature_13,-2.940813003041772e-05
feature_38,-9.71254302949351e-06
feature_34,1.4591484344843308e-06
feature_2,7.63018571327198e-06
feature_23,2.0210235479905386e-05
feature_20,3.276187660859794e-05
feature_6,3.286549252907809e-05
feature_37,4.5968033330159167e-05
feature_14,5.166102444692285e-05
feature_17,5.3938322796221946e-05
feature_26,7.729606072475522e-05
feature_18,8.71323028153164e-05
feature_31,0.00012883184892847189
feature_36,0.0001440534336087658
feature_40,0.00014747894222470365
feature_15,0.00015158109068051027
feature_24,0.00015398358425044688
feature_39,0.00016194741659089558
feature_16,0.0002004260041746409
feature_25,0.0002727190159814095
feature_19,0.00028691032383607143
feature_35,0.0002996830143432544
feature_4,0.0008123200770242661
feature_5,0.0008673667366078889
feature_24_ratio_feature_4,0.0032673822484687283
feature_23_ratio_feature_3,0.0034436049490072056
feature_3_diff_feature_23,0.009723941693291927
feature_4_ratio_feature_24,0.010062275784425857
feature_3_ratio_feature_23,0.016526681718006437
