feature,mean_importance
feature_32,-0.00014630521161630093
feature_2,-7.23877831870036e-05
feature_12,-6.961928629080801e-05
feature_1,-6.240531351022032e-05
feature_9,-4.8810104536164964e-05
feature_22,-4.62378663496698e-05
feature_13,-3.1537252747259116e-05
feature_10,-2.1482982694216204e-05
feature_21,-1.478059049603124e-05
feature_11,-1.095280018633231e-05
feature_23,-9.651106177309237e-06
feature_20,-5.213920191130331e-06
feature_18,-3.826831784750802e-06
feature_6,-2.4165194637959866e-06
feature_30,-1.209451251514386e-06
feature_33,4.646794284189453e-06
feature_3,6.242229533538757e-06
feature_34,6.4883396143416636e-06
feature_8,8.157766874149035e-06
feature_38,9.377702906598722e-06
feature_29,1.1213379085602514e-05
feature_27,2.4521019429390827e-05
feature_7,2.5259427030184522e-05
feature_40,3.679452268656284e-05
feature_28,5.122261837877326e-05
feature_31,7.873231169412704e-05
feature_16,8.57527847066707e-05
feature_15,9.514648999720786e-05
feature_26,0.00010045977425097562
feature_37,0.00010910146928601525
feature_36,0.00011732514695210437
feature_17,0.00021238808343055428
feature_39,0.0002181297151428686
feature_24,0.00023210484825924183
feature_25,0.00025326666687317656
feature_19,0.0002645881268164995
feature_35,0.0003654688560458046
feature_14,0.000384709961000357
feature_5,0.0008434485933524486
feature_4,0.000986245867888255
feature_23_ratio_feature_3,0.003701469065900846
feature_3_diff_feature_23,0.004971625825463696
feature_4_ratio_feature_24,0.005307333533155325
feature_24_ratio_feature_4,0.00814889566529602
feature_3_ratio_feature_23,0.009540649345184296
