1,0.1245977661657305,0.1252089333983026
2,0.09562053284327056,0.09782850274768085
3,0.0883859550525336,0.09050515324311863
4,0.08453933902252517,0.08678182018151909
5,0.08186062125332888,0.08415383132171726
6,0.07990584755783994,0.08216561331511649
7,0.0782938914767659,0.0806999501796329
8,0.07680476323757934,0.07916271410850317
9,0.07548898220644763,0.07801860806139287
10,0.07439953158973503,0.07702863112325196
11,0.07335120047382047,0.07595205681853824
12,0.07241289162015244,0.07506105476090703
13,0.07151820504424988,0.07419751907827543
14,0.07064911144687012,0.07335426611931364
15,0.06980516773817122,0.07238795741909117
16,0.06904362401137158,0.07163727853490609
17,0.06845413144120316,0.07114797752484561
18,0.0679008945614498,0.07060224040946625
19,0.0672830517754232,0.06986388665930149
20,0.06679672235122486,0.06938583276142694
21,0.06638070750045687,0.06900219069166813
22,0.06596363388714167,0.06855555361113541
23,0.06558761029078747,0.06822670482950577
24,0.06524590013860815,0.06785529148983539
25,0.06489475340311075,0.06754717169657104
26,0.06459129958664125,0.0672467379071786
27,0.06429396349198868,0.06697923101811079
28,0.06400912472493449,0.06668077758383512
29,0.06374845884784419,0.0663481500601766
30,0.06347743777251179,0.06619252010997805
31,0.06324522315389683,0.06592253065696345
32,0.06302706235842738,0.0657238383615653
33,0.06287037035675931,0.06569986891010682
34,0.06264129409749368,0.06536599600860571
35,0.06243656514797638,0.06516695439447866
36,0.06224298956169662,0.0650426967417639
37,0.062070515703122366,0.0647985798295588
38,0.06188114909172443,0.06468643219663657
39,0.06172997011649541,0.06453469014687606
40,0.06156433359703208,0.06435690377601427
41,0.061410662646399515,0.06425307455083672
42,0.0612586636677656,0.06410307035972802
43,0.06111103303816013,0.06390979992271936
44,0.06097039133381583,0.06384708589612266
45,0.060861446941889975,0.06368121265545756
46,0.06073828330264959,0.0636875602810189
47,0.06059268114794391,0.06350792648593967
48,0.060474477762233,0.06335219437011003
49,0.06035654440617957,0.06327654672281723
50,0.060245936284390025,0.06319306218680573
51,0.06014225571173332,0.06308562576575531
52,0.060049101139009964,0.06304676681948777
53,0.05994365042136011,0.06291696200191031
54,0.0598476416821346,0.06282225877019817
55,0.059758281923808075,0.06277869681774707
56,0.059666512740215026,0.06267440960734644
57,0.05957987916570807,0.06259914983040957
58,0.05949745525463481,0.06251906129831139
59,0.05940059837108067,0.06247725861355696
60,0.059322665675269615,0.062433807904833785
61,0.059231706487387216,0.06231202529838314
62,0.05915744655327842,0.06221928079152048
63,0.0590813268574457,0.0621589993836451
64,0.05900146876128136,0.06211706795589171
65,0.05893132244929353,0.06205583861886861
66,0.05886397684457465,0.06197651642026816
67,0.05879093741198384,0.061913771702038746
68,0.05871978825310705,0.06188057965621198
69,0.058664810947414256,0.06182008110231711
70,0.05858969087143631,0.06174276239497699
71,0.05852569134664131,0.06171948677717573
72,0.05845961054368023,0.061636194071247936
73,0.058401725132718955,0.06160139762438303
74,0.05834455677200619,0.061530670899855394
75,0.058278370012062326,0.061475790876451414
76,0.058224337399285044,0.061433078019704566
77,0.05816786353654239,0.06137446252862512
78,0.05812105722551397,0.061368070456665355
79,0.058051311877782306,0.0612809893871404
80,0.0579984332366129,0.061230916377398095
81,0.057944891859227424,0.0611987232414943
82,0.057898180584835805,0.061150178488063645
83,0.057845332811483643,0.061111710713984815
84,0.05779446529467038,0.061055261956960864
85,0.05774825936736717,0.06098735337233767
86,0.05769840054026277,0.060964044390991824
87,0.05765268817829259,0.06089970245370963
88,0.05760619424852529,0.06090851854266884
89,0.05755710129740745,0.06085575260852163
90,0.057514617928102744,0.060854752623572005
91,0.05746611241449918,0.06076365386034011
92,0.05742075919497036,0.06076173440510777
93,0.057375135828170304,0.060727715555848494
94,0.05733248153268711,0.06067051745630859
95,0.05729179039823715,0.06064543382480983
96,0.05725087116823996,0.06060735143075543
97,0.05720803511960392,0.06059259161767597
98,0.05717152616793121,0.0605574547372459
99,0.05713417981189335,0.06054646011814338
100,0.05709527008760321,0.06048599132424789
101,0.05705358208760235,0.06049078575981686
102,0.0570227529944553,0.060477187228245396
103,0.056995140339005886,0.06039216866275049
104,0.05694257903427745,0.06040995326966619
105,0.05690989484048917,0.06035196022212446
106,0.05687331426228509,0.06032952722541839
107,0.05684242759461503,0.06029448239601452
108,0.05680959846707868,0.060263107744786326
109,0.05677653047100402,0.060243820969543005
110,0.056739862933186544,0.06021693974990067
111,0.056714963859619445,0.060190477762375016
112,0.05668573164222655,0.06015103787333182
113,0.056653556765653236,0.060101395894584325
114,0.05661523082178912,0.0600966767473849
115,0.05658800545245056,0.060054836545239465
116,0.056557425843767765,0.060044515110704515
117,0.05653504659881491,0.06005507027774264
118,0.056496275732137016,0.059970492474686485
119,0.05646790386951126,0.05995190021680297
120,0.05643591117349152,0.0599210346346993
121,0.05641464487132797,0.0599386589957359
122,0.056380782843450196,0.05986764668998446
123,0.056351367925962875,0.059834425534524234
124,0.056323323310749955,0.05979123340817017
125,0.056294698813347005,0.05977422539871464
126,0.05626740166052184,0.05975394142536028
127,0.05624034979920384,0.059719797064815616
128,0.056214305193891326,0.05970000515852083
129,0.05618640057121984,0.05967187531216628
130,0.0561614648135947,0.05966546681643352
131,0.056133971851969035,0.0596384287599534
132,0.056111117383393555,0.05961389903207406
133,0.05608081398729438,0.05957293367133582
134,0.05605812315640369,0.05957254227662468
135,0.056030136008085554,0.059521774825151016
136,0.05600760169407586,0.05950502416827915
137,0.05598493289669603,0.05946983198559296
138,0.05595838148270534,0.05947124291697598
139,0.055932818096105674,0.05943173020650047
140,0.055912625713122194,0.0594161215689876
141,0.05588398147961075,0.05938993163581803
142,0.05585968615947826,0.05937324897866767
143,0.05583765789800315,0.0593757467288145
144,0.0558137599901878,0.05932872644496931
145,0.05579157775942166,0.0593087234998064
146,0.055770031471519994,0.05927761939665762
147,0.05574529618552687,0.05928591834238592
148,0.05572560950106752,0.05927673629929045
149,0.05569986191488863,0.05925564149399605
150,0.0556773612855697,0.0592298222120549
151,0.05565611460521046,0.059216607448899644
152,0.05563542987410957,0.05918904276661287
153,0.05561234500225201,0.05918511791592166
154,0.05559282861269214,0.05918466746473328
155,0.055573398713579296,0.05917431280577577
156,0.05554821935267939,0.05913022879420131
157,0.05553524749628897,0.05915341672080654
158,0.05550773178149392,0.059108723742473966
159,0.0554875018086687,0.059068779732700104
160,0.05546594117786002,0.059075393440947935
161,0.05544692552818269,0.059039775063889105
162,0.05542728236039862,0.05905935883678179
163,0.055406392864635744,0.05903859075909793
164,0.05538572730274027,0.059016328117888414
165,0.055365632748623266,0.05897765070659744
166,0.05534941671935682,0.05894869787028064
167,0.05532784318665098,0.05895626524637768
168,0.055309572463324484,0.05894459377303117
169,0.0552906763338582,0.0589144948832609
170,0.05527214184061589,0.05889180674440166
171,0.05525398322932166,0.05888930120693761
172,0.055236951374099306,0.05886651325682647
173,0.05521907575248035,0.05887010546293196
174,0.05520021589449455,0.05884056510572865
175,0.05518264208926637,0.05881827901758387
176,0.05517202306265623,0.058839698455443915
177,0.05514802236385587,0.05879779958207009
178,0.05513119494789179,0.05878675404928165
179,0.05512202038916467,0.058797895836993824
180,0.05509619668564781,0.058755517455024345
181,0.055079304668289364,0.05874814318995599
182,0.05506116389611019,0.05871417620349413
183,0.0550431655314037,0.058701843834634594
184,0.05502571249539712,0.058685944741113445
185,0.05500773837323251,0.058674837352195655
186,0.05498977799579346,0.05867706723225368
187,0.05497353186598534,0.058648830647411
188,0.05495776399156584,0.05866385943361983
189,0.05493913185911807,0.05861824070723016
190,0.054921755133661446,0.058604704063551886
191,0.05490518500439025,0.05858737050286703
192,0.054890705304909436,0.05859086793700891
193,0.05487312565161049,0.05855661374476451
194,0.05485800496458977,0.05853230820050922
195,0.054841418314657026,0.05850632595339838
196,0.05482477977981675,0.058514942369894254
197,0.054808486904232144,0.058489936110524644
198,0.054792844720548156,0.05848181869210839
199,0.05477715121105085,0.05845280996939968
200,0.05476618604838528,0.058423212898933596
201,0.054746868204907484,0.05842598455551942
202,0.054732144366407484,0.058408015032753516
203,0.05471750280717954,0.058401016964027476
204,0.0547031584531877,0.05838404615629752
205,0.054688097281748574,0.058366638390946794
206,0.054673267111655634,0.058351820098206726
207,0.0546593290031045,0.05833203165365225
208,0.05464696277360881,0.05833865592887621
209,0.054631378304024744,0.058307500575897335
210,0.05461785486899614,0.058291734957752854
211,0.054604691382122046,0.058288571823101355
212,0.05459063881467461,0.058269372681647634
213,0.05457682133931577,0.05825751176796752
214,0.05456477128211662,0.05826947514011619
215,0.05454977750413532,0.05824079059337731
216,0.05453625698353854,0.058225629781330425
217,0.05452501884958086,0.058205026887510676
218,0.05451041138004019,0.05821443421797681
219,0.0544970400395704,0.058188495771046234
220,0.05448493275584569,0.05819370645464524
221,0.054470734305986694,0.05816905568591296
222,0.05445967989885911,0.058174781133722334
223,0.05444679458033523,0.05815680824514806
224,0.05443602707823217,0.05813490737917004
225,0.05442115770002802,0.058130884360239936
226,0.05440902985853807,0.05811011153770456
227,0.054398483898679725,0.05811883265010923
228,0.054384318922418635,0.05809732954857838
229,0.054371788342594714,0.058081394585527614
230,0.054362413077192445,0.058061218779703355
231,0.0543484157348119,0.05807489193803696
232,0.05433675454479557,0.05806366669255659
233,0.054324559499469384,0.05804378847496297
234,0.054312393195995,0.05804707198674917
235,0.05430052894089597,0.05802977431202788
236,0.05429018849972759,0.058033482777954074
237,0.054277887070092554,0.058013897141769306
238,0.054266467194299506,0.05799579874525251
239,0.054255053019690434,0.05798864282129336
240,0.05424401677745104,0.057984425663526344
241,0.054232866184488096,0.05796312923991729
242,0.05422126962138166,0.057958173441048845
243,0.05421126801230737,0.05796298806028023
244,0.054199215752539776,0.05794062236582134
245,0.05418817822519007,0.057927080445511606
246,0.054177156127994154,0.05791595630565325
247,0.05416643083521801,0.05791804798975039
248,0.05415513811777431,0.05789015151658453
249,0.054145667725963055,0.05790441046389828
250,0.054132549026070294,0.057878274869857714
251,0.054121800595001046,0.05786382583545744
252,0.05411112473575817,0.057863889011043855
253,0.054100291840935205,0.057845848482748916
254,0.0540900275770487,0.0578357889422276
255,0.05407965797524206,0.057825739562579824
256,0.05406915018406447,0.057816498676570134
257,0.05405812227259134,0.05780795078812198
258,0.05404790991727183,0.05779698722893894
259,0.05403792722560181,0.05778876252633116
260,0.054027216362860314,0.057786823977276844
261,0.05401808729092971,0.05776785411489503
262,0.05400740865856407,0.05777527511098741
263,0.0539973619064176,0.05775206270298776
264,0.053987320854025196,0.057746939450072636
265,0.053977865753081895,0.057731835182179496
266,0.05396788293269116,0.057731485147978795
267,0.053957539112213314,0.05772154643713775
268,0.05394842159210493,0.0577133638532413
269,0.05393803827264478,0.05770113208717495
270,0.05392811016480008,0.05770117548028074
271,0.0539179227585038,0.0576879705946444
272,0.05390838193685476,0.057684477359993144
273,0.05389868607675701,0.05766714090228513
274,0.05388895372947459,0.05766035281415243
275,0.05387901647542524,0.05766123507355382
276,0.053870090393303025,0.057664698026606856
277,0.05385935021879805,0.05764314169659216
278,0.053849497875173354,0.057637159176569946
279,0.053839746352340095,0.057631636910313755
280,0.05382992215981879,0.05761453949019951
281,0.053820321417734004,0.0576105215846717
282,0.05381086502755998,0.0575921392222717
283,0.05380172469247555,0.057591844381364665
284,0.05379239239860006,0.05758520831700386
285,0.053782988819763095,0.05757247319267152
286,0.05377384107066699,0.057566391192685085
287,0.0537653690741797,0.057558582832840544
288,0.053756423321629145,0.057558466980717836
289,0.0537472483618955,0.057546117689029404
290,0.05373869467987645,0.057543347807380796
291,0.053730031070105835,0.057521152149565165
292,0.05372142825301013,0.057526950486994834
293,0.05371220487103279,0.05751488080020574
294,0.05370365357679685,0.057499940450886945
295,0.05369509575947064,0.05749474437956767
296,0.05368630133599663,0.057485775915529176
297,0.0536779051842673,0.05748464264008228
298,0.05367039804191168,0.0574679700350468
299,0.053662288387827356,0.057482618769080236
300,0.05365246868204141,0.05746045322049587
301,0.053644364763785715,0.05745686515545058
302,0.053636137764293386,0.05745441690486076
303,0.05362797277304973,0.057446765267320885
304,0.05362026305977742,0.057446124689439056
305,0.053612222328282326,0.05742333515285294
306,0.0536055257440668,0.057435089298333394
307,0.05359622244127246,0.05742458425827999
308,0.053588120209903174,0.057409706751675636
309,0.05358039703121111,0.057402894937755224
310,0.05357266767154158,0.05739524630117913
311,0.053564530717817534,0.0573942208759169
312,0.0535564622676287,0.05738112839546453
313,0.05354945558296071,0.0573745266206308
314,0.053540892308574485,0.05736961773759896
315,0.05353297474045997,0.05735735957955834
316,0.053526038536447496,0.05736389343524921
317,0.053519126684677815,0.05733504808125212
318,0.05350968037920743,0.057343976840155735
319,0.05350202619844411,0.05732992636093765
320,0.05349569236133142,0.05734154664577899
321,0.05348695382781715,0.057323876515699985
322,0.053480860423809916,0.05732958118467934
323,0.05347213024495662,0.0573079074511553
324,0.053464516774922394,0.057310056643640375
325,0.053455863648224015,0.057290992490832957
326,0.05344928811011725,0.057269809009565534
327,0.05344031966351407,0.05728130292812408
328,0.05343239230147007,0.057270871869709285
329,0.05342376942432192,0.05725684406902194
330,0.05341491558815374,0.05724596813929512
331,0.05340706462869689,0.05725398687147061
332,0.05339865784546277,0.057243992206414594
333,0.05338996227674156,0.05722776083136187
334,0.0533822587564822,0.05721957853850271
335,0.05337483759932125,0.057212081785798945
336,0.05336707957505126,0.057216759231897285
337,0.053359186773767955,0.05721408767345508
338,0.053352373055177066,0.05719346830643153
339,0.053344021419006606,0.05719831091976042
340,0.05333667550105954,0.057185112243906655
341,0.05332925668018637,0.057182624298525817
342,0.05332196364990685,0.057179211072163186
343,0.05331502223259115,0.057173064753170834
344,0.05330776420186923,0.057164030382711645
345,0.05330102616877831,0.05716941548892881
346,0.05329360861476054,0.0571600489086235
347,0.05328674773803699,0.05715007162468684
348,0.05327931908320893,0.057137941116671684
349,0.053272159588697056,0.0571441521096416
350,0.053264458376008836,0.0571329892601374
351,0.053257906461659045,0.057117793740765636
352,0.05325048706081422,0.05711610639586408
353,0.05324343736083087,0.057109938438978075
354,0.0532366949372771,0.057112250447269454
355,0.053229618420303666,0.05710219107998097
356,0.05322325352192502,0.0570938086599265
357,0.05321646228480302,0.057086501427779976
358,0.053210573675777174,0.05707756929171658
359,0.05320331698002941,0.05708317593148194
360,0.05319667117222795,0.057076319459912137
361,0.053190112560320274,0.057068978119986
362,0.05318370612574315,0.057065517456557184
363,0.053178120610539385,0.057063339780291246
364,0.05317097537798017,0.05704818953948578
365,0.053164078094879684,0.0570454562529511
366,0.05315786217791897,0.05703363360825905
367,0.05315124774939478,0.05703804141953793
368,0.053144840220039756,0.05702944112868894
369,0.05313841547368907,0.05702509401077409
370,0.053132126983735144,0.057018325077313387
371,0.05312575268014926,0.05701248961830473
372,0.05311935075937165,0.05700494012480823
373,0.05311310190305179,0.05700091004854581
374,0.053106636732338584,0.05699287826749536
375,0.05310086962789065,0.05699652513661433
376,0.05309471293758904,0.05697726159579389
377,0.053088309551755905,0.05698844222907863
378,0.05308170836132167,0.05697656859482984
379,0.053075538675507836,0.056967004999271466
380,0.05306973900850822,0.05697249316875994
381,0.05306363739498405,0.056956220918825774
382,0.05305735148431906,0.0569546967922181
383,0.053050935944618904,0.0569489071112976
384,0.05304486157560164,0.056943685833269655
385,0.053038880614923886,0.05693678510071467
386,0.053032823076988506,0.05693262960740994
387,0.053027506532770885,0.05694090935775696
388,0.053020098782526365,0.056923162900205285
389,0.05301351831151977,0.05691698630224375
390,0.05300826861276356,0.05690456075951526
391,0.05300098098240439,0.05691711177656301
392,0.05299442308984216,0.056905826548148436
393,0.05298875248080331,0.05690921702476658
394,0.052982492665308537,0.05690015552519546
395,0.052976216556086954,0.05689506662412636
396,0.052970424437866585,0.05689424260441068
397,0.052963974932880485,0.05688172684386076
398,0.05295792722377231,0.056877856829281224
399,0.05295217042199365,0.05687847760730783
400,0.05294621635572322,0.05687270001716591
401,0.052940156321443575,0.0568661807693443
402,0.05293432855753546,0.05685900048307745
403,0.052928563717525245,0.0568627970366072
404,0.05292246793035311,0.05684704500015999
405,0.0529168217113676,0.05684491975015631
406,0.05291053977027106,0.05684444607291404
407,0.05290461841030976,0.05683033374756353
408,0.05289862291269766,0.05682882971395365
409,0.05289281684074485,0.05681812337649112
410,0.052886919471155015,0.056815077432766176
411,0.052881437953227674,0.05680991396929857
412,0.05287542350738394,0.05680786117845717
413,0.052869698581874756,0.05680419391212252
414,0.05286444789288673,0.056807335523317286
415,0.052858269075101015,0.05679196453619626
416,0.05285274963480352,0.05679257582053014
417,0.05284670212404619,0.056776809626999186
418,0.05284120803853973,0.05678319365134516
419,0.052835515105440135,0.056777329401801635
420,0.052829613903450666,0.05676896962113167
421,0.052824775577474815,0.05675409213300317
