feature,mean_importance
feature_12,-3.198009405033439e-07
feature_14,-3.0980031099185625e-07
feature_13,-1.6303464794049233e-07
feature_18,-4.0091451701876335e-08
feature_9,-2.1130866542130867e-08
feature_11,-1.3338992235940872e-08
feature_10,3.28929975449907e-08
feature_7,3.9097142830873956e-08
feature_16,4.8053746490826774e-08
feature_8,5.0149507548578884e-08
feature_6,1.450795344809172e-07
feature_17,1.0706946816639932e-06
feature_38,1.615489728729741e-06
feature_34,4.728129876013093e-06
feature_15,2.4485122418566563e-05
feature_27,3.673602304900721e-05
feature_19,7.098054073257019e-05
feature_31,9.937184645657446e-05
feature_40,0.00015955901671305152
feature_39,0.00027251693983623286
feature_35,0.00028971556786387307
feature_20,0.000362176654707585
feature_36,0.0005283859661891233
feature_29,0.0019130643182818214
feature_30,0.0019379101906598904
feature_25,0.0032717275516291624
feature_37,0.004189110806970466
feature_33,0.0071884212598417015
feature_5,0.012465604358757713
feature_2,0.012815456649472364
feature_22,0.01320826432917804
feature_1,0.015747297394071488
feature_21,0.01577947241224404
feature_24,0.020484433828092206
feature_4,0.02061779950767815
feature_3,0.02069643157190375
feature_23,0.02143546176490104
feature_28,0.08471485963607353
feature_26,0.09966253488283769
feature_32,0.5789088134353189
