feature,mean_importance
feature_8,-3.8412746334383e-06
feature_10,6.744208850600376e-07
feature_9,1.1158324628540023e-06
feature_7,4.102496398721272e-06
feature_34,4.128437374716857e-06
feature_27,5.682323771272896e-06
feature_6,9.0212801412963e-06
feature_11,1.47691244035731e-05
feature_32,1.5996002209960317e-05
feature_12,1.6066155212249474e-05
feature_36,2.0047675067618504e-05
feature_29,2.02823818870425e-05
feature_30,2.443879629657388e-05
feature_16,2.4957932116377937e-05
feature_33,2.7342772395986658e-05
feature_38,2.7502834019755336e-05
feature_18,2.8370516360321994e-05
feature_20,3.1382916249152266e-05
feature_13,3.5538794002821104e-05
feature_28,4.045618915562588e-05
feature_1,4.548497194348175e-05
feature_26,4.569942860493245e-05
feature_2,5.806209414735497e-05
feature_31,7.912919564022962e-05
feature_14,9.459784643633395e-05
feature_37,9.510127275384368e-05
feature_17,9.60153672961343e-05
feature_24,0.00016748235408598158
feature_40,0.00018188353772176594
feature_3,0.0001957420276261731
feature_22,0.0002018481967997525
feature_19,0.00022436545247939507
feature_21,0.0002288382526062946
feature_39,0.0002620589859038809
feature_15,0.0002750005359515185
feature_25,0.0003693324368507072
feature_23,0.0004631882023236558
feature_35,0.0007234129264618736
feature_4,0.000783544793436395
feature_5,0.0028019857584344566
feature_3_ratio_feature_23,0.0033621802147569602
feature_23_ratio_feature_3,0.005043401531953528
feature_24_ratio_feature_4,0.005536588263687585
feature_3_diff_feature_23,0.00794909669734228
feature_4_ratio_feature_24,0.008884892089501198
