0,0.16973857226599545,0.16852052836493295
1,0.1575814164951071,0.1567852193199904
2,0.1467097187406787,0.1461390057514989
3,0.137279172452645,0.1369085771925304
4,0.12887703321071153,0.12869969935193495
5,0.12131292189909663,0.12143869217269185
6,0.11471336119057508,0.11505783968726002
7,0.10914942239223911,0.10983695622293689
8,0.10424593589261359,0.1051840777844548
9,0.09984240407576564,0.10084813542238263
10,0.0961463142452697,0.09731079196674375
11,0.09297433962505976,0.09420283728322462
12,0.09003972628107045,0.09136774300120054
13,0.0875301594066586,0.08902475177055962
14,0.08543446721462358,0.08698450805465999
15,0.083685021660077,0.08532790803216683
16,0.08207404537034411,0.08382618863149018
17,0.08055128263484161,0.08234897450474249
18,0.07924993521731448,0.08110390018363767
19,0.07823690513471784,0.08017783162725765
20,0.07726418017048563,0.0792770792794844
21,0.07646386278093767,0.0785297589293479
22,0.07585375416192133,0.07796473434712688
23,0.07530426816059699,0.0774000466814752
24,0.0747219197681465,0.07687231391548749
25,0.07416355076312395,0.0763763565256939
26,0.07374478716475949,0.07597385818797514
27,0.07331965660467278,0.07557324098207045
28,0.07288516118707904,0.07518855674092459
29,0.07246081469469957,0.07477266374374694
30,0.0720776574567635,0.07446933453427834
31,0.07180361323002239,0.07424187258344458
32,0.0715115298104882,0.07398478466230073
33,0.07120379812779908,0.07370209681629268
34,0.07097789446098181,0.0734920552928434
35,0.07070730668317712,0.0732237405514574
36,0.07053657854272875,0.0731139075681576
37,0.07034940553687631,0.07296611814573305
38,0.07009894909225975,0.07277673742551143
39,0.06985012106586015,0.07255771155041972
40,0.0695969262578491,0.07237289497781617
41,0.06920532550908816,0.07199384798000785
42,0.06879049967831602,0.07157936896861834
43,0.06856253959471796,0.07135679334437045
44,0.06809182510526834,0.07089079037773588
45,0.06785637525142313,0.0707066966754506
46,0.06760486503584702,0.07047242200362612
47,0.06742354161889559,0.0703459430922144
48,0.0672867655585315,0.07019747689750137
49,0.06722993879257157,0.070149161536627
50,0.06711000198662613,0.07002691047396134
51,0.06681516905817901,0.06976821301792746
52,0.06663819517752607,0.0695838380948312
53,0.06628130449362056,0.06922855260687712
54,0.06614596333675667,0.06908280194963372
55,0.06609206892347749,0.06903115823946615
56,0.0657878508519161,0.06877650804714035
57,0.06573174995657115,0.06874199475438486
58,0.06538304482850373,0.06840516182017391
59,0.0652923583440573,0.0683218611490843
60,0.06497486823122031,0.06798209218509828
61,0.06483719691613661,0.06789329043969065
62,0.06476543460463162,0.0678359512345048
63,0.06471373383777894,0.06783579315830279
64,0.06463705737995622,0.06779703247426608
65,0.06454052425803555,0.0677239043893224
66,0.06437838559526134,0.06758818277825228
67,0.06429939075618757,0.06752510759575855
68,0.06422241181449016,0.06745889189869282
69,0.06411319436307912,0.06736482811162466
70,0.0640977291934151,0.06736325841292667
71,0.06403056386752205,0.06732010014568875
72,0.06388856621755931,0.06718101516890063
73,0.06372396224106394,0.06702522901594397
74,0.06368418827274824,0.06701192386665407
75,0.06346443731708477,0.06682706331775173
76,0.06343724949310632,0.06681916907225893
77,0.06324404746913548,0.06663389765770868
78,0.0632163114969136,0.06661394240811097
79,0.06313225832147908,0.06657592299842985
80,0.06309925391209652,0.06655335844163571
81,0.06304985475219917,0.0665366140260878
82,0.06298548358228073,0.06648652100633565
83,0.06290609800256176,0.06640500265353752
84,0.06271530509801358,0.06621124239893883
85,0.06269094899074125,0.06619157622923388
86,0.06263879752236627,0.06615443997758963
87,0.06260158113913587,0.06613557930451064
88,0.06256316452555437,0.0661082672678177
89,0.062466888096809566,0.06602272276734938
90,0.062383656040119126,0.06595645047246343
91,0.062342134915943176,0.06592060508865856
92,0.06230964856169452,0.0659167496567877
93,0.06228113652155883,0.06590590694149293
94,0.06222888207624865,0.06587775519127909
95,0.06207438355859719,0.06569683494992969
96,0.06204819481836267,0.06567473889567763
97,0.06195026494905308,0.06560019210987876
98,0.061910798806095346,0.06556882641703317
99,0.061856915421877726,0.06553503062686569
100,0.061792973513045094,0.06550200596612793
101,0.06176016153333882,0.06548626290309376
102,0.061733123775995824,0.06547698465514991
103,0.061610043612564225,0.06535518083706583
104,0.06144878949448528,0.06524865021295255
105,0.06135057075243132,0.06517689063429233
106,0.06132969908813695,0.06517351675313676
107,0.061093848503063895,0.06494530784371406
108,0.06102053209707952,0.06494554799471942
109,0.061001038129746915,0.06493322654467877
110,0.06098801952926228,0.06492896567934778
111,0.06091377203375991,0.06488226241154323
112,0.06088178115450358,0.0648526363594574
113,0.06082802625820265,0.06483127258394139
114,0.060810261448643904,0.064823513536227
115,0.060782930045494295,0.0648129005965761
116,0.060636136488753774,0.06467509339336369
117,0.06060690645144235,0.06465626853532903
118,0.06060173315872662,0.06465599855230121
119,0.06052610656810222,0.06457618696482913
120,0.0604602289055178,0.06452844847550862
121,0.06035698934732143,0.064426848670328
122,0.06031508904604295,0.06441975008334264
123,0.06029879401691765,0.06441935582381313
124,0.060204375678587246,0.06434047297002325
125,0.06018556615492372,0.06432223255272089
126,0.06015834841265915,0.06431914719431932
127,0.06010356002056456,0.06428048173748108
128,0.06007969439802066,0.06427960446434772
129,0.060060244852695184,0.0642611653016859
130,0.059990498367823254,0.06419549476260107
131,0.059910960902624294,0.0640995224365865
132,0.05985440960646782,0.06406243473550506
133,0.05982719315340218,0.06404884711258516
134,0.0597961621168019,0.06403094908321968
135,0.05977283275979453,0.0640271076739201
136,0.0597394850801777,0.06400599724553152
137,0.05971159198293138,0.06399556812273442
138,0.0595983992060587,0.0639231545675716
139,0.059519098826242574,0.06387363385447525
140,0.05946735543193152,0.06382936356301547
141,0.05937349057782611,0.06374500191648633
142,0.05932804604140663,0.0637045034629691
143,0.0592821795105985,0.06367311242222398
144,0.05925915465129824,0.06367207735157449
145,0.0592142183466784,0.06363348593090817
146,0.05920643404742045,0.06363594648793838
147,0.059126690776363636,0.06354283600242001
148,0.05909311646467329,0.06351992349483652
149,0.059053559635689444,0.06348613213127256
150,0.058987896805572516,0.06340808475932476
151,0.05896458014224498,0.06340149443391997
152,0.058946733667685505,0.06340531207598371
153,0.05888991255599872,0.06337590744879487
154,0.05886148595792587,0.06335914577823204
155,0.05884173187656535,0.06335706318712303
156,0.05883221572276347,0.06335431868825335
157,0.058798869387281835,0.06334117932370727
158,0.058771751804070765,0.06331783660147719
159,0.05872742133363103,0.06328915758359747
160,0.05870600050106791,0.06327723900923835
161,0.058689627834917345,0.0632650790364883
162,0.05859803526061784,0.06319641518299307
163,0.05858120807097456,0.06319616099187664
164,0.05854563129562439,0.0631889900697276
165,0.05853282919420626,0.06318425773998497
166,0.05851222327744635,0.06318882345602553
167,0.058498148803816874,0.0631775600835633
168,0.05847311890562626,0.06316797505831516
169,0.05836052582342079,0.06308975184044331
170,0.05827735891669746,0.0630120994463529
171,0.058256646041570236,0.0630114763818003
172,0.05823574886209999,0.06300372874456782
173,0.05822110398444231,0.06299900299588353
174,0.05821132069203341,0.06299928338465455
175,0.05818033421152863,0.06297640479985171
176,0.05814794494243613,0.06297549322382111
177,0.05813039334721589,0.06296367454739296
178,0.05808219992565782,0.0629608912398944
179,0.0580697256701382,0.06295972020514304
180,0.058000652312868946,0.06289461928252599
181,0.05797991386171517,0.06289517673301336
182,0.057964959168258674,0.06288814522669359
183,0.057887191998088755,0.06283098358367915
184,0.05786737850817921,0.0628213905518741
185,0.0578366871019528,0.06281999465963775
186,0.05778146842871198,0.06278437496123442
187,0.0576999151317122,0.06271160383344532
188,0.05769006561909943,0.06270728717771518
189,0.0576559040931893,0.06268937999069242
190,0.05761726296141806,0.06265351757704764
191,0.05758852559256824,0.06265176369819968
192,0.05757281343090111,0.06265028167697852
193,0.057551367813168566,0.06264585730108249
194,0.05747998426701766,0.0625909867515897
195,0.05747029937213934,0.06259713594296595
196,0.0574406245021431,0.06257805420071941
197,0.05742649476836592,0.06257656179797162
198,0.05734072236417985,0.06250432940470753
199,0.05730495076304494,0.06246917142553938
200,0.05724425811382751,0.06240374547575645
201,0.05722048879251382,0.06240539855672906
202,0.05718126518082204,0.062392327216545626
203,0.0571294884973945,0.062348726506156166
204,0.05709456270834729,0.062332415027600785
205,0.05701772157358838,0.062274304929317514
206,0.056996865240890905,0.062271453814806366
207,0.0569799601458777,0.0622635673698797
208,0.056962749851487096,0.0622615285524321
209,0.056946507481093485,0.0622660394572096
210,0.05692630471804194,0.06225951676110631
211,0.05690190863747085,0.062256925533034434
212,0.0568275766821502,0.06220335018201661
213,0.05677828003539718,0.062147499025866484
214,0.056764184653920684,0.062139887536766
215,0.0567511493594721,0.062139112134673456
216,0.05672446691560557,0.06211939822506368
217,0.05671391557741302,0.062120459449096055
218,0.05669806106960671,0.062120649334587844
219,0.05658838990303649,0.06202462145284548
220,0.056476111047131794,0.06193357135855356
221,0.05645659979332842,0.06193538376776993
222,0.056389456430668006,0.061887680084521515
223,0.05637191103141949,0.06189170597979814
224,0.05633207258499723,0.061853862242232265
225,0.056317101316691806,0.06185152749634617
226,0.056290878616103115,0.06185616908448274
227,0.0562262998275842,0.06182492968858097
228,0.05621531780700393,0.061821502975017296
229,0.056207203619450176,0.06182120338224413
230,0.05617917327017493,0.061816590286926966
231,0.05616792154532044,0.06180595753992342
232,0.05608739639141488,0.06176997200118306
233,0.0560248598167001,0.06172393618831469
234,0.05601442470052772,0.06171811519599419
235,0.05596268701657982,0.06167020549076866
236,0.05595051724733413,0.061667813342997604
237,0.05592884658292342,0.06166202693045267
238,0.05590334498801337,0.06165052664126964
239,0.05579927295273831,0.061553229114277866
240,0.05577682056751857,0.06154813927135595
241,0.055772609334367375,0.06154797510549039
242,0.05568518212965111,0.061489763773897886
243,0.05566547246909854,0.06147712733883542
244,0.05565543428543726,0.0614782276430929
245,0.05564089620020114,0.06147524557796044
246,0.05563120967510185,0.0614731128847432
247,0.05561140927922104,0.06146916838300577
248,0.05558375998410929,0.061450292295122395
249,0.05556909759886056,0.061444725083024
250,0.055546867701357784,0.06142491823077958
251,0.05550983061864799,0.06140034029088434
252,0.05545048228153795,0.06134322073341665
253,0.05540638755266718,0.061348962943422555
254,0.05539686989852273,0.0613414380356442
255,0.05538128388381972,0.06133916089901882
256,0.05535353137431065,0.06131899543353942
257,0.05532872340594025,0.061298981776492734
258,0.055313982373576036,0.06130103360946387
259,0.05530523489134954,0.06129658581388711
260,0.05529293243113637,0.06129460051757868
261,0.055258841102755696,0.06128670542146632
262,0.055247823789120125,0.06128478622481032
263,0.05524404535743701,0.06128500996957348
264,0.055178121721992705,0.06123680224678634
265,0.055118279187781616,0.06119983770791925
266,0.055092814875099975,0.06120027431603319
267,0.055068536616517394,0.061189269565173086
268,0.055054117920155944,0.06118607705975425
269,0.05502405095611643,0.06116402364147916
270,0.05501674599329767,0.06116425170528178
271,0.05497827121122904,0.06117367772056906
272,0.05496504494257799,0.0611765549140504
273,0.054956853038527195,0.06117362799282735
274,0.05489487728807685,0.06112994494541654
275,0.05487577617582857,0.06113230458382422
276,0.05483812591123786,0.061095287649020266
277,0.05472822543319969,0.060996119591304514
278,0.05466940412958016,0.0609468225410253
279,0.05462857837968605,0.060904899779519066
280,0.05459396899647888,0.060871766721359376
281,0.05457151068388359,0.060872449964971195
282,0.054549502105272665,0.06086939003615489
283,0.054543497517343505,0.06086932222104018
284,0.0545161105513346,0.0608507144236211
285,0.054510086132439246,0.06085179189861053
286,0.054502221315685724,0.06085237358486544
287,0.054468542287031824,0.06082604597944987
288,0.05446526626430013,0.060826683718009
289,0.05442602918838466,0.06080326283521946
290,0.054414049025262506,0.060801387471508594
291,0.05435264252910593,0.06076204803168172
292,0.05434393428239688,0.06076151515897335
293,0.05432324000224065,0.0607558797568949
294,0.05431121601461458,0.06075405444248426
295,0.05430346568069889,0.06075365886700519
296,0.05428683000044878,0.06075004923226662
297,0.054252358919165335,0.060726539511850065
298,0.0542188784340666,0.060721474044984486
299,0.05418335531942713,0.060701890894011616
300,0.054091235777750254,0.06062298509295014
301,0.054049975773292395,0.06058677461934267
302,0.0540387422546136,0.0605910650253285
303,0.054021896222426945,0.06058720085934515
304,0.05401733432236216,0.06058744054652879
305,0.05400293421843912,0.06058805746513585
306,0.05399766716404178,0.06058929802894065
307,0.05398994027387183,0.06058877445105178
308,0.05395768424830819,0.06055405848581933
309,0.053947844200942535,0.06055224747086727
310,0.05391772870842121,0.060533211507564286
311,0.053908990502037825,0.06053340712509397
312,0.053896778782866965,0.06053507169359778
313,0.05388230535741495,0.06053024598103248
314,0.05386620224968404,0.06052251469807758
315,0.05385519024990064,0.06052533261650846
316,0.05384776364222853,0.06052472150217287
317,0.05381180930816607,0.06051882772655603
318,0.053785596397407744,0.060506624793207016
319,0.05376680152415005,0.060507148166205185
320,0.053760135424388726,0.060507138309482775
321,0.053755993136614486,0.06050670958049277
322,0.05370279539468525,0.06046963597045146
323,0.05369915963011448,0.060469291097185345
324,0.05369527405453924,0.06046718981198571
325,0.05368284871023698,0.06045332207988752
326,0.05366660149341727,0.060447984170973065
327,0.05365702861813063,0.06042823799461392
328,0.05364483249858488,0.0604279454850448
329,0.05363379819819129,0.06043289941074301
330,0.05362417999725243,0.060432321440938915
331,0.053607389915716876,0.06042906707029215
332,0.0536032349062964,0.06042945648465089
333,0.05358402506012726,0.06041408648800373
334,0.053579454160649825,0.060415099270865004
335,0.05357190627184185,0.060412936410643624
336,0.053559802023826535,0.06041398083832741
337,0.05353937857824585,0.06040414624349538
338,0.053524852415457035,0.060404113906447766
339,0.05351161715034201,0.06040409637130085
340,0.05349162728803114,0.060408926921246095
341,0.05348952058150515,0.06040906263132812
342,0.053459569008304605,0.06041667132624176
343,0.05345253874000934,0.06041237008148685
344,0.05344229609660094,0.06041488264242843
345,0.05344085385880583,0.060414830251739646
346,0.05342116550569803,0.060416833567425623
347,0.05340494247503889,0.06041649126087973
348,0.05339506556279253,0.06041553276370459
349,0.05338529317904023,0.06041804589912717
350,0.053380519597171217,0.06041756692509507
351,0.05336703168889502,0.06042145862380502
352,0.053355080682139115,0.060423327156194626
353,0.053345095828399317,0.06042689237717909
354,0.053327968257935586,0.060427773732318044
355,0.05330944579633042,0.0604254391521098
356,0.05329666729558084,0.06042586307977509
357,0.05328691345657528,0.06040330103990648
358,0.05323451665517569,0.060369768475922174
359,0.05322245674640078,0.06036585536409353
360,0.053213954981535846,0.0603700327014367
361,0.05315582009410351,0.060316996062603885
362,0.0529709816986052,0.06016013957436778
363,0.05296499058114602,0.0601594055087277
364,0.0529577149695091,0.06015751621530373
365,0.052948273254811704,0.06015757721389223
366,0.052937780881326384,0.060156799854507385
367,0.052923718334189615,0.06015888030910662
368,0.052880255787769365,0.06012384194705287
369,0.052843352119138036,0.060095189911701964
370,0.05282130424720895,0.060092399344788466
371,0.052808595533306454,0.060100177110393414
372,0.052797953473896854,0.06009560419870864
373,0.05278205078504214,0.060092513113568044
374,0.05276766205263481,0.06009400791865188
375,0.052740581511852146,0.06006482380473359
376,0.05273074292427463,0.06006169371228901
377,0.052673282509331266,0.06003148507107033
378,0.05266179542761566,0.06002968881436125
379,0.05256004813492632,0.05996102781479822
380,0.05255307154973034,0.05996133308785351
381,0.05251284515188079,0.05995213420301521
382,0.05250246638091198,0.059951559555033555
383,0.0524799436356183,0.059939633703622854
384,0.052474873347411514,0.05993984532523018
385,0.052458738410893005,0.05993194891678483
386,0.05244902905394673,0.05992886482190959
387,0.05243749258156935,0.059926672978640634
388,0.05242964745567297,0.05992127777842679
389,0.052404308693516935,0.05989932746966374
390,0.05239405939266866,0.05989785054647656
391,0.05237183927603298,0.05988625489631223
392,0.05229119720016733,0.05983490586357761
393,0.05228038964523751,0.059825365124909845
394,0.05226515809924144,0.059822007443114986
395,0.05225251289739515,0.05982760572085062
396,0.052243132707592156,0.0598273983382942
397,0.05223139854705093,0.059827055431371574
398,0.05207541059063746,0.05968976636603049
399,0.0520705549081794,0.05969032816108598
400,0.0520667446331073,0.0596903598237701
401,0.05205320713225813,0.059698308960538835
402,0.052047200218561185,0.059699358384053325
403,0.05202625486841984,0.05968035755116141
404,0.052020658154526424,0.05968271031636269
405,0.0519688596029374,0.05962836036139754
406,0.05196333377407132,0.05963310340508865
407,0.05195751085914268,0.05963342946328248
408,0.05195015957246544,0.059633659462582374
409,0.05194196464314537,0.05963675591379505
410,0.051916992919780025,0.059609891106086964
411,0.05190913554106199,0.05961060311758241
412,0.05187544258436583,0.05959949180199022
413,0.05183523139685995,0.059575789288331425
414,0.0518258009817439,0.05958083082033051
415,0.05181390402175492,0.05957980902689856
416,0.05176446587956579,0.05954958174587089
417,0.05167102816697149,0.05946859992326053
418,0.05162876752005505,0.05942521106059791
419,0.05161658266942797,0.05942743719428576
420,0.051590320453418485,0.05939910402950365
421,0.051559281987249746,0.05938815602942264
422,0.05152911424152167,0.05937156580844226
423,0.051512043375121074,0.05935918403175382
424,0.051466749092627516,0.059323155025554034
425,0.05138978718478148,0.05928209013967151
426,0.051373144231716426,0.05927661052392287
427,0.05136972964161273,0.05927631232053249
428,0.05135274451810969,0.05927437973248306
429,0.05134172459081563,0.059273784484737996
430,0.05133404215733864,0.05926964046876803
431,0.05131820943435441,0.05925945603756449
432,0.05124651834837409,0.05922941794169574
433,0.051235017872406655,0.059230323779172776
434,0.051210219943460485,0.05923819963370203
435,0.051192938626470924,0.05923531657563117
436,0.05117933539727562,0.05923828781636895
437,0.05115864210458165,0.0592430436609967
438,0.05115272261986351,0.05924536618605032
439,0.05111441138954761,0.05921258089183201
440,0.05110761273280457,0.059212890450333726
441,0.05109409117150802,0.059208118184697
442,0.051090533122112716,0.05920822524049037
443,0.0510375236139085,0.059162423565553596
444,0.05102563215221153,0.05916182321267033
445,0.05101790891257895,0.05915816444612811
446,0.050984784992561066,0.05915616211897385
447,0.05096511230776323,0.059154070411641224
448,0.050945076779376534,0.05914287158050461
449,0.050926070882039313,0.059134569165634726
450,0.05085358782726296,0.05908378393955858
451,0.05083038794796907,0.05908538921930878
452,0.050798415517517306,0.05906940112780569
453,0.05079184326541625,0.05906935064103039
454,0.05078732094995345,0.059070861314799245
455,0.05077174614394257,0.059066477239030205
456,0.05073598305947018,0.05904084869758836
457,0.05072802333600058,0.05904123521299225
458,0.050704659380407975,0.05901758037578042
459,0.05068518787009053,0.05901238946212979
460,0.050681950119094786,0.05901253609095422
461,0.05067526035437508,0.05900844605414062
462,0.0506638011018825,0.05901517381805879
463,0.050654642884543584,0.05902096042992821
464,0.05064415163586891,0.05902391190944192
465,0.05061503109482566,0.059017177285442944
466,0.05061041645043484,0.05901729892225307
467,0.05059709977311423,0.059012225592192866
468,0.05058878703837419,0.05901396252052843
469,0.05057601868203887,0.059019492550691534
470,0.05056759850553296,0.059018684930767056
471,0.050556994715138685,0.05901183468512708
472,0.050530143247451524,0.05901165714236071
473,0.0505221576680279,0.059012557145061977
474,0.05051301442266324,0.05901439026384748
475,0.050474948089470284,0.058979346143910906
476,0.050430460513804974,0.058957476587208034
477,0.05042044176268102,0.05895731688551249
478,0.050413081465757466,0.058958632969061654
479,0.05040797601390136,0.05895533856643207
480,0.0504008104589835,0.05895510568926281
481,0.05038054495393763,0.05893758372781164
482,0.050371950362524245,0.05893885135732427
483,0.050357887913216125,0.05894297286450421
484,0.05035542954032368,0.05894284253510082
485,0.050338972720409304,0.05893311450080036
486,0.05031173143592837,0.05891774288691348
487,0.05025453583613045,0.05886298282630743
488,0.05024713645377993,0.058861513305296286
489,0.05023954089533161,0.05885863568173256
490,0.05021835879252717,0.058826598351523346
491,0.05021098782070607,0.0588276194838263
492,0.05018641503089232,0.05882404058503996
493,0.05017938784116276,0.05882424691730107
494,0.050154796419020264,0.05882133452710255
495,0.050114432212966284,0.058799168559200726
496,0.050098344648408136,0.05879257105462304
497,0.050084735904976536,0.05877859457807411
498,0.050081182307359556,0.0587784801423218
499,0.05007179049472797,0.05877160014039161
500,0.05003865649747931,0.058766131867092265
501,0.0500104937877377,0.05874072773709335
502,0.04996800704118775,0.058736128359244036
503,0.049959557841941525,0.05873678808001499
504,0.04995627423796748,0.05873748287004477
505,0.04992835082440476,0.05871852919861656
506,0.04992552671773847,0.05871845305419775
507,0.04991682614763265,0.05871774030841951
508,0.049902726495364515,0.05870847984785368
509,0.04985555118349681,0.058668625984189565
510,0.04984670433608747,0.05867027674076609
511,0.04983885398104167,0.05867288951229401
512,0.049830062696125485,0.05867271600528325
513,0.04979288258151121,0.05863243955595135
514,0.049758430819211705,0.058605364833939695
515,0.04975326311464014,0.05860590679532153
516,0.04973223902465308,0.05859119936613996
517,0.04970385546786281,0.05856885328258815
518,0.04969433876509738,0.058576508419787475
519,0.049677242429834026,0.058574622624393925
520,0.049672861500209296,0.058575832887788774
521,0.049669558357071535,0.05857520187459758
522,0.04966029765617827,0.05857610520147401
523,0.04963928522838492,0.058570499538600884
524,0.049623621180551816,0.058577660836512495
525,0.04961011470729782,0.058577746505623585
526,0.04960526403349281,0.05857868764152222
527,0.04959219630720623,0.05858104387613863
528,0.0495855547630333,0.058580704928339285
529,0.04957692200689157,0.058575102743363736
530,0.049568895620894574,0.058571601596166284
531,0.04954291752141617,0.05855045361888318
532,0.04953820377309861,0.05854936473354872
533,0.0495351241336087,0.05854951261380475
534,0.04951598272812628,0.05853187278306987
535,0.04948023550454123,0.05850109141106389
536,0.049459922461545604,0.05848836578999188
537,0.049442670401019836,0.05848480437648158
538,0.0494374442786334,0.05848214548139757
539,0.04943148279633429,0.0584819078929307
540,0.049417260190013475,0.05848080109900321
541,0.04940817970838191,0.058482913438112044
542,0.04939846746616036,0.05847946115419213
543,0.049385483347618366,0.058474552748697346
544,0.049371709822867094,0.05846755744584913
545,0.04936544180009397,0.05846779696513036
546,0.04933361387047791,0.05846005644557477
547,0.04932661349787805,0.05846163022268666
548,0.04931471376735922,0.058454143529840435
549,0.04928999447664505,0.0584570881484751
550,0.049288489769591624,0.058457646318976555
551,0.04928042477013101,0.05845846050838281
552,0.04927470456362297,0.05846076474833114
553,0.04925575397195262,0.0584747752433084
554,0.049238382418996994,0.05847725484601682
555,0.049224336796175196,0.0584623611869697
556,0.04921775175337455,0.05846052370950363
557,0.0492089589542478,0.05845444005063218
558,0.049191545654998024,0.05843936009614899
559,0.04916430536206872,0.058420464118076006
560,0.04913532080164324,0.0583968962259973
561,0.04912770423101614,0.05839713172032914
562,0.0491116028929201,0.05839046038417759
563,0.04910868707324534,0.0583908109645524
564,0.04909853356190941,0.058390170898277846
565,0.04909305381649819,0.05839167609812471
566,0.04907343250321352,0.05838480373336333
567,0.049064934801214294,0.05838230924425914
568,0.04898440804219343,0.05833038971851272
569,0.048967861511453076,0.05832352831852451
570,0.0489524232379184,0.05831436182383871
571,0.04894445339687769,0.058313797705893615
572,0.048923992516721124,0.05830928285511456
573,0.048920742570777935,0.05831020730171733
574,0.04891457313209167,0.058308078674560615
575,0.04890604118939265,0.05830426766777861
576,0.04889864948773053,0.05831194598889296
577,0.04882298404760729,0.058258520241636025
578,0.048798694431732494,0.058235733567942795
579,0.0487797469509177,0.05823177878197179
580,0.04876224498051042,0.05822116868653322
581,0.04875594851571978,0.05822703325606818
582,0.04875143971499888,0.05822555433370656
583,0.0487086879075381,0.05818807855551983
584,0.04869328784269013,0.05818324670216163
585,0.04866632197417631,0.05817206057919108
586,0.048660923014914634,0.05817214568793446
587,0.04863855717863006,0.05817212370166839
588,0.04860900898809625,0.058155444041635314
589,0.04860540418743024,0.058155534644345204
590,0.048594889205148394,0.05815710466297577
591,0.04858866745598504,0.05815970987772519
592,0.04854354686827929,0.05812528790535548
593,0.04853910905513585,0.058125298424666884
594,0.0485330649272615,0.05812242034523473
595,0.048526573156763654,0.05812012466314954
596,0.04850256078699181,0.05810020441642852
597,0.04848461673735802,0.05809224176410454
598,0.04847277441920796,0.05809192530246846
599,0.048465939871229234,0.058092674912736564
600,0.04845854620959307,0.05809465004682219
601,0.04843919410068489,0.058087740739946984
602,0.048432667701982214,0.05808948465402942
603,0.048414002863561886,0.0580802152205306
604,0.04839464554765327,0.05808508610220013
605,0.04837662706333992,0.05808594819982524
606,0.0483641360154242,0.058087142878024876
607,0.04835730034497006,0.05808363611166291
608,0.04834634049846909,0.05808232656898624
609,0.048317686617215694,0.05808676500487866
610,0.04831066486296978,0.05808535314101011
611,0.04830364300989852,0.058085213235510476
612,0.048296178939774996,0.05808547281176213
613,0.04828978319203127,0.05808338880480424
614,0.0482784621070536,0.05808859880724519
615,0.04826952290788632,0.05809128355039178
616,0.04826060973578932,0.058092764123533834
617,0.048240744081330784,0.05808350489510999
618,0.04823036632438401,0.05808528764514227
619,0.04822904488681516,0.05808545809377183
620,0.048223420047389706,0.05808594128754988
621,0.048206804329928146,0.05807542870324088
622,0.04817707838239998,0.058045794922883955
623,0.04817276610074665,0.05804376546674678
624,0.04816491244698997,0.05804671861420936
625,0.048158090965876296,0.05804588025862123
626,0.04815602017114806,0.0580460186936554
627,0.04814117625180604,0.05804023871066865
628,0.04813853957122677,0.05804020722714437
629,0.04811655196494448,0.0580302196554479
630,0.048106888836886054,0.058026467533694025
631,0.04809599687648511,0.05802441321250084
632,0.048085425158544234,0.05802622445747077
633,0.04806938860569923,0.0580156637343713
634,0.04806807447516207,0.058015273458432326
635,0.04804054111293156,0.05800434123592658
636,0.04803415193419464,0.05800193875700311
637,0.0480270379205576,0.058001990393530344
638,0.04801536350161875,0.05800258076551465
639,0.04801104838681247,0.058003006986220705
640,0.047995965937099976,0.05799183069420323
641,0.04799052149955248,0.05799500914420763
642,0.04797953613813754,0.057997395362844206
643,0.04797163888070281,0.0579918778102351
644,0.04796265006385572,0.05799827910565523
645,0.04791565019278337,0.05797976793761538
646,0.047914113645182964,0.05797883139909404
647,0.04789804530079709,0.057974617587125875
648,0.04789153304097254,0.057968340565445
649,0.04788250664135052,0.05796361548225725
650,0.04787826192398126,0.057965426008816115
651,0.047876212863806944,0.0579634179318874
652,0.04787057829709111,0.05795832555802699
653,0.0478615089337836,0.05796157491121728
654,0.04785085103960101,0.057961152213914194
655,0.047845239646499824,0.057962770227559086
656,0.04782184806782545,0.05795710253683257
657,0.04777954672241413,0.05793405876087121
658,0.04774431072117582,0.057906866083543757
659,0.047735293567467696,0.057907461413188
660,0.04770448097416726,0.05788950785641508
661,0.047695682527082804,0.05788999127077986
662,0.04768711313899391,0.05788897338174862
663,0.04768306649646463,0.05788908758073167
664,0.047663480117213004,0.057886451038465576
665,0.047661445237499774,0.0578846953666168
666,0.04763472673090664,0.05787178252629182
667,0.04763099608209987,0.057871956104444046
668,0.04762707556136972,0.057872913797615735
669,0.04758565067525671,0.05785215118597014
670,0.04757976914774028,0.05785241959236529
671,0.04757099766679314,0.057856176147857465
672,0.04755770381822764,0.057856756343636004
673,0.04754990935813573,0.05785501284696954
674,0.047545180409684695,0.05785581062710696
675,0.047542386302967525,0.057855891231854854
676,0.047536558395760764,0.05785373831869873
677,0.04752276128777303,0.057860551868412116
678,0.0475140721755041,0.05785327243605439
679,0.04749335704214995,0.05784804798519508
680,0.047485064135551286,0.05784586578148525
681,0.04747553037824229,0.057849570425840706
682,0.047471481756454034,0.05784855502557259
683,0.04745665568179111,0.057847371267061964
684,0.04745122341890288,0.0578482775447165
685,0.04744677335445823,0.057846520962227206
686,0.04742347404812833,0.05782985273319407
687,0.04741682870864514,0.057826879883478816
688,0.047413685899519976,0.057827089223469214
689,0.04740369416724828,0.05782433512821458
690,0.04739343747039362,0.057826403964816885
691,0.0473890859469293,0.05782481274200222
692,0.04738213767584147,0.05782519228861277
693,0.047373034041501935,0.05782729257422187
694,0.04736296253446997,0.05782454238554079
695,0.0473533424155065,0.057825196603272136
696,0.04734542871470961,0.05781549201065248
697,0.047337263560614615,0.05781439030327123
698,0.047332684408681984,0.0578174638856513
699,0.04732580342474921,0.057821372900419984
700,0.04732468497270908,0.05782121361132105
701,0.047319742471506006,0.05781831028573054
702,0.04731555848704555,0.05781811428486241
703,0.047300453348281125,0.05781402727358965
704,0.04728490205726456,0.05781150672833056
705,0.047281843910115195,0.05781306539928324
706,0.04726964761377197,0.05779990799116078
707,0.047264996260059026,0.0577988050198341
708,0.04726121167357725,0.057798798919080116
709,0.04725768175478302,0.05779819159968916
710,0.04725259276548286,0.05779364274486582
711,0.047247408946509785,0.05779737294350598
712,0.047241617113989165,0.057797278194056424
713,0.04723233867849594,0.05779655831693972
714,0.04719386529203607,0.0577718663959714
715,0.047187515959676796,0.05777181221377868
716,0.047184492594051976,0.057772347123760566
717,0.047172846232701245,0.05776553253590844
718,0.04716771947042566,0.05776665660498221
719,0.047129519092618345,0.05774409038828276
720,0.04711841004621869,0.057743940073957445
721,0.047113846952156806,0.057744206275392056
722,0.04710916141683966,0.05774598945298895
723,0.04710275506303502,0.05774496289177482
724,0.047099552455028934,0.05774387505939165
725,0.04709384808136497,0.05774216139284798
726,0.04709214374341017,0.05774197537703938
727,0.04708833826473652,0.05774117943964465
728,0.04708254044683034,0.05773978928075979
729,0.04707730448336446,0.05773915630472233
730,0.04707306821901546,0.0577394676273841
731,0.04701585279276198,0.05769554424886199
732,0.047013200716229664,0.057695618293215525
733,0.04699139070715512,0.05769065301453926
734,0.0469872500883809,0.05768944664898205
735,0.04698132222402831,0.057690055469934394
736,0.04697597052441641,0.05769163182301698
737,0.04697152143865437,0.05769206810989224
738,0.04696830318751831,0.0576934440016842
739,0.0469541094860974,0.057696309187758504
740,0.04694339206980268,0.0576925196259654
741,0.04693848756336437,0.05769107034154875
742,0.04693509501947772,0.057691450403422724
743,0.04692424933411046,0.05769601869699083
744,0.04691260395160937,0.05769868911771244
745,0.046911143838546235,0.05769893394387632
746,0.046885767147527166,0.057682922340871946
747,0.04688227080517357,0.057682149491058765
748,0.046873872958297515,0.05768169823076141
749,0.04685965950192311,0.057679724350512086
750,0.04684339869993938,0.057676716295857404
751,0.04684114021068541,0.05767462822647963
752,0.046830617896054784,0.05767620206804685
753,0.04681990559848367,0.05767597275250015
754,0.04681137060992251,0.05766897153852363
755,0.046805585940738206,0.057671694627134874
756,0.04680128777194848,0.05767280459935379
757,0.04679804762256273,0.05767097713188856
758,0.046793204687220154,0.057671644966136554
759,0.046772973598151704,0.05765280175912954
760,0.046768298197985565,0.05765386261991664
761,0.046766433847286834,0.05765349941868239
762,0.04674205775636467,0.057628866699808136
763,0.04672757112399647,0.05763430415921505
764,0.0467107281810298,0.05763092527296135
765,0.046705819180531995,0.0576312344673947
766,0.046701324689433305,0.05763127654189749
767,0.04669632618995121,0.05762834424982438
768,0.046690439228855504,0.057629615911967344
769,0.04668888465699378,0.057629637954349125
770,0.04664534333627858,0.05761804183031881
771,0.046631287232725416,0.057614174285378274
772,0.046626519019625494,0.05761510655019858
773,0.046623832365331803,0.05761708803900493
774,0.046603191242766226,0.05760421163028143
775,0.04658479769953209,0.057589390255356206
776,0.04656856219432352,0.057587182751626484
777,0.046558914157536394,0.057587033181558105
778,0.04655702730838671,0.05758720792188442
779,0.04655537694635168,0.057587431315956734
780,0.04654600949262106,0.05758481558594237
781,0.046540851118988036,0.05758298832235065
782,0.04653655487071851,0.05758338437444563
783,0.0465210942693318,0.05758055317120046
784,0.046508584648358546,0.05758291610804566
785,0.046504316791048154,0.05758183517204398
786,0.046500434754342845,0.057581752507602925
787,0.04649428085989197,0.05758643279415864
788,0.046492183553453935,0.057586528484817705
789,0.046486436158323576,0.05758722836949342
790,0.046483410542187874,0.05758718561088083
791,0.04646627176599781,0.057578988507659655
792,0.04645091250220903,0.05757558877507295
793,0.04644453658379059,0.05757583297692249
794,0.046433893546584504,0.057570734317675884
795,0.046430739046866426,0.05757094644068016
796,0.04642488737195421,0.057570916388179336
797,0.04641503540894579,0.05757021657753837
798,0.04640841044716412,0.057565907595539555
799,0.04640154046303759,0.05756861461902082
800,0.04639522280688843,0.05757257707091677
801,0.04639306813771049,0.057572816670827975
802,0.04637467206977051,0.057551999428052794
803,0.04637106955198015,0.05755332025212095
804,0.046362190348749846,0.05755352027150739
805,0.046357130743516446,0.05754926862612439
806,0.046352732171346125,0.05754633874145621
807,0.046337779603707656,0.0575568028689604
808,0.04632881275934997,0.057557694093205415
809,0.046321093079703564,0.05755612757610366
810,0.04629985527959991,0.057556207504834075
811,0.04628061738277068,0.057547058174344974
812,0.046269064030169164,0.05755046735407708
813,0.046265255008330404,0.05754656294368152
814,0.046259828015759376,0.057545552729183956
815,0.046252937109153874,0.05754364339801684
816,0.04624903731327616,0.057542332921549776
817,0.046238620534141454,0.057548519269429874
818,0.04622013350912575,0.05754461738325252
819,0.04621267782656941,0.057547970678703694
820,0.0462089466359515,0.057548373740130485
821,0.04619949201087858,0.05754576064716459
822,0.04619559460718114,0.05754701510379867
823,0.04618370748216634,0.057540714708048654
824,0.04617391169548606,0.057536933415910214
825,0.046161547355286235,0.05753867900072403
826,0.04615652948043243,0.05754034909075601
827,0.04615121947636006,0.0575403158215193
828,0.04614363829507257,0.05753866106866645
829,0.04613856144982463,0.05753645480915948
830,0.04613354697823117,0.05752950187032932
831,0.046128097580371,0.05753090711183238
832,0.04610696268417173,0.05751563298724147
833,0.046097063512950856,0.05751001878476304
834,0.04609246125314753,0.057509989133337124
835,0.046088034412359626,0.05751303312711083
836,0.046083360073044394,0.0575134055821814
837,0.046057129750175264,0.05749529957571935
838,0.04605320419083677,0.057495226579201135
839,0.046044895329684275,0.0574991618222037
840,0.046037681574295275,0.057501403856899815
841,0.046032931291395136,0.05750274237745186
842,0.046030365449578975,0.057503734379990096
843,0.046009084582472194,0.0574854056831361
844,0.04600334456322612,0.05748614511446875
845,0.0459975397208976,0.05748754506320554
846,0.04599295366165986,0.05748802490907179
847,0.04598604721788268,0.05749365289316488
848,0.045975039918114524,0.05749656812702562
849,0.04595653578998673,0.05749951802158371
850,0.04594821568529654,0.05750146434815872
851,0.04593626012191155,0.05750333009673063
852,0.04592512681164996,0.05750292109914313
853,0.04592206775969837,0.057503004370849334
854,0.04590967497454387,0.05750203571905792
855,0.045899276602044244,0.057502533400397154
856,0.04589207776131652,0.057502756543182654
857,0.0458809951705053,0.057495810457073734
858,0.04586836274012003,0.05748679979803957
859,0.04586061843503379,0.05748585821065044
860,0.045855210775974625,0.05748440431834376
861,0.04585011607655029,0.05748450796890916
862,0.0458381115777009,0.05748872387255953
863,0.04582325417753811,0.05748022983500883
864,0.045814272864828316,0.05747871180609918
865,0.04581209179668476,0.057478031783476914
866,0.04580884132593311,0.057477568410733614
867,0.04580222715498194,0.05747992449420717
868,0.045796689042903856,0.05747690794268904
869,0.04579356822848837,0.05747694529993266
870,0.04579091393751835,0.057476921067549216
871,0.04578196492590954,0.057483248674108915
872,0.045764352968156,0.05747235864758262
873,0.04576221885456404,0.05747214528693553
874,0.04575910723032002,0.05747132047728651
875,0.045752902602209836,0.05746811852454357
876,0.04574821606335634,0.057470215829522595
877,0.04574442136248622,0.05746885576442478
878,0.04573869241649648,0.05747069419351991
879,0.04573112980102979,0.05746297775600582
880,0.04572633938942876,0.05746346015411507
881,0.045714811069955306,0.05746825861659592
882,0.04570746459533195,0.0574700670022641
883,0.04569372792305487,0.05746136503249598
884,0.045691398243640366,0.057461385255463904
885,0.045682743191842616,0.05746055879530982
886,0.04567849721907682,0.05746381678846373
887,0.04565935027861597,0.057454385526401947
888,0.04565103577729715,0.05745251935980583
889,0.04564820899503806,0.05745518764949987
890,0.04564540209307397,0.05745398624620712
891,0.045643387956499366,0.05745398386756261
892,0.045604933373462136,0.057430848400128555
893,0.04560210571408958,0.05743296071537076
894,0.04557914265752716,0.05742669052698722
895,0.045571727187134224,0.05742565973833999
896,0.045570759082208555,0.05742581970701156
897,0.04556744528282775,0.057425397855962936
898,0.04555420377567439,0.05742131228517363
899,0.045543027388475495,0.05741307092567556
900,0.04551359575821347,0.057400200370241565
901,0.04550435320193346,0.05739818785854026
902,0.04549778579310283,0.05740179976591261
903,0.04549481256194743,0.05740222499157206
904,0.045481054597632256,0.057405678543632294
905,0.045478742979110996,0.05740558913492936
906,0.045474292369938406,0.05740713026989097
907,0.04547038460631974,0.05740742855327952
908,0.04546632160344765,0.057408021951757315
909,0.045454919976907183,0.057406475619534776
910,0.045433861102872876,0.0574018484981551
911,0.045428252072488205,0.05740453127034161
912,0.04542545763487208,0.05740491880251682
913,0.04542213449236289,0.05740359049569613
914,0.04541597455491378,0.05740625912077336
915,0.045371730736200856,0.05739367829561331
916,0.04536920275744401,0.05739419233273464
917,0.04535611223492482,0.05738886083190048
918,0.045337645519408894,0.05738753613107515
919,0.045322281586579555,0.05737421683392562
920,0.04531610196752004,0.057372889059015185
921,0.04530986113591959,0.05737775748137802
922,0.045279066454847236,0.05736742583265034
923,0.04526328521764201,0.05736056452480311
924,0.045259886213371306,0.05736171450972138
925,0.045257723906851614,0.05736204490797721
926,0.045225845702992144,0.057352251248510275
927,0.045211504023264064,0.057339381184468664
928,0.04520231537066657,0.05733371149445791
929,0.045196294908505054,0.05733790632043521
930,0.04518936733398446,0.05733875278191175
931,0.045187127472573155,0.05733861350252367
932,0.04518488353093984,0.05733877873779889
933,0.04517347944246983,0.05733243675421847
934,0.045166972244827124,0.05732811420602927
935,0.0451604876436514,0.05732983833352314
936,0.04514897969966234,0.057328168156369465
937,0.04514607430309174,0.057327363118081585
938,0.04512176411411196,0.05731360085820437
939,0.045116394877298245,0.0573148529538902
940,0.045089964186758716,0.05729132545562402
941,0.04506985203087497,0.05729179429276384
942,0.0450644404082854,0.057288761986072065
943,0.04506296136410666,0.05728883720689834
944,0.0450610561214818,0.05728916299019838
945,0.045053258555175446,0.057287560311274584
946,0.04504528661287991,0.057283855547168507
947,0.045036887951578494,0.057283826863029005
948,0.04503476903189402,0.05728399689956644
949,0.04502582769454879,0.057277777712156405
950,0.04499681607068551,0.05723749217520805
951,0.04498845279643534,0.05724345514338025
952,0.044982015089227244,0.05724444452588808
953,0.04497514113081407,0.0572436734436664
954,0.04497165411923202,0.05724367496140583
955,0.044970127422230166,0.057242991710965106
956,0.04496863595141031,0.057243211320616
957,0.04495752825284274,0.05724181728273391
958,0.044952492531337374,0.05724334678502028
959,0.0449449672110145,0.05724044834012893
960,0.044940489811761374,0.0572409033458679
961,0.04493858766216645,0.05724034487257743
962,0.04492719319544446,0.05723505688060995
963,0.044922263896138424,0.05723570040091423
964,0.04490946480535868,0.057235103285682536
965,0.04490594466643875,0.05723379501624098
966,0.04490245813056063,0.057230519522217596
967,0.04489839574860099,0.057233851310387225
968,0.04489510020659942,0.05723265407694905
969,0.0448841470275322,0.05722994816213582
970,0.04488090279346389,0.05723071316127871
971,0.04487210664515669,0.057230092813633754
972,0.044864674924815995,0.05722983688212941
973,0.04485757998464401,0.05722428450784848
974,0.04485295596071047,0.05722259773747314
975,0.04484041521694714,0.057222662799710416
976,0.04483229429604043,0.057223723301305894
977,0.04482039015922231,0.05722497428547403
978,0.044801385744660985,0.05720984929630091
979,0.04479751294626333,0.057210664183533856
980,0.044787614510352534,0.057220124594437295
981,0.0447705025540007,0.05721915636149716
982,0.04476871959373229,0.057219833194607085
983,0.044765587560169164,0.05721954287563421
984,0.04475785623207749,0.05721718225261237
985,0.044751126671350755,0.057221505332301886
986,0.04474428917031497,0.05722203906246718
987,0.04474132896502855,0.05722097520610678
988,0.04473770628016507,0.05722090339948419
989,0.0447341481223167,0.05722092157256504
990,0.04472893664651342,0.057220332290551554
991,0.044727447548935234,0.05722067333074707
992,0.04472277338540292,0.05722114865643389
993,0.04471585104069482,0.057220277741042554
994,0.04471448855247603,0.05722070276556717
995,0.04471202420976746,0.05722099576114928
996,0.04471061521143669,0.0572210551716461
997,0.04470754006478037,0.057221070614508464
998,0.04469897339833963,0.05721954708011365
999,0.044694778485271265,0.057217691636177494
1000,0.04469027312907559,0.057220923517651824
1001,0.04468785159352338,0.05722265398278969
1002,0.04468252559038724,0.057222455534021534
1003,0.04468001441195713,0.05722242942293258
1004,0.04467147346480984,0.057218252997923075
1005,0.044666801124082264,0.05721831111766961
1006,0.044660206447628775,0.05722292508367427
1007,0.044650726707467496,0.05722432775390371
1008,0.04464644345394817,0.05722443025418578
1009,0.044643713147515,0.05722581765357841
1010,0.04464036548009176,0.05722611700132436
1011,0.0446316306386603,0.057224506841446116
1012,0.04462528883126746,0.05722751688707017
1013,0.04460715615216272,0.05722147370763173
1014,0.04460237396807733,0.05722178930329415
1015,0.04459082377660325,0.05721769790912934
1016,0.04458582413084702,0.05721635630459772
1017,0.044579759788842994,0.05721750956972789
1018,0.04457629029145635,0.05721864471418003
1019,0.044573785421173615,0.0572186569134423
1020,0.044568542749070225,0.05721719455429997
1021,0.044549809065988905,0.05720386082350423
1022,0.04454695355624747,0.05720286350139835
1023,0.044543759994789815,0.05720299014203531
1024,0.044542575630571325,0.05720343021169286
1025,0.044539720098266795,0.057202932703685504
1026,0.044534563205485884,0.0572023585057373
1027,0.04452871535712115,0.05720207346495495
1028,0.04452602145635577,0.05720319802930111
1029,0.044500570690843504,0.057171608488594955
1030,0.044481121646605774,0.057170106304619446
1031,0.044454983538426876,0.057144587592248865
1032,0.04444939640509108,0.057143993275064496
1033,0.044448206708739245,0.05714397669164705
1034,0.044426384747267136,0.05713794096040279
1035,0.04441313164482038,0.05713015905197284
1036,0.04440297042774702,0.05712473311234281
1037,0.04437645988250717,0.057113719468075703
1038,0.04436457849558862,0.057110565961678905
1039,0.04436206871833108,0.05711053812322893
1040,0.044355644594000994,0.05710912983348436
1041,0.04435198983408332,0.0571073529705724
1042,0.044350431927053235,0.057108954671911856
1043,0.04434528848913848,0.05710747198451549
1044,0.04433971757628511,0.05710809932354724
1045,0.04432912253775981,0.0571018164882371
1046,0.044326748023628175,0.057101431218761274
1047,0.044318042099022875,0.057093736720330066
1048,0.04431038369567053,0.057097850732180655
1049,0.0442831970242055,0.05708970750097617
1050,0.04428131041942048,0.05709037137490065
1051,0.04427522363518913,0.05709189752894688
1052,0.04426886472363833,0.05708873841428689
1053,0.044258040911022506,0.05707865412351995
1054,0.044256690784938636,0.05707876910159119
1055,0.044251447940590175,0.05707910605819699
1056,0.04424752855846254,0.05707992459170749
1057,0.04424471296281046,0.05707900596820647
1058,0.044235100212354904,0.057081462728760295
1059,0.04422888642932509,0.0570805726922164
1060,0.044217685135859684,0.05707893983921962
1061,0.044208275768134735,0.05708093058727234
1062,0.0442037705585865,0.05708017485583253
1063,0.04419651914205176,0.05707457691390484
1064,0.044195238192253794,0.05707486143462988
1065,0.044193254416719015,0.05707292777239342
1066,0.04419221821336836,0.057073922803460034
1067,0.04418634076171755,0.0570803774946635
1068,0.044178044684205,0.0570809890387872
1069,0.04417456293887185,0.05708068292018112
1070,0.04416713706478158,0.05708088819133264
1071,0.04416529730665636,0.057081225638108586
1072,0.044156757393342995,0.05707981292486787
1073,0.04415134725261041,0.057081301324624495
1074,0.04414423044435403,0.05708145019255718
1075,0.044098215960472094,0.05705579965837506
1076,0.044089068927203885,0.057049311241045016
1077,0.04406741798433841,0.05703004908130105
1078,0.0440645587395123,0.05703031863416733
1079,0.04404307464779648,0.057012349323210115
1080,0.04402826517485761,0.05700033982638826
1081,0.04401452497405784,0.05699467067518354
1082,0.044008220603996825,0.05699231356166172
1083,0.043990644562309895,0.05697794904397471
1084,0.043984147631419494,0.05697877073255548
1085,0.04397784192510636,0.056978677115196955
1086,0.04396838001270131,0.05697040622164934
1087,0.04396583847893556,0.05696972424024869
1088,0.04396269777653304,0.056970243487511875
1089,0.043961554554112214,0.05697028313982355
1090,0.04395273662096294,0.05696748192329486
1091,0.043949602014924725,0.056966693781373944
1092,0.04393761345685493,0.05696333417716115
1093,0.043921846293645796,0.05695807301068126
1094,0.04390713407525029,0.05695200408307803
1095,0.04389028498180047,0.05695218527898186
1096,0.04388920426883477,0.056952223775462295
1097,0.04388244955346222,0.05695375504159458
1098,0.043874808456951776,0.05695280661610517
1099,0.04387351168727111,0.05695279949633408
1100,0.04386365663222546,0.05695472898160807
1101,0.0438520698349442,0.056967784707615016
1102,0.04384903029891748,0.05696477124106027
1103,0.043841218163020064,0.05696458633735493
1104,0.043834235527084604,0.05696516639235461
1105,0.04382608104405043,0.05696790613276581
1106,0.0438250788438046,0.05696796241484933
1107,0.043812823788569426,0.05696578613133439
1108,0.043806373057285304,0.05696279392708058
1109,0.04380443851898688,0.056962810535115094
1110,0.04379622154048224,0.05695838280613199
1111,0.043794351942188954,0.05695838974126592
1112,0.04378801120005967,0.056956212497705265
1113,0.04378429961895583,0.056962057097401236
1114,0.04377780179294309,0.05696048653951489
1115,0.04376935506209295,0.05695681539449057
1116,0.043765616398224925,0.056957295959797566
1117,0.043754625028194764,0.05695476437295909
1118,0.04375015320410633,0.05696065080411034
1119,0.04374525911632588,0.056961106267004506
1120,0.04373915960272764,0.05696149241563003
1121,0.043711479994469934,0.05694459858866542
1122,0.043708999490161375,0.05694519772598847
1123,0.043692960319760936,0.056945008374709866
1124,0.04368950006931822,0.05694478274329865
1125,0.043667551765265086,0.05693240672731225
1126,0.04366289871701744,0.05693138871125148
1127,0.043659086416999726,0.05693286225817406
1128,0.04365152767048777,0.056933603831494886
1129,0.043638593483607394,0.056928318966804344
1130,0.0436329376815984,0.05692547188709991
1131,0.04362549480879097,0.05692045223477913
1132,0.04362324820108214,0.0569204541137965
1133,0.04361945611594153,0.05692129947574626
1134,0.04360726991884151,0.05691998829809216
1135,0.043560854003615465,0.05689105731917003
1136,0.04355389539030508,0.05689267535793105
1137,0.043540097768825,0.056888482439308725
1138,0.04353677281134913,0.05688776373304327
1139,0.04353268598262936,0.0568918825025721
1140,0.0435278543587152,0.05689111360126601
1141,0.04352502245481249,0.05689153455303679
1142,0.04352426177210313,0.05689141652373155
1143,0.043521501543595166,0.05689155948534679
1144,0.043519259108670175,0.056892425284213746
1145,0.04351393146156062,0.05689346082262328
1146,0.043509175437713085,0.0568937562383858
1147,0.04350672264636351,0.05689221550905631
1148,0.04350100076132548,0.056893652456365976
1149,0.04348120760597606,0.05689157807711478
1150,0.04347313845029376,0.0568873436666512
1151,0.04346500327494919,0.05688717990468015
1152,0.04345894941652032,0.05688657081255131
1153,0.04345670021199611,0.05688672528641982
1154,0.04345064825892712,0.05688533610963948
1155,0.043448376372918734,0.05688518934330773
1156,0.04343720574769972,0.056884190884256745
1157,0.04340309732118452,0.05686221379323367
1158,0.04339381317076708,0.05686110286785036
1159,0.0433847785187085,0.056859852120833096
1160,0.04337879948595063,0.056859092581738685
1161,0.04336768951586279,0.05684917603112611
1162,0.043360911108764354,0.0568543523823366
1163,0.04335604231114726,0.056856052908971694
1164,0.04335059232467606,0.056856590980063994
1165,0.04334240389164285,0.056854628587002284
1166,0.04333158055517623,0.05684757842877582
1167,0.04332468776760652,0.05684864154220079
1168,0.04331570277321774,0.05684815970752519
1169,0.04329841237287924,0.05684917612239023
1170,0.04329353585286357,0.056848406410219814
1171,0.0432896071944354,0.05684576657877382
1172,0.043284865622986134,0.0568467706072871
1173,0.04327990163611431,0.05684667918974856
1174,0.04327774318087975,0.056847549860224784
1175,0.04326682625602722,0.056839176115904826
1176,0.04324239242483325,0.0568066638704805
1177,0.0432382446762607,0.056802456197826055
1178,0.04322930665268285,0.05680098978635204
1179,0.04322474274333839,0.05680090049525277
1180,0.04322170711594956,0.056801121826749054
1181,0.043213294351833485,0.05680110397168249
1182,0.043212420516415564,0.05680122902405473
1183,0.04321017550780773,0.05680250969653714
1184,0.0432074850453628,0.05680325547818216
1185,0.04320494987606927,0.056800862808430205
1186,0.0431991250448956,0.05680238012800419
1187,0.04319632013565656,0.05680359120774033
1188,0.04317141602629987,0.05679716842270802
1189,0.04316667889271096,0.05679933790651276
1190,0.0431614684762681,0.056801126148173155
1191,0.043155886887313935,0.05680094519680541
1192,0.043152513937613504,0.05679800200133375
1193,0.04314936729230842,0.056796311536248166
1194,0.043143253451629955,0.05680484421868484
1195,0.043141535166719876,0.05680564798418723
1196,0.04313898765947957,0.05680567465179171
1197,0.04312837499930043,0.05679883804108104
1198,0.04312447381343481,0.056795778889601065
1199,0.043120574716878496,0.05679724867817354
1200,0.043115451036608556,0.056800003845610986
1201,0.04311080649722804,0.05680071278449067
1202,0.04310602661002652,0.056801366815090425
1203,0.04308869338620995,0.05679693246851729
1204,0.0430819239098097,0.056800444400643524
1205,0.043079206717257366,0.056800441981561624
1206,0.04305277064519392,0.056784918231443174
1207,0.04304854135996148,0.05678705473964981
1208,0.043041021463012655,0.05678841410414071
1209,0.043040080010985166,0.05678882679499488
1210,0.04303501746919087,0.05678744370686654
1211,0.04302341317140662,0.05678061223859212
1212,0.04302031644791628,0.05678176475455968
1213,0.04301674704159447,0.056778767284559654
1214,0.04301147221645348,0.05677969618426711
1215,0.0430068067960228,0.05677954314050806
1216,0.04300509578242948,0.05677950767699241
1217,0.04300185820243991,0.0567786674748957
1218,0.04300071411392847,0.05677874374557355
1219,0.04299082488152781,0.056777516409957964
1220,0.04295698151462098,0.0567613567444108
1221,0.04294290184988761,0.056754096083966775
1222,0.042936427198287,0.0567538124481297
1223,0.04293013850646241,0.05675368597649969
1224,0.04292150297150596,0.05675979061660919
1225,0.042917440609637425,0.05676031947707292
1226,0.04291596229050617,0.05676000821632648
1227,0.04289621066359991,0.05674824480336174
1228,0.04289513083420306,0.056748260790611425
1229,0.04289393496061743,0.05674851508693267
1230,0.04288226361700804,0.056748495004582004
1231,0.042863931495375075,0.05675572014070786
1232,0.04285713441748286,0.056748971803174696
1233,0.042850108454529245,0.05674275570264674
1234,0.042848222141391334,0.056742789610962574
1235,0.04284480618909891,0.0567425631044732
1236,0.042814226571304514,0.05673113092707025
1237,0.042811036678075204,0.05673170654247427
1238,0.04280115204200501,0.056728467963842004
1239,0.042772803378543216,0.05672389315476514
1240,0.04272368974986991,0.05668232774765618
1241,0.04271820089193857,0.05668215780186769
1242,0.042705308676042913,0.056673993075638855
1243,0.042675988178984915,0.05665952841117412
1244,0.042667396356467324,0.05665666007516389
1245,0.04266441747106666,0.05665756642111266
1246,0.042661876150207924,0.05665821108079761
1247,0.04266006282890801,0.05665929630241563
1248,0.042658210892982926,0.05665791829585664
1249,0.04265262050433917,0.05666031462640484
1250,0.04264450930953644,0.05665854621416842
1251,0.04263602186437733,0.05666060997968748
1252,0.0426291455277695,0.056662780709485376
1253,0.042626219421923794,0.05666382277198563
1254,0.042617195984312836,0.05666354406983115
1255,0.042615904891898676,0.056665063399545114
1256,0.042610261637767044,0.05666022179188929
1257,0.04260948920679168,0.05666029791175947
1258,0.0425926825337755,0.05664885012988633
1259,0.04258304600569572,0.05664717502304521
1260,0.04257910581314002,0.05664743792154652
1261,0.04256462946211948,0.056654825408152296
1262,0.042558105947039064,0.056648064108358695
1263,0.042554166262894516,0.05664828375694916
1264,0.042546347971946036,0.05664804023438092
1265,0.042544385907765506,0.05664905359548839
1266,0.04254044881189941,0.0566491262880477
1267,0.04251360962920557,0.05663925594974254
1268,0.04251059874450054,0.05663922929516982
1269,0.04250391785674544,0.05663701325265478
1270,0.04250090133925796,0.056636948138876216
1271,0.042495677008332566,0.0566367395303491
1272,0.04248061967534049,0.056627824312540716
1273,0.042478645824900844,0.05662760434968761
1274,0.04247334729780688,0.05662823449074913
1275,0.04247150698676244,0.05662683919827452
1276,0.04246570156412938,0.05662619515076676
1277,0.042460704908063404,0.056625655204165556
1278,0.042457996710245284,0.05662526696431822
1279,0.042454204979723985,0.05662543053696031
1280,0.04244985575835621,0.056624141191987096
1281,0.04244592022238623,0.05662657643285069
1282,0.04244291986764381,0.056626877598999266
1283,0.04243652109857132,0.05662993262100697
1284,0.042435142093851484,0.056631249369344695
1285,0.04243148784469466,0.05663125706772346
1286,0.042426752473802856,0.05663208496848403
1287,0.042416711229820915,0.056634583329963496
1288,0.0424095809230669,0.056635118465171025
1289,0.04239485872738886,0.056624698251587904
1290,0.04238550473969633,0.05662543597364535
1291,0.04238303021337278,0.05662546455748579
1292,0.042377390379536896,0.05662465119670673
1293,0.042369581640037964,0.05662277288204894
1294,0.04236068704920304,0.05662249019427805
1295,0.04235951282237922,0.05662375982927414
1296,0.042357304290000675,0.056623389337039774
1297,0.04235004779206898,0.0566249003124992
1298,0.04234736669974963,0.056623186730376474
1299,0.04234281910792475,0.05662342242385795
1300,0.04233682959797725,0.056626313355931115
1301,0.04233598650274842,0.05662628187157041
1302,0.04233336706681432,0.056627113312820714
1303,0.042331587746710524,0.056627127383471636
1304,0.04232068811612609,0.05662829239198393
1305,0.04229829129584135,0.05662224901660324
1306,0.04229723068224848,0.05662228446114916
1307,0.042284786528974064,0.05661903667593084
1308,0.042245747800441456,0.05658616735642618
1309,0.04224319387523061,0.056588417188194275
1310,0.042239782189064594,0.05658490398792017
1311,0.04223651795618869,0.05658518806924759
1312,0.04220842248763733,0.05656924249799861
1313,0.04220577813781255,0.056569216310995374
1314,0.042199660048189196,0.05656849373143208
1315,0.04218536195323026,0.05656457728466629
1316,0.04217975446429384,0.05656468368211987
1317,0.04217378750750813,0.05657111055507933
1318,0.042171352232862606,0.056569489464966684
1319,0.042168033163138226,0.056570116105335626
1320,0.04216418367608242,0.05657041983266005
1321,0.042158050902085305,0.05656780386983079
1322,0.04215706912626977,0.056567887202925535
1323,0.042141240555542796,0.056567131861620434
1324,0.042136444199624125,0.05656893911557105
1325,0.042128718172532,0.056563976037563406
1326,0.04212292483522401,0.056564040031796846
1327,0.0421215403743151,0.05656490161414311
1328,0.04211730210821208,0.056565720892046256
1329,0.04211237083444317,0.05656624952930381
1330,0.042109325980669174,0.05656634752441622
1331,0.042106361426397954,0.0565654646941447
1332,0.04210420984621757,0.056565896615137716
1333,0.04209065483728043,0.05656201221261138
1334,0.0420842846769071,0.05656253320653418
1335,0.04208092568406549,0.05656225236774433
1336,0.042078465018497054,0.05656483380564081
1337,0.042074230655058796,0.0565648544917897
1338,0.04206798186794653,0.05656425720804047
1339,0.04205939039359193,0.056563185777452535
1340,0.042046225541523034,0.05656572809617252
1341,0.042025692033610236,0.05654686264806304
1342,0.04200339388350374,0.05654119286313725
1343,0.041997074865742674,0.0565388918556742
1344,0.04199326683685482,0.05653841137880085
1345,0.04198943103401618,0.05653801511743457
1346,0.04198370236724769,0.056535584456808015
1347,0.04197594184424722,0.056537791775980666
1348,0.04196447646681205,0.05652024358840542
1349,0.04195058334551108,0.05651572146003949
1350,0.041942511789486776,0.05652014986202861
1351,0.04193631122751736,0.05652431358866444
1352,0.04193141055177702,0.05652289634035635
1353,0.04192982435945298,0.056522891561117075
1354,0.04192105213122204,0.056527606533658695
1355,0.04192007198780022,0.05652772330953669
1356,0.0419159093453881,0.05652927775344032
1357,0.041906755370595405,0.056520664691685533
1358,0.041903952998980004,0.05652044419117976
1359,0.04189189720305739,0.056509614750652935
1360,0.041888992120999,0.05650728819124575
1361,0.041886325074842023,0.05650615489464105
1362,0.04188514846016545,0.05650694109219817
1363,0.041879511802519684,0.05650155987003796
1364,0.041876265497360995,0.056501048369732354
1365,0.04187112043246957,0.05650244722987791
1366,0.041869108025411446,0.05650285225471421
1367,0.041860773029904416,0.056501576805654194
1368,0.041856162260415705,0.05650411104243305
1369,0.041842637764426385,0.056504804575286983
1370,0.041838451678044376,0.05650363720252428
1371,0.0418343784133061,0.05650437711534818
1372,0.04183047704369452,0.05650274413489512
1373,0.041828441040132655,0.05650509973982835
1374,0.04182229214073797,0.05650372309750167
1375,0.04181892174525661,0.05650545945792779
1376,0.04181179499269644,0.0565065970095125
1377,0.041807821190722606,0.05650711529269324
1378,0.04179551294557767,0.05650330474123116
1379,0.04179289630659446,0.05650304259085556
1380,0.041767770248438724,0.056480525131931934
1381,0.04176299069120482,0.05647588989452912
1382,0.04175660535910608,0.05647619349362941
1383,0.041750943049502026,0.056477553967578566
1384,0.04174946027141234,0.05647932591506818
1385,0.04174562851562367,0.05648210472272119
1386,0.04174346947523038,0.05648344346213925
1387,0.04173828747095857,0.05648358903139928
1388,0.041731808167262366,0.05648249567386397
1389,0.04172985875836811,0.0564832660772686
1390,0.04172667187495474,0.05648580906818109
1391,0.041718181335809026,0.05648550863661509
1392,0.04171387539238395,0.05648870442318238
1393,0.041704228100536166,0.056492016879047265
1394,0.04169583091255803,0.05648766456668377
1395,0.04167856714764965,0.05648325334238008
1396,0.04166754730782925,0.056483296627165024
1397,0.04166314059567545,0.05648918005700184
1398,0.04165359047715201,0.05648465204869912
1399,0.04164575029587351,0.0564809154419945
1400,0.04164182947526267,0.05647981356986011
1401,0.041638066837766496,0.05647982407899538
1402,0.04162854379707793,0.05647748241798336
1403,0.04161808677517242,0.05647555550568996
1404,0.041614265121131123,0.05647571137750992
1405,0.04160744731532562,0.05647669796266541
1406,0.04160120531299873,0.05647654958631018
1407,0.0415995695400084,0.05647694221053131
1408,0.041591087995429626,0.0564770866096169
1409,0.04158632203534322,0.05647921379067317
1410,0.0415801077297955,0.05648033038485637
1411,0.04157173714311677,0.05648109419804449
1412,0.041547516922928684,0.05646458840408366
1413,0.041543672060865094,0.05646568704216745
1414,0.041537660778046555,0.056461920527073196
1415,0.04153628879786672,0.056462134669752466
1416,0.04153034856177129,0.056465991539496246
1417,0.041528507288495886,0.05646722130337047
1418,0.0415233194117285,0.056467390882135066
1419,0.04151822657243003,0.05646617506324288
1420,0.041514233982113256,0.05646694850436423
1421,0.04151020489509316,0.05646793185106975
1422,0.04150652036628846,0.056467955786390404
1423,0.04150402003132941,0.056465409614351474
1424,0.041501517358667556,0.056464376460179974
1425,0.04149744414092383,0.05646563389915171
1426,0.04149327443587973,0.056463325512981444
1427,0.04149033441021208,0.05646268789129605
1428,0.04147860305741856,0.056465946637954935
1429,0.041476985164238374,0.05646610843556781
1430,0.04147234064149156,0.056468562653523
1431,0.04145932734164009,0.05645138101604819
1432,0.04144989621371351,0.056452600174805224
1433,0.04143388670228021,0.05645550996411257
1434,0.04143179446285515,0.05645535519618428
1435,0.04143062760963583,0.056455383941296414
1436,0.04142480802474177,0.05645586225954636
1437,0.04141816318498174,0.05645682843117404
1438,0.04141426774217337,0.05645802022964711
1439,0.04141252281616133,0.056458081914462575
1440,0.0414078921924544,0.05645998351603219
1441,0.04140497401834143,0.056461347477706605
1442,0.04139289576815691,0.056456110666657004
1443,0.04138262521304418,0.05645492910023852
1444,0.04137704438064312,0.056459345893191036
1445,0.04137466088411918,0.056459017934785
1446,0.04137054963190782,0.0564591881664853
1447,0.04136340088040793,0.05646047582124422
1448,0.04135437723955906,0.05645365451216684
1449,0.04135305842944536,0.05645327949603733
1450,0.04133960889515629,0.05644415135217988
1451,0.04132902489338309,0.05644497120952397
1452,0.04130466680769403,0.05642943920492812
1453,0.04130083131605793,0.05643171469675512
1454,0.04129950682599041,0.056431661473748104
1455,0.04129219940237204,0.056433645422723125
1456,0.04128581078694671,0.0564340330836089
1457,0.041277053173547094,0.05643414435107529
1458,0.041275683859080085,0.05643414907716706
1459,0.04127232438869731,0.056432076078097825
1460,0.0412667156842351,0.056432773876243784
1461,0.04125868618589439,0.05643032424342977
1462,0.04124956792626453,0.056433827475411764
1463,0.041247022733300956,0.056434251199902995
1464,0.04123718854714192,0.05643256819543785
1465,0.04122439803366611,0.05643354235795747
1466,0.0412186648981096,0.05643378399837712
1467,0.04120375743153911,0.056424647885863925
1468,0.041190979032869494,0.05641701915882989
1469,0.04118826557901605,0.05641572095159078
1470,0.041177430872564105,0.05641659078414244
1471,0.04117234282707671,0.056417615119974195
1472,0.04116931243391548,0.05641684854515754
1473,0.04116255475610409,0.056420641639668964
1474,0.04115873148824314,0.05642080421767006
1475,0.041153842006317394,0.056420794278845714
1476,0.0411493810145193,0.05641894186392961
1477,0.04114627651275371,0.056419733318981154
1478,0.041144962645225394,0.056419740076899476
1479,0.04113584308188126,0.056422140358155536
1480,0.041133494482708734,0.05642180239115822
1481,0.04112610539025143,0.056421778664951926
1482,0.04112426751712478,0.056421757994209114
1483,0.041121369877734966,0.05642085367948087
1484,0.041114858208702504,0.05641700780814392
1485,0.04108904605121286,0.05639966421879124
1486,0.041085989032485726,0.05640007181758148
1487,0.04107930425544598,0.05639837240838463
1488,0.04107631889706621,0.05639906581699427
1489,0.041070474709728445,0.05639783679850243
1490,0.04106513662909372,0.05639633366087669
1491,0.041059736995756074,0.05639578563975272
1492,0.041055587515791636,0.05639770622768278
1493,0.041038403523270574,0.05639598594059054
1494,0.04102918307188541,0.05640038564855357
1495,0.04102562820913754,0.056401569622413494
1496,0.04101515126143481,0.05640268870417151
1497,0.04101222044869562,0.05640326071768627
1498,0.04100297236514168,0.05640754557192259
1499,0.040986781487204776,0.056401766756044094
1500,0.040976996309439365,0.05640721282713809
1501,0.04097182297703467,0.056408361737865065
1502,0.04096982470516707,0.05640558136879326
1503,0.040965030493553205,0.05640539414862677
1504,0.04096022975484087,0.05639945861420675
1505,0.040951991129703644,0.056403778322480495
1506,0.040948581802720596,0.056403647640791615
1507,0.040942192678493014,0.05639954185989435
1508,0.04093281268022808,0.056397828350835975
1509,0.0408859586526276,0.05636855044795208
1510,0.04088123989050304,0.056366817222775395
1511,0.040864649504888426,0.05636416434097416
1512,0.04085544521606706,0.05636603628554323
1513,0.04084891754234394,0.05636025556646365
1514,0.04084394234505167,0.056360370673092276
1515,0.04084244791697744,0.05636022071536642
1516,0.04083841550819692,0.056357298335418374
1517,0.04083337330933665,0.05635951878858467
1518,0.04082770112584826,0.05635988036287712
1519,0.04082499387506418,0.056361501294767226
1520,0.040816337741899904,0.05636341001175235
1521,0.04081100687907177,0.056362362639910894
1522,0.040804170527772084,0.05636182482485309
1523,0.04080197976772423,0.056360359794253315
1524,0.04079548179258426,0.05635933992718244
1525,0.04079184314609,0.056363248451312374
1526,0.04074496857950057,0.05632351629535468
1527,0.04073833580402104,0.05632774534691642
1528,0.040732182723206306,0.056330299561708326
1529,0.04072451525016329,0.05632522640232364
1530,0.040711849538721034,0.056325688587547114
1531,0.04069715696937153,0.05632272262641504
1532,0.04069181507852684,0.056322732489259286
1533,0.040684728880567386,0.05632103075031341
1534,0.040678385042208706,0.05632101134719982
1535,0.040665077655389556,0.056330170544684276
1536,0.0406541713343217,0.05632680163767333
1537,0.040649289146778865,0.05632756996273555
1538,0.04064663302374899,0.056327594949063704
1539,0.04064354581606491,0.05632632445287669
1540,0.040623129267293556,0.05631098221697501
1541,0.040622066108645626,0.05631094180035675
1542,0.04061543764913436,0.056318269130354544
1543,0.04060257763427237,0.05631424532890485
1544,0.04060094979240677,0.056314415608577674
1545,0.040598845224471915,0.05631369443431984
1546,0.04058962545081376,0.05631099849273727
1547,0.04058619099896611,0.05631351276932124
1548,0.040582831200841225,0.056313925893206586
1549,0.040564705859936,0.05630109088017863
1550,0.040549588065936386,0.05630996196825307
1551,0.040546350119537174,0.05630974161753697
1552,0.040543200964201206,0.05630939486165375
1553,0.040532589157775176,0.05630400447992472
1554,0.04052477677857089,0.05630221252826175
1555,0.04052140986881195,0.05629805315866543
1556,0.04051576032171567,0.05629585003706954
1557,0.04050851818002635,0.05629355294922531
1558,0.04050755967407474,0.05629351720023276
1559,0.04050573083343783,0.05629290124530887
1560,0.04050256819970435,0.056296302702572104
1561,0.04050022995400416,0.05629247802228546
1562,0.040493838195071186,0.056292360521553196
1563,0.04049056417729292,0.056292528527787974
1564,0.04048624736577177,0.056292827452887495
1565,0.04048265874767789,0.05629269367152544
1566,0.040457788590715235,0.05628262001308653
1567,0.040451452421837446,0.05628220043733051
1568,0.04044684221942744,0.05628219622021374
1569,0.04044565976944172,0.05628186426943824
1570,0.0404354674239234,0.056278949136055904
1571,0.04042603001443462,0.05627190208689167
1572,0.040402662377361905,0.05626341161532555
1573,0.04039730644638579,0.05626195771670303
1574,0.040393356702437294,0.05626378373968324
1575,0.040387442453699886,0.05626521109347676
1576,0.040380683688086116,0.056265231019474476
1577,0.04037514867549583,0.05626852066446802
1578,0.04036767438028614,0.056266587918334325
1579,0.040358429420140646,0.056268621540208695
1580,0.04035501988883908,0.056268599802995145
1581,0.04035089430303334,0.05626825376774323
1582,0.040325761785330975,0.05625772479585781
1583,0.04032505365213321,0.056257735422059606
1584,0.0403198053126477,0.056253394021276465
1585,0.04031890868587545,0.05625362116852668
1586,0.040315452933922954,0.05625298975202368
1587,0.04030848334700671,0.05625364451984771
1588,0.04030514760025725,0.05625422648889906
1589,0.040304507145542054,0.05625425344287611
1590,0.04030082725747961,0.056255476811534776
1591,0.04029789007110909,0.05625597085832438
1592,0.04028777049531532,0.056251072515382715
1593,0.040285576461074876,0.05625114850039918
1594,0.04027092337679147,0.05624295682724597
1595,0.04026776583979143,0.05624604196702689
1596,0.040264440040216294,0.05624570181683056
1597,0.0402478809787611,0.05624211612605429
1598,0.04024621721899872,0.056242210836559864
1599,0.04023756000198512,0.056236560790701474
1600,0.040231963016612464,0.0562362215619468
1601,0.04022390269834742,0.05623107764649457
1602,0.04021864077799176,0.05622957776102845
1603,0.04020181658984378,0.056236326792420466
1604,0.04019766369975529,0.05623773252119008
1605,0.04019497380877674,0.05623798308454263
1606,0.040187873299777195,0.05623826466811744
1607,0.040177231776742345,0.05623028892960927
1608,0.040171300593668566,0.05622599603044346
1609,0.04016678733851748,0.056224150399104916
1610,0.04015932268620302,0.05622322590792312
1611,0.04015594695882708,0.05622124857354788
1612,0.04015261386229761,0.05622339392193213
1613,0.04013965323236456,0.056220924773836604
1614,0.04013752361141976,0.05622151472405673
1615,0.0401316436478717,0.05621828493352543
1616,0.040126290848930636,0.05621656842257905
1617,0.040117910489481746,0.05621462596476571
1618,0.04010497537416669,0.05621692526211536
1619,0.040096454564423414,0.05621294781207459
1620,0.040086076219034414,0.0562132092735694
1621,0.04007761935403679,0.05621303193478225
1622,0.04007385199525486,0.056215502934101144
1623,0.04006556224535803,0.0562099783241908
1624,0.0400572417761194,0.05620972210170386
1625,0.040049591447623184,0.056211388086220664
1626,0.04003377078709835,0.056210631330147545
1627,0.04002545280402901,0.05620493084563559
1628,0.04002218682103096,0.056202781358394155
1629,0.040020419495429685,0.056202702035931945
1630,0.04001340574969893,0.056200368418117944
1631,0.04000451236389839,0.05619703179566594
1632,0.04000052744913959,0.05619884315070928
1633,0.039997860706063974,0.056198451120902194
1634,0.03999391958447408,0.05619672262857496
1635,0.03999012743584708,0.05619568751417259
1636,0.03998295153055991,0.05619958066855685
1637,0.03998124510593275,0.056199334219630456
1638,0.039979608685545294,0.05619943514992556
1639,0.039974536750456285,0.056198765174161024
1640,0.0399620110824495,0.05619628631342055
1641,0.03994779168479141,0.056182021618405464
1642,0.039943895075967344,0.056182029864240764
1643,0.039912992505956764,0.056160590537910025
1644,0.03990808204489761,0.05615684388901958
1645,0.03990752700011402,0.0561568841051736
1646,0.039896022618006385,0.05615536656222115
1647,0.03988942722811229,0.056154597902006
1648,0.03988665895219261,0.056155311595519876
1649,0.039883603810796565,0.05615576783161516
1650,0.03988128172698055,0.05615439210398584
1651,0.039877959892006654,0.05615466279080869
1652,0.03987050358440722,0.056157180351887936
1653,0.03985507589057448,0.05614496235822233
1654,0.03984708157310485,0.05614863469035758
1655,0.039838053775477236,0.05614703113186527
1656,0.039835289836379253,0.0561471652052492
1657,0.03983146790649411,0.05614553478192675
1658,0.039827881707960124,0.05614551445117687
1659,0.03981771674021545,0.05613982557469124
1660,0.03980780354413478,0.05614390719414726
1661,0.03980002487372076,0.056143922700513264
1662,0.03979619391038191,0.056144959727923834
1663,0.03979138204311385,0.05614627817679046
1664,0.039786900204489196,0.0561469785619918
1665,0.03978189963396847,0.05615116272442212
1666,0.039775863898212686,0.056150539884680405
1667,0.0397716506718012,0.05615105008589841
1668,0.03976806160375435,0.05615033889857323
1669,0.03976296463018201,0.05615174700123194
1670,0.039761487156439,0.05615232259328862
1671,0.03975945818730341,0.056153370172756206
1672,0.039756120357210045,0.0561537859207483
1673,0.03975167451094526,0.05615223538294118
1674,0.03974750550354598,0.05615042554387679
1675,0.03974310508604644,0.05614971109660314
1676,0.039741874194134004,0.056150136156387524
1677,0.039739067175256056,0.05615138230677491
1678,0.039736324022017516,0.056148739381036976
1679,0.0397316845020843,0.05614912626043839
1680,0.03972718515137792,0.056150067100059466
1681,0.039722937940536066,0.05614974737866551
1682,0.039715348803560306,0.05614469128877956
1683,0.039712527503745654,0.05614506856973644
1684,0.039708408773458874,0.05614473216818661
1685,0.039706062882338855,0.05614478505667526
1686,0.03969475382713554,0.056139642624620206
1687,0.03969271172131931,0.05613969965680864
1688,0.03968997434864196,0.056139353563384974
1689,0.0396835290144534,0.05613649973290273
1690,0.03968210014858935,0.05613722038616661
1691,0.039663964923153196,0.05612903695096207
1692,0.03965811741210646,0.05612524952760426
1693,0.03965419465359544,0.05612712325024844
1694,0.03965191740141528,0.05612756760741207
1695,0.03964805652442213,0.05612738733809477
1696,0.039640558887723415,0.056125668604804946
1697,0.03963050739518362,0.05612312454788507
1698,0.03962706040902031,0.0561234552634136
1699,0.03962376032978832,0.05612355676424902
1700,0.0396197221628615,0.05612579642909721
1701,0.03961446818497759,0.05612398447714484
1702,0.0396104837708541,0.05612239632404284
1703,0.03960557050128667,0.056122567258689866
1704,0.03960269576951742,0.05612319606179203
1705,0.03959728072555326,0.05612180984104206
1706,0.03958657106588189,0.05612663783296322
1707,0.039576106570317696,0.05612965922261365
1708,0.03956384367762099,0.05612367266318488
1709,0.039562609313579356,0.056124155172868735
1710,0.03955825133720858,0.05612470851371395
1711,0.039554579941995835,0.05612894571093528
1712,0.039552073757994084,0.05612885465466684
1713,0.03955095456696702,0.05612874899102657
1714,0.03954533358801685,0.05612909657498624
1715,0.039538971028268165,0.056134092642431875
1716,0.039536243774944975,0.056133077356390455
1717,0.03952579215869938,0.05613108987011862
1718,0.03950553073025878,0.056128354749554014
1719,0.03949541483424131,0.056128825968140915
1720,0.039493770787450685,0.05612873529659827
1721,0.03949258015453894,0.05612870656908811
1722,0.039486782837191196,0.0561269652211259
1723,0.039483743657821105,0.05612811690104088
1724,0.039479375766818516,0.05612835554321266
1725,0.03947624445311723,0.05612848181296151
1726,0.0394742440811273,0.05612875523125366
1727,0.039470903633920786,0.05612895853294203
1728,0.03946622165148394,0.056128980304878576
1729,0.039463795954454726,0.056128528145020604
1730,0.03946119587695957,0.056129238971489505
1731,0.03945583058320986,0.05612128371298563
1732,0.03945412624603564,0.05612148413606798
1733,0.03944881605697165,0.056116940545748416
1734,0.039444759931812366,0.056116992568979965
1735,0.03944159009550368,0.056116181826153105
1736,0.039439679281122825,0.05611610873722588
1737,0.03942765994606263,0.05611019801474534
1738,0.0394240910051593,0.056111286262254215
1739,0.03942209510410949,0.056111187253471716
1740,0.03941878315161387,0.05611078525404017
1741,0.0394121999946046,0.05610770228040886
1742,0.03940990565016552,0.05610744710907317
1743,0.03940378607208393,0.056110994778148876
1744,0.03940103109663606,0.056112054712874414
1745,0.039399328351203904,0.05611339147034945
1746,0.03939764055550504,0.05611300369996204
1747,0.03937148368655686,0.05611292849903509
1748,0.03937032060427836,0.05611284472795423
1749,0.03936916532558872,0.05611271849192552
1750,0.039365054914242914,0.05611343306716714
1751,0.03936187983520997,0.05611370855135112
1752,0.03935383287428111,0.056120038962374594
1753,0.03935256193253759,0.056121340910894324
1754,0.03934886842555872,0.0561206203884334
1755,0.0393451334292732,0.05612090444886313
1756,0.039338453081091795,0.056122732628120585
1757,0.039337465926332194,0.056122686817006606
1758,0.039335281362065766,0.05612249965847564
1759,0.03932191812540285,0.05610899373873119
1760,0.03931704311525279,0.05610575224088681
1761,0.039312481518921756,0.0561058100644104
1762,0.039308091012491615,0.056111555540489105
1763,0.03929726552334443,0.05610924507227506
1764,0.03929114949302047,0.05610540037258739
1765,0.03927676165853963,0.05610546985908555
1766,0.039272889969787485,0.056104670877360555
1767,0.03925566486388282,0.05610247063109528
1768,0.03924534176339713,0.05610089631788021
1769,0.03924196895407895,0.05610016665650107
1770,0.03923756111523671,0.05609893727853493
1771,0.03923524918142454,0.056099311123578445
1772,0.03922617988699405,0.05610210445004082
1773,0.03921852682396718,0.056101104634793626
1774,0.03921319699457967,0.0560984927293067
1775,0.039210202879972664,0.05610073190460779
1776,0.03920618057085204,0.05610023284834097
1777,0.03920047655963036,0.05610239345283882
1778,0.03919819291206275,0.056107158630873816
1779,0.03919211619895615,0.056106234624472937
1780,0.039185950073478804,0.05610304322568231
1781,0.0391804062056102,0.05610329783749349
1782,0.03917822795504997,0.0561034092170794
1783,0.03916718659351058,0.056091371436921916
1784,0.039165718248061844,0.056091188712341096
1785,0.03916487366623808,0.056091209680237
1786,0.039160151310019556,0.05609127324425165
1787,0.03915615503672454,0.056091298787686324
1788,0.03915149193354786,0.0560928268913617
1789,0.03914942676506895,0.05609309686794112
1790,0.03914678058614638,0.05609323812950056
1791,0.03914184742001354,0.05609151604033451
1792,0.039139443978871036,0.05609180123190944
1793,0.03913728592558155,0.05609161289713457
1794,0.03913099492541942,0.05609090363219656
1795,0.039128389515072796,0.056092054554688846
1796,0.039120950671201686,0.056089612974977096
1797,0.039118093385598574,0.05608958699814494
1798,0.03911240839314259,0.056090796838813274
1799,0.03911045235700972,0.056091949347965075
1800,0.0391010712296155,0.056086839440470194
1801,0.03909710033208001,0.05608545649129523
1802,0.03909483755423671,0.05608376301891485
1803,0.039089372815673804,0.056084879489203
1804,0.03908658138330196,0.05608392693624357
1805,0.03908440275064458,0.0560849529881353
1806,0.03908131860048453,0.05608502237184286
1807,0.03907860636587957,0.0560860034015398
1808,0.03907419923406836,0.05608328755697224
1809,0.03906995092934308,0.05608624684631089
1810,0.03906546787645335,0.05608788758254024
1811,0.03906384135419116,0.056088633111663594
1812,0.03904097491882736,0.05607486129400274
1813,0.03903941365413784,0.0560748939128436
1814,0.03903009691317437,0.05607441532265372
1815,0.03902743849161278,0.05607447692978291
1816,0.03902424720191399,0.05607407454484928
1817,0.03902071285030364,0.05607498889104851
1818,0.03901848770716653,0.05607415569903881
1819,0.03901668684847527,0.056075879894460556
1820,0.0390115230780219,0.05607605245394652
1821,0.039005595331936295,0.056073960550458414
1822,0.0390037601858656,0.05607396417805897
1823,0.03900130525280977,0.056073468482448756
1824,0.03899900877507911,0.056074458687356346
1825,0.038988911876857754,0.05606907383161475
1826,0.0389856488356911,0.0560701851875057
1827,0.03898308043500727,0.05607021375623698
1828,0.03898156784439335,0.05607044068083463
1829,0.03897962749531236,0.05607277197001451
1830,0.038974679317332755,0.0560727207071002
1831,0.038969458540754814,0.05607510647043385
1832,0.038963478835438825,0.05607732782783393
1833,0.03895764035763884,0.05607529628976365
1834,0.03895430937302265,0.05607535924823374
1835,0.038949794873104626,0.05607659795183919
1836,0.03894610842231866,0.05607777904737625
1837,0.03893752507104944,0.056080166420549395
1838,0.03892942193550277,0.05608032151168138
1839,0.038909563994206496,0.05607792923913425
1840,0.03890672257739686,0.056081037127928654
1841,0.03890436974371918,0.05608111464898615
1842,0.038900819097913236,0.05608142939670595
1843,0.03889391579873486,0.056081569704358444
1844,0.03889206384514259,0.05608163630716068
1845,0.038883035514265696,0.05608434074486188
1846,0.03887680170323732,0.05607773856039312
1847,0.03887589240402175,0.05607757349535458
1848,0.038874874033834494,0.05607756801740255
1849,0.03887283647188717,0.05607922335856363
1850,0.03887083092727392,0.05607911736030564
1851,0.03886635436906228,0.05607892550817398
1852,0.03884792614955849,0.05607071472667331
1853,0.03883870716992445,0.0560676406184112
1854,0.03883500890467239,0.05606796988705892
1855,0.03883244732970953,0.05606772798022143
1856,0.03882977418017866,0.05606806582324615
1857,0.038825037538652546,0.05606664914066046
1858,0.03881861405153709,0.05606125276399529
1859,0.03881661032855565,0.05606109236943067
1860,0.0388143385771321,0.05606505427631355
1861,0.03881094127942545,0.056069938670414175
1862,0.03880639312398489,0.05606576591735635
1863,0.03879999216068393,0.056062703638571486
1864,0.03879077101963896,0.056058569306794384
1865,0.038788040805049655,0.05605749931948794
1866,0.03878535385015493,0.05605740902508735
1867,0.03878326177105783,0.05605795509793762
1868,0.03877738188757704,0.056058000096271744
1869,0.03877092241942666,0.0560539938824668
1870,0.03876651022093465,0.05605350787004756
1871,0.038762790378726604,0.056055040977000176
1872,0.03876065294804581,0.05605521352701843
1873,0.038757471765162164,0.05605335529017771
1874,0.038753269768231194,0.05605336003407544
1875,0.038750201795691795,0.056053861860855585
1876,0.03874845051496011,0.05605400537142441
1877,0.03874496316098533,0.05605142247296101
1878,0.03873987851660039,0.05605151047049312
1879,0.03873845271258696,0.056052397933124415
1880,0.038735316314355304,0.056052780176834044
1881,0.03873121894158044,0.05605301574119425
1882,0.038728289012220286,0.056052657961226715
1883,0.038725363793331136,0.05605296610556136
1884,0.03872091185937182,0.05605286230472663
1885,0.03871983234934026,0.05605281486251072
1886,0.038715861425709715,0.05605026159946118
1887,0.038712610298046055,0.056049658004520504
1888,0.03870018437513257,0.05603712326125193
1889,0.03869568967955058,0.056038091235591926
1890,0.038691861878288145,0.05603825921816987
1891,0.03868555753082945,0.0560374822010342
1892,0.038672890821690106,0.056027440339647405
1893,0.03867012473279471,0.056027194333434636
1894,0.0386509436772236,0.05601560002242837
1895,0.0386367894184834,0.056020490519243536
1896,0.03863401743839944,0.05602105963947515
1897,0.03863198333155383,0.056022114249771555
1898,0.03863125215836211,0.05602208273650189
1899,0.03862431384699095,0.05602194574960458
1900,0.0386220980115421,0.05602108923026905
1901,0.03861987501387215,0.05602046096440401
1902,0.0386090133082256,0.05602185640707368
1903,0.038603820671423796,0.05602143431243184
1904,0.03860162599154749,0.05602160773860043
1905,0.0385985838744017,0.05602202079014482
1906,0.03859707912219734,0.0560224319588817
1907,0.03859384358142212,0.05602089448772563
1908,0.03859250617843975,0.056020847952177565
1909,0.038576672128838994,0.0560083255685609
1910,0.03857460038642992,0.05600872852057713
1911,0.03856775603491982,0.05600894254308282
1912,0.03856596621029309,0.056010144360467445
1913,0.03856115468214193,0.056005481966942945
1914,0.03855759139464474,0.056004161945512346
1915,0.03855465660970172,0.05600400112061795
1916,0.03855204326084149,0.05600301481929581
1917,0.03854821958415186,0.05600292572019335
1918,0.03854295217285653,0.05600407042848208
1919,0.03854150047138405,0.05600347801416478
1920,0.03853826942710421,0.05600278008511144
1921,0.038536165619549666,0.056003241155481144
1922,0.03853234686389539,0.05600513105983033
1923,0.038530090653074445,0.05600601448978954
1924,0.03852710678105205,0.05600572050465639
1925,0.03851731038629807,0.05600347990145851
1926,0.03851615778138478,0.05600344595817587
1927,0.03851338655416244,0.05600217158458172
1928,0.03850471216595183,0.056003198653942134
1929,0.03849988776251352,0.05600403661212411
1930,0.038491685227362855,0.056004593685213565
1931,0.03848124709692563,0.05599664969707966
1932,0.03847874349448651,0.0559993209356739
1933,0.03845941940577647,0.05598176388686789
1934,0.03845514938977582,0.055981994354463695
1935,0.03844797411541368,0.05598345942497984
1936,0.03844034200788503,0.05598936131949241
1937,0.03843766604555882,0.05598918216469445
1938,0.03842948357599928,0.055988570589249095
1939,0.03842170313053551,0.05598954626355157
1940,0.03841811256635156,0.05598674407583962
1941,0.03841683336642487,0.05598674572907326
1942,0.03840707559784357,0.05598333082711713
1943,0.03840533018204176,0.055983826850200216
1944,0.038403425155466735,0.055983715689407666
1945,0.03839471259278626,0.05598242987743312
1946,0.03838888416694349,0.05598096205788894
1947,0.038383797296463726,0.05598167645208132
1948,0.038377034085842046,0.05598174532478684
1949,0.038365420050611894,0.055978192179930865
1950,0.03836074250292542,0.05597650931261779
1951,0.03835733465571429,0.05597648889594998
1952,0.038353265429052014,0.0559759758552457
1953,0.038350627506122115,0.05597574627082047
1954,0.03834827838104239,0.055976222984647286
1955,0.038344820068591294,0.05597665702093291
1956,0.0383398790692695,0.055977868101215224
1957,0.038334963605114965,0.05597557571690636
1958,0.038329912500085515,0.05597489891113228
1959,0.038326013426237274,0.05597607763190726
1960,0.03832267449719769,0.05597543642151334
1961,0.038311272516387655,0.055973463462441975
1962,0.038305440531199615,0.05597768754904605
1963,0.0383022605117285,0.055978381976100035
1964,0.03829671152170775,0.05597608360685056
1965,0.0382942004111326,0.05597603926383434
1966,0.038292513492788754,0.05597672727597106
1967,0.03828705686633422,0.0559701494889184
1968,0.03828370784270321,0.05597336229993119
1969,0.038276083383010966,0.05596410275233797
1970,0.038268931623202225,0.055966737419949314
1971,0.03825943075606242,0.05596838370912327
1972,0.038256986635376355,0.055968608798833856
1973,0.038252779419361026,0.05596848900116053
1974,0.03825078098121323,0.05596897299125634
1975,0.03824381028945303,0.055965178881295555
1976,0.038240763366403724,0.05596433201167516
1977,0.03823879865468494,0.05596362607872193
1978,0.03823605820272732,0.05596474483587884
1979,0.03823292077785214,0.05596422005811617
1980,0.03823092282810403,0.05596456902625797
1981,0.038226585075090955,0.05596375322133924
1982,0.03821866721386375,0.0559600045593087
1983,0.038217016896494545,0.055959982511795514
1984,0.038216343618074855,0.05595994196183225
1985,0.03821423131276495,0.055959820546532923
1986,0.038210771547346964,0.055960721442128866
1987,0.03817592500190231,0.05593512499867698
1988,0.038169950562065805,0.05593588897878527
1989,0.038163695361108474,0.05593841101811041
1990,0.038144955215927735,0.05592645874489467
1991,0.03814307670995536,0.055926417827459204
1992,0.038138280399700214,0.055926747391853035
1993,0.03813693855082422,0.05592702386114155
1994,0.0381348856048598,0.055927267786156934
1995,0.0381298067330669,0.05592834703172751
1996,0.038127506157355946,0.0559299476965909
1997,0.03811853490888725,0.05593043312653653
1998,0.03811504874835955,0.05592906016877998
1999,0.03811439455289751,0.05592962346339678
2000,0.0381117173682708,0.05592928448513398
2001,0.03811075652976139,0.05592977068472387
2002,0.03810968221194732,0.055931326787230645
2003,0.038108142598571586,0.055929925954024066
2004,0.038106298991558304,0.05593088060288834
2005,0.038105704958902066,0.0559314564235343
2006,0.03810327532700316,0.05592885970592805
2007,0.03809831069585942,0.055928725079031696
2008,0.03808154160534368,0.05592250933285705
2009,0.03807965046379286,0.05592287015032558
2010,0.03806836577789344,0.05591777609176367
2011,0.038066750078637634,0.05591942364210537
2012,0.03806363167067629,0.0559193127262875
2013,0.03806152831980555,0.055919255596778586
2014,0.03805428280200367,0.05591928184749803
2015,0.03804993350314177,0.055919413016209195
2016,0.038042397863587075,0.055922531160722336
2017,0.0380372276764618,0.055918448177024634
2018,0.038035461173666026,0.05591948870565827
2019,0.03803307898797968,0.05591967445407274
2020,0.038028005069726985,0.05592006420984741
2021,0.03802391354305691,0.055919759501867755
2022,0.03801596459180796,0.055917421642405624
2023,0.038010559448837536,0.0559158744859484
2024,0.03799921033391069,0.05591198408276764
2025,0.03799785203189911,0.05591200665048915
2026,0.03799517518304568,0.05591253982512166
2027,0.03799384712800274,0.05591267130119769
2028,0.037987677016757856,0.055911566226811454
2029,0.03798100449544031,0.05591144769146067
2030,0.03797719415550225,0.055912854192977895
2031,0.03797518807849837,0.055912561548157075
2032,0.03797305329260472,0.05591152624937236
2033,0.03796959704376109,0.05591033194522977
2034,0.03796797152484651,0.055910408155373265
2035,0.037964298883855885,0.05591019302206657
2036,0.03796204592096473,0.05591213841054318
2037,0.03795909348262487,0.05591419007490232
2038,0.03795707996112299,0.055915751481186104
2039,0.03795025898815748,0.05591213337539347
2040,0.03794229702363892,0.05591650483888436
2041,0.037936757199543786,0.055915394955192856
2042,0.037932872099224024,0.055915587894401986
2043,0.037927374591930026,0.05591775038614415
2044,0.03792516961784377,0.05591747809849658
2045,0.037923064821491735,0.05591525444270963
2046,0.03791972549798263,0.05591497288940043
2047,0.03791692495783504,0.05591452844168739
2048,0.037913306314188724,0.05591503076102242
2049,0.037908430144061936,0.05591262875354654
2050,0.03790310913765999,0.05591143152902629
2051,0.037900865837363414,0.05591174490106305
2052,0.03789639810396421,0.055910579896699654
2053,0.03789327995286485,0.05591063661181735
2054,0.037889944085653764,0.0559109542214649
2055,0.03788732919639042,0.05591032012695204
2056,0.03788429949494976,0.05591068296775978
2057,0.0378750287286691,0.055912856823122574
2058,0.037868115518412016,0.05591329439638352
2059,0.037866216229787246,0.05591502334927398
2060,0.03786292654031038,0.05591834060883899
2061,0.037859786640603334,0.05591866770326394
2062,0.037846043847118475,0.05591621084719721
2063,0.037838346368680754,0.055911679979332114
2064,0.03783494980417416,0.055911068365975564
2065,0.037825241268171717,0.055910587752140035
2066,0.0378241653362578,0.05591027492535279
2067,0.037813711664759914,0.055915114554095896
2068,0.03781184184726859,0.05591526087892526
2069,0.037806531060951776,0.05591837271851915
2070,0.037802399366919794,0.05591849181443583
2071,0.03780083755217432,0.055917740631948314
2072,0.037796063259369655,0.05592166195559835
2073,0.03779372979974772,0.0559209083571523
2074,0.03778943893411147,0.05592049026404286
2075,0.03778843176100783,0.05592048095646113
2076,0.037784841591259916,0.05591748995521018
2077,0.03777871978888386,0.0559236093769373
2078,0.03776747229114,0.055927537834964056
2079,0.03776435902943958,0.05592732486645961
2080,0.03775966671378174,0.055927856119171775
2081,0.03775670355142407,0.05592755396983274
2082,0.037750032861641365,0.05592946615430105
2083,0.03774755696084636,0.05592993161863014
2084,0.03774512969657959,0.055931336787887365
2085,0.03774141152949248,0.05592975566091352
