feature,mean_importance
feature_11,1.0921410758366403e-05
feature_6,2.2590076431601437e-05
feature_28,2.4261782781808543e-05
feature_26,6.277192925960295e-05
feature_33,7.985274917823824e-05
feature_40,0.00011279484373401434
feature_31,0.0001410604670212451
feature_18,0.00014352923983540177
feature_8,0.00016806380414370915
feature_9,0.00017073373088757822
feature_27,0.00017156610308184488
feature_12,0.00017576671433567164
feature_7,0.0001979218314852576
feature_29,0.00021782194474198428
feature_13,0.00021944287937884256
feature_30,0.0002433600042965448
feature_32,0.00024351977834328984
feature_38,0.00032584471745570714
feature_25,0.0003606584601544664
feature_10,0.00042572515345270097
feature_35,0.0004305539641397387
feature_37,0.0004758257740773909
feature_19,0.0004931174468812627
feature_17,0.0005158403482074293
feature_16,0.0005192136921291349
feature_39,0.000620809770635547
feature_36,0.0006590375748823527
feature_14,0.0009032565921449565
feature_22,0.0011716684628739389
feature_2,0.0013111487718263752
feature_1,0.0015646911318223018
feature_3,0.0016624350014546366
feature_20,0.0017104367540114718
feature_15,0.0017469216437279596
feature_21,0.0018531911216880914
feature_34,0.0020451794815636026
feature_23,0.0023708122920086836
feature_5,0.0026048156509762264
feature_24,0.00521752402265707
feature_4,0.007363165016626413
