feature,mean_importance
feature_6,0.00010711555175808296
feature_8,0.0001271140008721902
feature_9,0.00013982276902053982
feature_27,0.00015832720380911346
feature_11,0.00016264364753975843
feature_18,0.0001802620967666136
feature_28,0.00018405743030961707
feature_26,0.0002496963440337067
feature_40,0.00029387824826876093
feature_38,0.00030503584091986157
feature_31,0.00031074072640390507
feature_10,0.0003269012412111513
feature_30,0.0004145506433612577
feature_7,0.00041539596281318784
feature_32,0.00043801270024551657
feature_33,0.00044007197443950705
feature_29,0.00047341912861446206
feature_35,0.0004895706382378951
feature_12,0.0005385059115817079
feature_16,0.0005403184909047506
feature_13,0.0005876556278988195
feature_36,0.0006065738907272942
feature_17,0.0007768545196354899
feature_39,0.0008174234943325066
feature_19,0.0008467140861621467
feature_37,0.000854373559580952
feature_25,0.0008950313901940482
feature_14,0.001217162347654364
feature_22,0.001566207199850345
feature_21,0.0017138913713892177
feature_2,0.0018861716191319647
feature_1,0.001941889420766069
feature_34,0.0021076021300014446
feature_20,0.0021490402771182507
feature_15,0.002292105301803687
feature_3,0.004055757506845141
feature_5,0.004258115925226999
feature_23,0.004845903738774565
feature_24,0.007578320628252285
feature_4,0.009571229766781514
