feature,weight
intercept,0.04213713009400727
feature_1,0.0004062005172698667
feature_2,0.0032124201426051127
feature_3,-0.0010419718137367102
feature_4,-0.007748946621367749
feature_5,-0.0004017278064950605
feature_6,-8.993638939715797
feature_7,19.08221155257938
feature_8,-8.152927307514165
feature_9,60.214135194548014
feature_10,2.0770630291733436
feature_11,-51.72908059093489
feature_12,-1.358816179750819
feature_13,0.6824316535102736
feature_14,-36.491639574388444
feature_15,-0.010993736971531212
feature_16,-2.0705233220092634
feature_17,1.416065324183024
feature_18,-2.1943196155783484
feature_19,0.03224074767625474
feature_20,0.07466316443265393
feature_21,0.00016459817934947812
feature_22,0.00041591004307056406
feature_23,-0.0010413531409723463
feature_24,0.0035875024950414564
feature_25,-0.000496442512829478
feature_26,0.5206029507407828
feature_27,0.014178423961961941
feature_28,-0.520718734340277
feature_29,0.001025410700909698
feature_30,0.01973601341636196
feature_31,-0.009908996052098771
feature_32,-0.014267050364494747
feature_33,0.005802598664610574
feature_34,3.0002629618607766
feature_35,0.011611686949103958
feature_36,-0.0005042843963519864
feature_37,-0.006206358706837056
feature_38,17.92987316959962
feature_39,-0.07587562496008254
feature_40,0.044975256559528824
