feature,weight
intercept,0.0435816835731237
feature_1,0.0004800141484121807
feature_2,0.0030782429429631855
feature_3,-0.0011179169607216152
feature_4,-0.009096962380714316
feature_5,-0.0011053789527907059
feature_6,-10.068181859508694
feature_7,20.18826423200413
feature_8,-8.062117877301683
feature_9,62.520117608634216
feature_10,1.4480625120044635
feature_11,-50.30255263263959
feature_12,-1.1290798340821928
feature_13,0.8296463012436776
feature_14,-37.895280127357125
feature_15,-0.011169714121693432
feature_16,-2.1267164165063286
feature_17,1.5840204228371717
feature_18,-1.9659480611245606
feature_19,0.03567899022303346
feature_20,0.07630439264790496
feature_21,0.00022058295397841613
feature_22,0.0005622492843769985
feature_23,-0.0008819843907960542
feature_24,0.002570361346076191
feature_25,-0.0012123521558514898
feature_26,-0.1584089292499111
feature_27,-0.027962075311858115
feature_28,0.15762538985699087
feature_29,0.009655241685845061
feature_30,0.007838324745049578
feature_31,0.04772635242701863
feature_32,-0.008746468643273095
feature_33,0.014625724572929901
feature_34,-4.764987098814853
feature_35,-0.03498103986505587
feature_36,0.0021270216380831386
feature_37,-0.011796175715483359
feature_38,22.6935188260841
feature_39,0.06862281135392363
feature_40,-0.03495474427825829
