feature,mean_importance
feature_3,-1.8406705889420504e-05
feature_23,-1.5358308556466528e-05
feature_21,-5.552818380949453e-06
feature_2,-3.175185388089308e-06
feature_33,-1.7785890629132272e-06
feature_25,-6.128746966316267e-07
feature_1,-4.29262496808025e-07
feature_24,-1.1517982970443707e-07
feature_27,-4.279172193255576e-08
feature_34,-8.418280829369795e-09
feature_10,5.5401724897985447e-08
feature_40,2.078229180593749e-07
feature_13,1.3640926334795855e-06
feature_36,1.43479614354014e-06
feature_22,1.753343442774391e-06
feature_5,1.8807480709495673e-06
feature_12,2.4049059924799443e-06
feature_15,2.5156443922522144e-06
feature_7,3.3286991305087056e-06
feature_8,4.447156031163469e-06
feature_31,4.755974733514079e-06
feature_19,4.808256946277345e-06
feature_6,5.898104630158718e-06
feature_39,1.014305229576351e-05
feature_18,1.0593884729435955e-05
feature_17,1.1726367302555828e-05
feature_29,1.2544803018015028e-05
feature_9,2.0756917586638168e-05
feature_37,2.80165801044327e-05
feature_30,3.230687918598652e-05
feature_16,3.66365936278909e-05
feature_11,7.245887498033287e-05
feature_32,0.00010466651015733908
feature_20,0.00011756784923847435
feature_35,0.000126025148868196
feature_4,0.0001747884408067807
feature_38,0.00021783714190704988
feature_14,0.0006556787649369151
feature_26,0.28834594087943827
feature_28,0.28930138191846655
