feature,mean_importance
feature_27,-1.161205877973706e-05
feature_3,-8.542955786541157e-06
feature_15,-2.7071182413664073e-06
feature_8,-1.4425961602136662e-06
feature_23,-1.1859239110789676e-06
feature_7,-1.0459274762196491e-06
feature_6,-7.667504769978684e-07
feature_21,-5.151270049748302e-07
feature_25,-1.0955181094784993e-07
feature_30,1.0330012305964642e-08
feature_22,1.0504928721691287e-07
feature_10,3.1351506351098846e-07
feature_1,4.4707461446802377e-07
feature_5,1.5555437379688453e-06
feature_18,1.7504071969653978e-06
feature_12,3.86891738125561e-06
feature_13,5.413540254032428e-06
feature_17,8.127723325512815e-06
feature_32,1.2181617870047485e-05
feature_19,1.5199898995258559e-05
feature_9,1.663744216518076e-05
feature_24,1.741878057435059e-05
feature_36,1.8153676037552247e-05
feature_37,2.6390853578742156e-05
feature_2,4.0766668268733125e-05
feature_11,4.551384123786945e-05
feature_16,6.0162442985214894e-05
feature_31,6.671217283865798e-05
feature_29,8.687863705514262e-05
feature_20,0.00015451168101058703
feature_4,0.00016016710816695867
feature_33,0.00017189761697484693
feature_14,0.00046770520960632346
feature_38,0.0007231168241437949
feature_28,0.0009281645547609483
feature_26,0.0012866322906734389
feature_34,0.0018358356550174705
feature_39,0.005064245419917038
feature_40,0.018342659429784625
feature_35,0.0217249738915209
