feature,mean_importance
feature_26,0.00013547431065960778
feature_28,0.00014007192945539627
feature_9,0.00014646613221143377
feature_18,0.0001612529022264799
feature_6,0.0001670196288895382
feature_27,0.00017333042281670978
feature_8,0.00020496174763841822
feature_7,0.0002345936042761867
feature_29,0.0002669156758261772
feature_38,0.00028069517532007434
feature_10,0.00028077740189140325
feature_11,0.0002890243766377934
feature_40,0.0003019353345089223
feature_30,0.0003442239495596407
feature_32,0.0003966118542199703
feature_33,0.00040765669090312014
feature_31,0.00046231083409587446
feature_39,0.00046557046721660384
feature_12,0.0004900648061185147
feature_16,0.0005034287639576341
feature_13,0.0005349616197502266
feature_36,0.0006056638107061988
feature_17,0.0006535686163944638
feature_35,0.0006845404418897906
feature_25,0.0007993597478971913
feature_37,0.0008199728032282111
feature_19,0.0010317081314445468
feature_14,0.0011784233931991656
feature_34,0.0015819057952983946
feature_21,0.0017535184136546014
feature_22,0.0018140441490546153
feature_1,0.0018580421296464811
feature_20,0.0019357531932800496
feature_2,0.002262698659645954
feature_15,0.0024102068607137145
feature_3,0.0037256542551823936
feature_5,0.0038211216288210836
feature_23,0.004537430886101458
feature_24,0.005765022310466053
feature_4,0.008535469399969346
