feature,mean_importance
feature_3_ratio_feature_23,0.0
feature_7,1.1278785981211174e-05
feature_11,3.127118223877848e-05
feature_10,3.314501379952442e-05
feature_6,3.368908210965123e-05
feature_34,3.4679157563129256e-05
feature_12,3.485429364764878e-05
feature_18,5.043547529819149e-05
feature_36,6.0649748343004265e-05
feature_14,8.23673926901052e-05
feature_16,8.773064040597107e-05
feature_38,0.00010472673865155229
feature_30,0.00012734123396705173
feature_28,0.00014296967745584186
feature_27,0.00018388381192092196
feature_17,0.00019026353592260366
feature_33,0.0002034586322338723
feature_1,0.00021646400986451733
feature_29,0.00021916174151003046
feature_2,0.00022450395608257764
feature_40,0.00023824135593805148
feature_20,0.0002472070854535894
feature_37,0.0002844984108614972
feature_39,0.0003416889107680821
feature_21,0.0003562746624244452
feature_31,0.00039397746742200643
feature_19,0.00039744843494678915
feature_22,0.0004178464818092634
feature_35,0.00045401904562961766
feature_26,0.0006317338072160843
feature_25,0.0006953781785481981
feature_24,0.0014272383909931577
feature_15,0.0015938407024071865
feature_3,0.0016122779788069585
feature_5,0.0017287529359492446
feature_23,0.003603405689271511
feature_4,0.003619040449205901
feature_24_ratio_feature_4,0.006202002264201929
feature_23_ratio_feature_3,0.01010010956497574
feature_3_diff_feature_23,0.017028615972117276
feature_4_ratio_feature_24,0.021271674439036263
