feature,mean_importance
feature_27,0.0001225082145615883
feature_8,0.00016258377601105178
feature_11,0.00018602012288776448
feature_6,0.000203517662888621
feature_7,0.0002068052927324225
feature_40,0.0002590621613559392
feature_9,0.0002674779752458743
feature_18,0.0002825817044201522
feature_30,0.00029629337077215315
feature_10,0.00034762299665458375
feature_32,0.0004005743766405608
feature_38,0.00040333531568465393
feature_29,0.0005127761714117916
feature_16,0.0005536995891695654
feature_13,0.0005719351146930871
feature_35,0.0006044776342169787
feature_33,0.0006127139373996564
feature_12,0.0006505159705011618
feature_28,0.0006562635785013111
feature_17,0.0007106838002444771
feature_36,0.0007475841738342249
feature_31,0.0007605768327483854
feature_26,0.0007754806082959584
feature_39,0.0008320838001206847
feature_37,0.000971834201500351
feature_25,0.0010390558442409028
feature_14,0.0011005091486700036
feature_22,0.0012311770251437835
feature_21,0.0013792184400053542
feature_34,0.0014255845471196932
feature_1,0.001474969120040142
feature_2,0.0015758595750921388
feature_19,0.0017202787608623098
feature_15,0.0018888056010633574
feature_20,0.0020335651484304743
feature_3,0.004266097356170144
feature_5,0.004415923038103874
feature_24,0.00468261609282956
feature_23,0.005205498932928317
feature_4,0.00710424854195158
