feature,mean_importance
feature_28,6.360252579169847e-05
feature_6,9.954322659472548e-05
feature_8,0.00011504815230906525
feature_11,0.00014858232126066864
feature_26,0.00017780258790133264
feature_27,0.00017956882472677446
feature_9,0.00018673318277810866
feature_30,0.00018987158188073713
feature_40,0.00019761379048799968
feature_29,0.00019793163534950162
feature_33,0.00022666139862080327
feature_7,0.00023016789194752716
feature_10,0.00024700288739338167
feature_18,0.00026963648532130936
feature_35,0.00036226919536330694
feature_32,0.00037222439610442513
feature_38,0.0003890192185914798
feature_13,0.0004140762831166475
feature_16,0.00043636061449644006
feature_31,0.00046945825077558505
feature_36,0.0005440931295550278
feature_17,0.0005729204427740185
feature_37,0.000608666034086032
feature_25,0.0006427761218574749
feature_12,0.000647915725157797
feature_39,0.0006563492704517275
feature_19,0.0008834693454396498
feature_14,0.0010440872516066246
feature_21,0.0013405177201520468
feature_22,0.0013509062306008297
feature_34,0.001433695034043429
feature_2,0.0016363777245037233
feature_20,0.0016457609932550878
feature_1,0.0017653879492112682
feature_15,0.0019019223973238708
feature_3,0.0031680738098207846
feature_5,0.0034021561070514744
feature_23,0.00403462235180338
feature_24,0.004923161130170222
feature_4,0.007241668809968254
