feature,mean_importance
feature_38,-3.1243701016613055e-07
feature_34,-2.1472196729648008e-07
feature_11,-2.181706170150538e-08
feature_10,-1.3506698278657054e-08
feature_8,-8.969725436274583e-09
feature_6,-4.250851235072795e-09
feature_9,1.3731714550938717e-08
feature_7,4.554577142856439e-08
feature_13,8.537534236440978e-08
feature_14,4.365868403785611e-07
feature_12,9.44225846575674e-07
feature_18,3.6451726391776434e-06
feature_16,3.6729724908125818e-06
feature_17,3.915918973555667e-06
feature_27,2.7899184197661964e-05
feature_20,8.223955343080372e-05
feature_35,0.0001075915447523332
feature_39,0.00010982610343407608
feature_40,0.0001102257909008004
feature_31,0.0001289309699655969
feature_19,0.00022052551670870453
feature_15,0.0003795595571439144
feature_37,0.00040134566760370105
feature_36,0.0004542639427888787
feature_33,0.000616872568858239
feature_29,0.0007307776349735967
feature_32,0.0007599055318546131
feature_30,0.0011590450831991557
feature_26,0.0022940300777433116
feature_28,0.0024524263771148426
feature_25,0.00796953939767323
feature_22,0.008873546396754224
feature_21,0.009559330028661625
feature_2,0.010701046950399636
feature_1,0.011095333667452306
feature_5,0.015337750419950408
feature_24,0.02491004444640707
feature_4,0.025461899795579425
feature_3,0.02838706309438216
feature_23,0.02842559189654579
