feature,mean_importance
feature_28,7.279009750492082e-05
feature_6,7.840510756789293e-05
feature_27,0.00016557083784522335
feature_26,0.00018523913837877257
feature_8,0.00023468229065244094
feature_29,0.00024122700936419703
feature_31,0.00026321460466449085
feature_11,0.0002798623200507739
feature_18,0.00029255317495290137
feature_30,0.0003183024559103579
feature_9,0.0003197316048072673
feature_16,0.00033969950712187737
feature_32,0.00034789061254794954
feature_38,0.00036096545816361977
feature_36,0.0003633808928941957
feature_40,0.00037280051989659405
feature_33,0.00042490742915264856
feature_10,0.00046599447986213696
feature_39,0.0005149673426929763
feature_37,0.000589860810013856
feature_7,0.0006008676806060775
feature_13,0.000601697708992963
feature_12,0.0006361943112785613
feature_25,0.0006381992330719881
feature_17,0.0006480675763986373
feature_19,0.000666311160859023
feature_14,0.0011124880015260814
feature_35,0.001221673517960108
feature_22,0.0015573687611190941
feature_2,0.001897393174003472
feature_1,0.002205065156857314
feature_34,0.0022246932747936278
feature_21,0.0022476795165790983
feature_3,0.002648214443636025
feature_20,0.0026495751244643003
feature_5,0.0030877676211585577
feature_15,0.0031612483603467474
feature_23,0.004393831817813937
feature_24,0.007721858674401229
feature_4,0.01007985870250581
