feature,mean_importance
feature_28,3.122892346311759e-05
feature_40,8.63180571184341e-05
feature_6,0.00011466126424898964
feature_26,0.00013136150338119087
feature_31,0.00015831821812591456
feature_27,0.00017947977410954358
feature_29,0.00018162309978885552
feature_8,0.00018829588027516228
feature_11,0.0002136926139856544
feature_18,0.00022562799204420872
feature_38,0.00026789816696263445
feature_10,0.0002984845565308751
feature_9,0.00030970352240823997
feature_33,0.00032282110612212865
feature_7,0.00032578979606397683
feature_30,0.0003497260044978214
feature_36,0.0003767932302041095
feature_32,0.0004275859872553651
feature_39,0.0004371614718816679
feature_16,0.00045564529422126055
feature_13,0.00047387257619342405
feature_37,0.0005286466039651626
feature_12,0.0005483648709429155
feature_25,0.0005804582404555992
feature_19,0.000699617300720173
feature_17,0.0007846409536917505
feature_35,0.0011524544972772173
feature_14,0.0011853555603723639
feature_34,0.0017390221371608283
feature_22,0.002031312686456908
feature_2,0.002108609667800513
feature_20,0.0021341861290730285
feature_21,0.0021988476160089325
feature_1,0.002286444622296484
feature_5,0.002569734543469444
feature_15,0.0033076571372139207
feature_3,0.003390355765474065
feature_23,0.004833130129206728
feature_24,0.008249244844563415
feature_4,0.009777397737775672
