name,model_type,metric_type,metric_value,train_time
1_Linear,Linear,rmse,0.1826875571382652,10.94
2_Default_RandomForest,Random Forest,rmse,0.17629776005430023,123.56
3_Default_Xgboost,Xgboost,rmse,0.11036442917274336,7806.38
4_Default_LightGBM,LightGBM,rmse,0.09530879095671674,3679.01
5_Default_CatBoost,CatBoost,rmse,0.0951652206111712,738.62
6_Default_NeuralNetwork,Neural Network,rmse,0.060573842125584046,12010.32
7_Xgboost,Xgboost,rmse,0.1587087786958298,1807.59
8_Xgboost,Xgboost,rmse,0.11449716366725012,5823.61
9_Xgboost,Xgboost,rmse,0.12272395922571615,2006.14
10_Xgboost,Xgboost,rmse,0.13002154136737065,2980.27
11_LightGBM,LightGBM,rmse,0.10528722673358355,8965.32
12_LightGBM,LightGBM,rmse,0.0950385884228092,1312.72
13_LightGBM,LightGBM,rmse,0.09674561568648507,525.92
14_LightGBM,LightGBM,rmse,0.0919319081478223,4350.84
15_CatBoost,CatBoost,rmse,0.14099218595548133,569.55
16_CatBoost,CatBoost,rmse,0.10188782476955914,369.41
17_CatBoost,CatBoost,rmse,0.09724058749914981,373.77
18_CatBoost,CatBoost,rmse,0.1223476947635794,687.86
19_RandomForest,Random Forest,rmse,0.17616591580776014,92.09
20_RandomForest,Random Forest,rmse,0.1789525726842636,79.98
21_RandomForest,Random Forest,rmse,0.17002820788359496,174.11
22_RandomForest,Random Forest,rmse,0.1690825863920525,138.66
23_NeuralNetwork,Neural Network,rmse,0.09487857004131593,8930.73
24_NeuralNetwork,Neural Network,rmse,0.08350997866866791,14492.31
25_NeuralNetwork,Neural Network,rmse,0.056629165870545214,11657.05
26_NeuralNetwork,Neural Network,rmse,0.060859564874039235,13082.8
5_Default_CatBoost_GoldenFeatures,CatBoost,rmse,0.05455905245215439,211.64
14_LightGBM_GoldenFeatures,LightGBM,rmse,0.05231233456887159,261.13
3_Default_Xgboost_GoldenFeatures,Xgboost,rmse,0.06355251211116658,292.07
14_LightGBM_GoldenFeatures_RandomFeature,LightGBM,rmse,0.0523322112510436,228.61
5_Default_CatBoost_GoldenFeatures_SelectedFeatures,CatBoost,rmse,0.054633051430500804,185.06
14_LightGBM_GoldenFeatures_SelectedFeatures,LightGBM,rmse,0.05195173596307039,290.8
25_NeuralNetwork_SelectedFeatures,Neural Network,rmse,0.05667335154383137,10008.23
22_RandomForest_SelectedFeatures,Random Forest,rmse,0.16893402001209934,79.63
3_Default_Xgboost_GoldenFeatures_SelectedFeatures,Xgboost,rmse,0.0627980391585191,329.94
27_CatBoost_GoldenFeatures,CatBoost,rmse,0.054731763587133005,191.99
28_CatBoost_GoldenFeatures,CatBoost,rmse,0.0546202144542906,186.15
29_CatBoost_GoldenFeatures_SelectedFeatures,CatBoost,rmse,0.05411672033993737,217.27
30_CatBoost_GoldenFeatures_SelectedFeatures,CatBoost,rmse,0.05456093989752545,155.3
31_LightGBM_GoldenFeatures_SelectedFeatures,LightGBM,rmse,0.05298506751815205,372.17
32_LightGBM_GoldenFeatures,LightGBM,rmse,0.053322413727135295,384.99
33_NeuralNetwork,Neural Network,rmse,0.055972959507932525,13179.68
34_NeuralNetwork_SelectedFeatures,Neural Network,rmse,0.05693853557143193,11131.7
35_RandomForest_SelectedFeatures,Random Forest,rmse,0.16837211791730422,81.97
36_RandomForest,Random Forest,rmse,0.16890199739569484,138.19
37_Xgboost_GoldenFeatures_SelectedFeatures,Xgboost,rmse,0.06358724156466918,331.87
38_Xgboost_GoldenFeatures_SelectedFeatures,Xgboost,rmse,0.06270639955215475,236.86
39_Xgboost_GoldenFeatures,Xgboost,rmse,0.06330804577680343,504.63
40_Xgboost_GoldenFeatures,Xgboost,rmse,0.0629381869015904,257.63
41_CatBoost_GoldenFeatures_SelectedFeatures,CatBoost,rmse,0.05411672033993737,220.35
42_CatBoost_GoldenFeatures,CatBoost,rmse,0.05455905245215439,204.13
43_LightGBM_GoldenFeatures_SelectedFeatures,LightGBM,rmse,0.052160429757454746,200.78
44_LightGBM_GoldenFeatures,LightGBM,rmse,0.05232238009494199,187.51
45_NeuralNetwork,Neural Network,rmse,0.05579799573061911,10397.43
46_NeuralNetwork,Neural Network,rmse,0.05579675744976735,13398.53
47_RandomForest_SelectedFeatures,Random Forest,rmse,0.1721828143013681,71.62
48_RandomForest_SelectedFeatures,Random Forest,rmse,0.16370624103696196,90.69
49_RandomForest,Random Forest,rmse,0.1724079227832159,132.8
50_RandomForest,Random Forest,rmse,0.16539979708170283,147.6
51_Xgboost_GoldenFeatures_SelectedFeatures,Xgboost,rmse,0.06785641805137019,324.27
52_Xgboost_GoldenFeatures_SelectedFeatures,Xgboost,rmse,0.06825527484998654,377.15
Ensemble,Ensemble,rmse,0.04941296808341905,13.91
