feature,mean_importance
feature_36,-2.9709703828609268e-06
feature_27,-2.817591859070878e-07
feature_18,5.201439311697947e-06
feature_28,6.778654413363422e-06
feature_38,8.686356839762016e-06
feature_7,9.695550547081378e-06
feature_29,1.3876776360149251e-05
feature_11,1.7285830886728386e-05
feature_6,1.9014219622601885e-05
feature_37,2.2591447237420293e-05
feature_30,2.3463158142767587e-05
feature_16,2.4405413248694553e-05
feature_10,2.5850918187204225e-05
feature_26,4.2540054649823494e-05
feature_40,5.039048654785772e-05
feature_12,5.3255563058678124e-05
feature_22,5.6240172201382775e-05
feature_33,6.340996594261169e-05
feature_2,6.784386047729643e-05
feature_17,9.102827377029041e-05
feature_3,0.00010717597273891683
feature_1,0.0001356607608393727
feature_31,0.00014212321596563383
feature_23,0.00015086804429011793
feature_21,0.00016034791209743952
feature_39,0.0001766803718576411
feature_25,0.00036107161686314767
feature_34,0.0004886377715621143
feature_19,0.0005253104248816705
feature_35,0.0006979220887107458
feature_20,0.0010477124921557065
feature_14,0.001129154266091671
feature_15,0.001237082525771497
feature_24,0.0016128149005767054
feature_5,0.0017103158119634748
feature_4,0.0024762133038191076
