feature,mean_importance
feature_6,1.5677857580194758e-07
feature_7,2.452576082094277e-06
feature_9,5.039512851330672e-06
feature_34,6.92257465662047e-06
feature_11,9.569756933388348e-06
feature_27,1.1052542759840827e-05
feature_13,1.4818054331730991e-05
feature_18,1.5594552944432714e-05
feature_12,2.3552653154748292e-05
feature_38,2.78164299296336e-05
feature_30,2.7980313212775614e-05
feature_32,3.0017967749348343e-05
feature_16,3.995012514049368e-05
feature_29,4.760615837830617e-05
feature_33,5.136749947876901e-05
feature_1,6.271553704815594e-05
feature_28,6.33030506684471e-05
feature_20,6.879736302668506e-05
feature_36,7.910254786410469e-05
feature_8,8.312575367168283e-05
feature_10,8.521504687332939e-05
feature_26,8.528934160300286e-05
feature_14,9.374919041907687e-05
feature_2,0.00010485153230328416
feature_17,0.00011129701239625629
feature_37,0.00011134804768678499
feature_40,0.00011767295071146902
feature_19,0.00015509628203017885
feature_31,0.0001701504256119037
feature_24,0.0002821719115617972
feature_39,0.00033012779473465807
feature_22,0.00033874880988849697
feature_3,0.0004238221327484642
feature_15,0.00044392711251457686
feature_21,0.00046852998656949166
feature_25,0.0005519271906062672
feature_23,0.0006022292556501332
feature_35,0.000668126993210431
feature_4,0.0007679451586958764
feature_5,0.0036902364244891044
feature_23_ratio_feature_3,0.0044573827849183085
feature_3_diff_feature_23,0.006022832471914848
feature_4_ratio_feature_24,0.006900438298043819
feature_24_ratio_feature_4,0.007180055648885861
feature_3_ratio_feature_23,0.008054488812418393
