{
    "uid": "f38bf64d-1259-4e89-84c2-6727f494854a",
    "name": "14_LightGBM_GoldenFeatures_RandomFeature",
    "preprocessing": [
        {
            "golden_features": {
                "new_features": "[\n    {\n        \"feature1\": \"feature_3\",\n        \"feature2\": \"feature_23\",\n        \"operation\": \"diff\",\n        \"score\": 0.0159778849\n    },\n    {\n        \"feature1\": \"feature_23\",\n        \"feature2\": \"feature_3\",\n        \"operation\": \"ratio\",\n        \"score\": 0.0186639946\n    },\n    {\n        \"feature1\": \"feature_3\",\n        \"feature2\": \"feature_23\",\n        \"operation\": \"ratio\",\n        \"score\": 0.0194264168\n    },\n    {\n        \"feature1\": \"feature_4\",\n        \"feature2\": \"feature_24\",\n        \"operation\": \"ratio\",\n        \"score\": 0.024266114\n    },\n    {\n        \"feature1\": \"feature_24\",\n        \"feature2\": \"feature_4\",\n        \"operation\": \"ratio\",\n        \"score\": 0.024266114\n    }\n]",
                "new_columns": "[\n    \"feature_3_diff_feature_23\",\n    \"feature_23_ratio_feature_3\",\n    \"feature_3_ratio_feature_23\",\n    \"feature_4_ratio_feature_24\",\n    \"feature_24_ratio_feature_4\"\n]",
                "result_file": "AutoML_8/golden_features.json",
                "ml_task": "regression"
            },
            "ml_task": "regression",
            "add_random_feature": true,
            "params": {
                "columns_preprocessing": {},
                "target_preprocessing": [
                    "na_exclude"
                ],
                "ml_task": "regression",
                "golden_features": {
                    "results_path": "AutoML_8",
                    "ml_task": "regression"
                },
                "add_random_feature": true
            }
        },
        {
            "golden_features": {
                "new_features": "[\n    {\n        \"feature1\": \"feature_3\",\n        \"feature2\": \"feature_23\",\n        \"operation\": \"diff\",\n        \"score\": 0.0159778849\n    },\n    {\n        \"feature1\": \"feature_23\",\n        \"feature2\": \"feature_3\",\n        \"operation\": \"ratio\",\n        \"score\": 0.0186639946\n    },\n    {\n        \"feature1\": \"feature_3\",\n        \"feature2\": \"feature_23\",\n        \"operation\": \"ratio\",\n        \"score\": 0.0194264168\n    },\n    {\n        \"feature1\": \"feature_4\",\n        \"feature2\": \"feature_24\",\n        \"operation\": \"ratio\",\n        \"score\": 0.024266114\n    },\n    {\n        \"feature1\": \"feature_24\",\n        \"feature2\": \"feature_4\",\n        \"operation\": \"ratio\",\n        \"score\": 0.024266114\n    }\n]",
                "new_columns": "[\n    \"feature_3_diff_feature_23\",\n    \"feature_23_ratio_feature_3\",\n    \"feature_3_ratio_feature_23\",\n    \"feature_4_ratio_feature_24\",\n    \"feature_24_ratio_feature_4\"\n]",
                "result_file": "AutoML_8/golden_features.json",
                "ml_task": "regression"
            },
            "ml_task": "regression",
            "add_random_feature": true,
            "params": {
                "columns_preprocessing": {},
                "target_preprocessing": [
                    "na_exclude"
                ],
                "ml_task": "regression",
                "golden_features": {
                    "results_path": "AutoML_8",
                    "ml_task": "regression"
                },
                "add_random_feature": true
            }
        },
        {
            "golden_features": {
                "new_features": "[\n    {\n        \"feature1\": \"feature_3\",\n        \"feature2\": \"feature_23\",\n        \"operation\": \"diff\",\n        \"score\": 0.0159778849\n    },\n    {\n        \"feature1\": \"feature_23\",\n        \"feature2\": \"feature_3\",\n        \"operation\": \"ratio\",\n        \"score\": 0.0186639946\n    },\n    {\n        \"feature1\": \"feature_3\",\n        \"feature2\": \"feature_23\",\n        \"operation\": \"ratio\",\n        \"score\": 0.0194264168\n    },\n    {\n        \"feature1\": \"feature_4\",\n        \"feature2\": \"feature_24\",\n        \"operation\": \"ratio\",\n        \"score\": 0.024266114\n    },\n    {\n        \"feature1\": \"feature_24\",\n        \"feature2\": \"feature_4\",\n        \"operation\": \"ratio\",\n        \"score\": 0.024266114\n    }\n]",
                "new_columns": "[\n    \"feature_3_diff_feature_23\",\n    \"feature_23_ratio_feature_3\",\n    \"feature_3_ratio_feature_23\",\n    \"feature_4_ratio_feature_24\",\n    \"feature_24_ratio_feature_4\"\n]",
                "result_file": "AutoML_8/golden_features.json",
                "ml_task": "regression"
            },
            "ml_task": "regression",
            "add_random_feature": true,
            "params": {
                "columns_preprocessing": {},
                "target_preprocessing": [
                    "na_exclude"
                ],
                "ml_task": "regression",
                "golden_features": {
                    "results_path": "AutoML_8",
                    "ml_task": "regression"
                },
                "add_random_feature": true
            }
        },
        {
            "golden_features": {
                "new_features": "[\n    {\n        \"feature1\": \"feature_3\",\n        \"feature2\": \"feature_23\",\n        \"operation\": \"diff\",\n        \"score\": 0.0159778849\n    },\n    {\n        \"feature1\": \"feature_23\",\n        \"feature2\": \"feature_3\",\n        \"operation\": \"ratio\",\n        \"score\": 0.0186639946\n    },\n    {\n        \"feature1\": \"feature_3\",\n        \"feature2\": \"feature_23\",\n        \"operation\": \"ratio\",\n        \"score\": 0.0194264168\n    },\n    {\n        \"feature1\": \"feature_4\",\n        \"feature2\": \"feature_24\",\n        \"operation\": \"ratio\",\n        \"score\": 0.024266114\n    },\n    {\n        \"feature1\": \"feature_24\",\n        \"feature2\": \"feature_4\",\n        \"operation\": \"ratio\",\n        \"score\": 0.024266114\n    }\n]",
                "new_columns": "[\n    \"feature_3_diff_feature_23\",\n    \"feature_23_ratio_feature_3\",\n    \"feature_3_ratio_feature_23\",\n    \"feature_4_ratio_feature_24\",\n    \"feature_24_ratio_feature_4\"\n]",
                "result_file": "AutoML_8/golden_features.json",
                "ml_task": "regression"
            },
            "ml_task": "regression",
            "add_random_feature": true,
            "params": {
                "columns_preprocessing": {},
                "target_preprocessing": [
                    "na_exclude"
                ],
                "ml_task": "regression",
                "golden_features": {
                    "results_path": "AutoML_8",
                    "ml_task": "regression"
                },
                "add_random_feature": true
            }
        },
        {
            "golden_features": {
                "new_features": "[\n    {\n        \"feature1\": \"feature_3\",\n        \"feature2\": \"feature_23\",\n        \"operation\": \"diff\",\n        \"score\": 0.0159778849\n    },\n    {\n        \"feature1\": \"feature_23\",\n        \"feature2\": \"feature_3\",\n        \"operation\": \"ratio\",\n        \"score\": 0.0186639946\n    },\n    {\n        \"feature1\": \"feature_3\",\n        \"feature2\": \"feature_23\",\n        \"operation\": \"ratio\",\n        \"score\": 0.0194264168\n    },\n    {\n        \"feature1\": \"feature_4\",\n        \"feature2\": \"feature_24\",\n        \"operation\": \"ratio\",\n        \"score\": 0.024266114\n    },\n    {\n        \"feature1\": \"feature_24\",\n        \"feature2\": \"feature_4\",\n        \"operation\": \"ratio\",\n        \"score\": 0.024266114\n    }\n]",
                "new_columns": "[\n    \"feature_3_diff_feature_23\",\n    \"feature_23_ratio_feature_3\",\n    \"feature_3_ratio_feature_23\",\n    \"feature_4_ratio_feature_24\",\n    \"feature_24_ratio_feature_4\"\n]",
                "result_file": "AutoML_8/golden_features.json",
                "ml_task": "regression"
            },
            "ml_task": "regression",
            "add_random_feature": true,
            "params": {
                "columns_preprocessing": {},
                "target_preprocessing": [
                    "na_exclude"
                ],
                "ml_task": "regression",
                "golden_features": {
                    "results_path": "AutoML_8",
                    "ml_task": "regression"
                },
                "add_random_feature": true
            }
        }
    ],
    "learners": [
        {
            "library_version": "3.0.0",
            "algorithm_name": "LightGBM",
            "algorithm_short_name": "LightGBM",
            "uid": "ed97baeb-5a50-4a9a-a2b5-ccbe44a093fa",
            "params": {
                "model_type": "LightGBM",
                "ml_task": "regression",
                "seed": 1238,
                "objective": "regression",
                "metric": "l2",
                "num_leaves": 31,
                "learning_rate": 0.05,
                "feature_fraction": 0.9,
                "bagging_fraction": 1.0,
                "min_data_in_leaf": 20,
                "explain_level": 1
            }
        },
        {
            "library_version": "3.0.0",
            "algorithm_name": "LightGBM",
            "algorithm_short_name": "LightGBM",
            "uid": "31511543-4868-443e-9a81-035905bfeec4",
            "params": {
                "model_type": "LightGBM",
                "ml_task": "regression",
                "seed": 1238,
                "objective": "regression",
                "metric": "l2",
                "num_leaves": 31,
                "learning_rate": 0.05,
                "feature_fraction": 0.9,
                "bagging_fraction": 1.0,
                "min_data_in_leaf": 20,
                "explain_level": 1
            }
        },
        {
            "library_version": "3.0.0",
            "algorithm_name": "LightGBM",
            "algorithm_short_name": "LightGBM",
            "uid": "5ea89040-4f86-4d8d-ade0-f99a669a3c0c",
            "params": {
                "model_type": "LightGBM",
                "ml_task": "regression",
                "seed": 1238,
                "objective": "regression",
                "metric": "l2",
                "num_leaves": 31,
                "learning_rate": 0.05,
                "feature_fraction": 0.9,
                "bagging_fraction": 1.0,
                "min_data_in_leaf": 20,
                "explain_level": 1
            }
        },
        {
            "library_version": "3.0.0",
            "algorithm_name": "LightGBM",
            "algorithm_short_name": "LightGBM",
            "uid": "27220374-75c5-4c43-8795-2b34695cb845",
            "params": {
                "model_type": "LightGBM",
                "ml_task": "regression",
                "seed": 1238,
                "objective": "regression",
                "metric": "l2",
                "num_leaves": 31,
                "learning_rate": 0.05,
                "feature_fraction": 0.9,
                "bagging_fraction": 1.0,
                "min_data_in_leaf": 20,
                "explain_level": 1
            }
        },
        {
            "library_version": "3.0.0",
            "algorithm_name": "LightGBM",
            "algorithm_short_name": "LightGBM",
            "uid": "c8a4f9b5-d7a4-4f31-a9eb-f204f1433c10",
            "params": {
                "model_type": "LightGBM",
                "ml_task": "regression",
                "seed": 1238,
                "objective": "regression",
                "metric": "l2",
                "num_leaves": 31,
                "learning_rate": 0.05,
                "feature_fraction": 0.9,
                "bagging_fraction": 1.0,
                "min_data_in_leaf": 20,
                "explain_level": 1
            }
        }
    ],
    "params": {
        "additional": {
            "max_rounds": 10000,
            "early_stopping_rounds": 50,
            "max_rows_limit": null,
            "max_cols_limit": null
        },
        "preprocessing": {
            "columns_preprocessing": {},
            "target_preprocessing": [
                "na_exclude"
            ],
            "ml_task": "regression",
            "golden_features": {
                "results_path": "AutoML_8",
                "ml_task": "regression"
            },
            "add_random_feature": true
        },
        "validation_strategy": {
            "validation_type": "kfold",
            "k_folds": 5,
            "shuffle": true,
            "X_path": "AutoML_8/X.parquet",
            "y_path": "AutoML_8/y.parquet",
            "results_path": "AutoML_8"
        },
        "learner": {
            "model_type": "LightGBM",
            "ml_task": "regression",
            "seed": 1238,
            "objective": "regression",
            "metric": "l2",
            "num_leaves": 31,
            "learning_rate": 0.05,
            "feature_fraction": 0.9,
            "bagging_fraction": 1.0,
            "min_data_in_leaf": 20,
            "explain_level": 1
        },
        "ml_task": "regression",
        "explain_level": 1,
        "name": "14_LightGBM_GoldenFeatures_RandomFeature",
        "status": "initialized",
        "final_loss": null,
        "train_time": null
    },
    "saved": [
        "AutoML_8/14_LightGBM_GoldenFeatures_RandomFeature/learner_1.lightgbm",
        "AutoML_8/14_LightGBM_GoldenFeatures_RandomFeature/learner_2.lightgbm",
        "AutoML_8/14_LightGBM_GoldenFeatures_RandomFeature/learner_3.lightgbm",
        "AutoML_8/14_LightGBM_GoldenFeatures_RandomFeature/learner_4.lightgbm",
        "AutoML_8/14_LightGBM_GoldenFeatures_RandomFeature/learner_5.lightgbm"
    ],
    "predictions_fname": "AutoML_8/14_LightGBM_GoldenFeatures_RandomFeature/predictions_out_of_folds.csv",
    "metric_name": "rmse",
    "final_loss": 0.0523322112510436,
    "train_time": 227.6136178970337,
    "is_stacked": false
}