feature,mean_importance
feature_27,-6.996756413908331e-06
feature_7,-4.138817645532676e-06
feature_8,-2.959597159648414e-06
random_feature,-1.7615559486144384e-06
feature_13,-1.1695230947657634e-06
feature_34,3.9916799553386255e-07
feature_32,4.586165997799707e-07
feature_9,5.220456315937518e-07
feature_11,2.38857802244731e-06
feature_30,3.4220086869748112e-06
feature_10,5.002385099632175e-06
feature_6,6.199967216791255e-06
feature_38,8.799458489937556e-06
feature_29,8.808658646015933e-06
feature_3,1.018450094489318e-05
feature_33,1.5447097181173556e-05
feature_36,1.591857853961917e-05
feature_12,1.6783485259303475e-05
feature_2,1.711784194165407e-05
feature_16,2.267578163550263e-05
feature_1,3.3719191053377654e-05
feature_28,4.3451054184275374e-05
feature_20,5.7261798594618934e-05
feature_18,7.500960228071186e-05
feature_17,8.026301771990067e-05
feature_37,8.48084072853513e-05
feature_26,9.404104692677237e-05
feature_14,0.00011062126145538085
feature_39,0.00016559360931952234
feature_23,0.0001661675792185925
feature_15,0.00020161149926047495
feature_40,0.00021303409166843287
feature_22,0.0002441890968863861
feature_24,0.00026316726446941823
feature_21,0.0003238941973198881
feature_31,0.00037684230432623815
feature_25,0.00043211166672990354
feature_19,0.0005410091239956713
feature_3_ratio_feature_23,0.0006019573326824786
feature_35,0.000709067602268489
feature_4,0.0007441183006284775
feature_5,0.006287983559709172
feature_24_ratio_feature_4,0.006972505394923013
feature_23_ratio_feature_3,0.00849370786453994
feature_3_diff_feature_23,0.010628946272891359
feature_4_ratio_feature_24,0.012187022459481254
