feature,mean_importance
feature_31,-6.742978435356762e-05
feature_38,2.461881317002146e-06
feature_18,1.9722646968023393e-05
feature_6,2.473275002238262e-05
feature_26,7.095468652708742e-05
feature_36,9.076650257389892e-05
feature_40,0.0001490488133821445
feature_37,0.00015153304183295745
feature_2,0.00015841786347152304
feature_17,0.00016654253435989806
feature_16,0.00016677298235717036
feature_29,0.00020385431620807622
feature_23,0.00021270374894306123
feature_39,0.0002258507168561512
feature_35,0.0002676159186785376
feature_13,0.0003051754638711761
feature_15,0.0003838049619852929
feature_32,0.00048070512992821337
feature_25,0.0005731589597969114
feature_19,0.0005804753390243548
feature_34,0.0006205424486334544
feature_12,0.0008297766965497048
feature_20,0.0011283893400989432
feature_14,0.0014018769234801927
feature_24,0.0014309064009300355
feature_5,0.0018458829180115488
feature_4,0.0028152626460207697
