feature,mean_importance
feature_31,-4.815182578806407e-05
feature_38,-2.2385807263260172e-05
feature_28,-2.1799756477966503e-05
feature_18,-1.7037265478343776e-05
feature_8,-7.725333697579383e-06
feature_26,-4.567990178094144e-06
feature_40,-4.483513385120097e-06
feature_37,-1.1520767998762783e-07
feature_11,1.1757463653516015e-05
feature_27,1.2128552053359415e-05
feature_6,1.2381406001734513e-05
feature_9,1.9961665242918675e-05
feature_29,2.0478389269369678e-05
feature_7,2.126039838070623e-05
feature_36,2.283147630499291e-05
feature_17,2.3963184309632597e-05
feature_10,2.8502000419390606e-05
feature_32,3.891773416536681e-05
feature_16,4.251262750107065e-05
feature_30,5.507701617255764e-05
feature_33,8.02105587651654e-05
feature_13,9.33895699248101e-05
feature_3,0.0001052341095181493
feature_1,0.0001085857283492489
feature_21,0.0001568298598624264
feature_23,0.00017046148152822168
feature_12,0.0001716221519438059
feature_19,0.00018120935620440163
feature_39,0.00019854635557438745
feature_25,0.00021867205083276955
feature_35,0.00022270804951354597
feature_2,0.00026562139105880747
feature_22,0.00030964348316162433
feature_15,0.0006088667666363047
feature_34,0.0008042654419556393
feature_20,0.0009140997037539282
feature_14,0.001485223752313474
feature_24,0.002018551606551803
feature_5,0.0025031521404686808
feature_4,0.0031682913555573363
