feature,mean_importance
feature_31,-4.762398166757581e-05
feature_38,-3.41394815787599e-05
feature_7,-2.767919357873072e-05
feature_10,-2.178184324015536e-05
feature_26,-1.6407986377783845e-05
feature_40,-1.545057316495596e-05
feature_37,-1.49267198323505e-05
feature_9,-1.2913016355095563e-05
feature_30,-3.6519235625365186e-06
feature_18,1.8468749411887365e-07
feature_29,9.08504561137613e-06
feature_36,9.442242573223791e-06
feature_32,1.5752446380241924e-05
feature_11,1.6443747852278034e-05
feature_6,2.0988281286279943e-05
feature_17,2.2234251357054756e-05
feature_8,2.3700509252622128e-05
feature_28,2.806917037592449e-05
feature_27,2.8558780824493313e-05
feature_16,3.13701508874803e-05
feature_1,8.800373828459357e-05
feature_13,9.405048516959724e-05
feature_33,0.00010365664101662369
feature_12,0.0001218155655953096
feature_21,0.00016066388163398643
feature_22,0.00020607311041951764
feature_2,0.00023412975569831878
feature_3,0.00025436957417527135
feature_23,0.00028352466099433317
feature_39,0.00028438905524762745
feature_19,0.0003254321410270558
feature_35,0.0003324683328079739
feature_25,0.0003636068538034998
feature_34,0.0004996606228706679
feature_15,0.0006126634563946715
feature_20,0.0009383017170779537
feature_14,0.0015916612055570073
feature_24,0.0019303050777010153
feature_5,0.002645623087439125
feature_4,0.0032304056433950417
