feature,mean_importance
feature_3_ratio_feature_23,0.0
feature_7,2.1368194265966936e-05
feature_10,2.898082505317038e-05
feature_34,4.3818918806970245e-05
feature_30,5.1447672828876764e-05
feature_27,5.265649781869518e-05
feature_6,5.402447278429825e-05
feature_11,6.955789047857191e-05
feature_12,8.603441906098811e-05
feature_16,0.00010281619622980309
feature_14,0.00010408116231097626
feature_17,0.00012461229294915416
feature_18,0.0001296004265676774
feature_36,0.00013127491014791379
feature_1,0.0001559553637385372
feature_28,0.00017282277362144633
feature_37,0.00021470973820978504
feature_38,0.00022352748967611105
feature_40,0.00025507116208797737
feature_33,0.00028654629145981184
feature_29,0.000320460970748848
feature_2,0.0003734211249398878
feature_15,0.00039271100186724433
feature_22,0.0003977496484565758
feature_20,0.00041720137201473083
feature_21,0.0004176610297134323
feature_26,0.0005085515543246348
feature_39,0.0005198392743867927
feature_31,0.0005764039004412469
feature_25,0.0007803707619849146
feature_35,0.0008102292441434745
feature_19,0.0008420886149018173
feature_24,0.0009440098961442007
feature_3,0.001208315304488142
feature_5,0.002122953321364103
feature_23,0.0024632597462187805
feature_4,0.005905071047393915
feature_24_ratio_feature_4,0.00605255304502199
feature_4_ratio_feature_24,0.010784857659416783
feature_23_ratio_feature_3,0.01123772615586945
feature_3_diff_feature_23,0.01921926365636842
