feature,mean_importance
feature_7,-1.3587802323242367e-06
feature_30,1.6783579984136487e-07
feature_38,9.799781450913967e-07
feature_10,3.5794885298004626e-06
feature_34,6.326142558971213e-06
feature_11,6.758802371265461e-06
feature_12,6.9345293938699076e-06
feature_6,7.096457683735715e-06
feature_27,9.23658960600383e-06
feature_29,9.496992306160401e-06
feature_18,1.5570378898645266e-05
feature_2,1.7425416447734624e-05
feature_1,2.0348852727239408e-05
feature_3,2.6179916487194774e-05
feature_33,2.626049052068778e-05
feature_36,3.096145271472822e-05
feature_16,3.465224090325233e-05
feature_14,5.4549256832173675e-05
feature_20,6.454655351189488e-05
feature_23,8.282041096623433e-05
feature_28,9.346764579658334e-05
feature_37,9.942641972520124e-05
feature_26,0.00010332976521294085
feature_39,0.00010411116792722981
feature_19,0.00011926655685483445
feature_17,0.00012932015762868047
feature_3_ratio_feature_23,0.00013346057303643323
feature_24,0.00017277971256174674
feature_40,0.00017574984655918183
feature_22,0.00023494590675679754
feature_15,0.00023736919713055428
feature_31,0.00024376471622520384
feature_21,0.0002521882831011321
feature_25,0.0003221966064846941
feature_4,0.0008238450106837862
feature_35,0.0008239742943016503
feature_4_ratio_feature_24,0.005275582840728173
feature_23_ratio_feature_3,0.006744541970217252
feature_5,0.008689442664195104
feature_24_ratio_feature_4,0.010835229805844905
feature_3_diff_feature_23,0.012602504660053604
