feature,mean_importance
feature_12,-1.3785521370008463e-07
feature_14,-1.0844595051207397e-07
feature_10,-4.579675705876016e-08
feature_38,-2.1784048964256646e-08
feature_7,9.436355270092677e-10
feature_6,2.8563905445783134e-09
feature_11,7.296450910739688e-09
feature_34,3.774895611799792e-08
feature_16,7.926903266841645e-08
feature_18,2.1167490743007749e-07
feature_17,3.0558248458800384e-07
feature_27,4.801016121651772e-05
feature_39,5.2497668714663554e-05
feature_40,7.810685462509232e-05
feature_20,8.582518529772999e-05
feature_35,8.783375815161008e-05
feature_31,0.0001533346884259058
feature_15,0.00021526657922215148
feature_19,0.00032900151401316893
feature_37,0.000331114855716823
feature_36,0.0003762392263824244
feature_33,0.0006326306019782517
feature_30,0.0008037354696627322
feature_29,0.0018430827453915673
feature_28,0.0025289675526605085
feature_26,0.0035426206209325994
feature_21,0.0040474182368027255
feature_22,0.007124894727339038
feature_1,0.00794818644779651
feature_25,0.008429753610596613
feature_2,0.014138808266623958
feature_5,0.015620908713779719
feature_24,0.0238222980329465
feature_4,0.02471741106894701
feature_3,0.02942795040081888
feature_23,0.030111864543423017
