feature,mean_importance
feature_7,-8.913496226821069e-06
feature_6,-1.415740359928669e-06
feature_34,-9.713566517357066e-08
feature_18,8.155444968595098e-07
feature_29,3.538888377216734e-06
feature_27,5.254317332753847e-06
feature_30,5.975524289313083e-06
feature_12,7.572983403563663e-06
feature_10,7.637221949339124e-06
feature_28,8.568961687130307e-06
feature_33,1.3975067177239738e-05
feature_11,1.4229870006063003e-05
feature_38,2.055462832012628e-05
feature_3,2.219819728561407e-05
feature_2,3.5011436985806204e-05
feature_1,3.600446706116421e-05
feature_14,3.734387353052683e-05
feature_37,4.555612778454378e-05
feature_36,6.311817658150266e-05
feature_23,7.155491236073554e-05
feature_20,7.306919701907163e-05
feature_17,9.26907225493637e-05
feature_26,9.527012340353747e-05
feature_3_ratio_feature_23,0.00010210291893924537
feature_16,0.00011602358874864463
feature_19,0.00013540049964512607
feature_21,0.00014713322572854583
feature_15,0.00015723197527799478
feature_39,0.00015793329551601836
feature_31,0.00016704642280859468
feature_24,0.00018699856544125365
feature_22,0.0002182999145620224
feature_40,0.0002560213270468434
feature_25,0.0004209936798382643
feature_35,0.0005928915433160867
feature_4,0.0006454909358811941
feature_24_ratio_feature_4,0.0065429562101185865
feature_4_ratio_feature_24,0.007312501147942287
feature_5,0.007596288536806758
feature_3_diff_feature_23,0.011587164552462028
feature_23_ratio_feature_3,0.01200243958565592
