feature,mean_importance
feature_28,6.33560505475913e-05
feature_6,0.00014213688608750893
feature_26,0.00014330557314936704
feature_8,0.00018405916319300838
feature_29,0.0001873054773018974
feature_31,0.00019954647480227848
feature_40,0.00020641716015709112
feature_11,0.0002108426159963088
feature_18,0.00021405751760427658
feature_27,0.0002157384995882694
feature_10,0.0002497776303632206
feature_9,0.00025687644484065976
feature_38,0.0002648872168336307
feature_33,0.0002736208405853896
feature_32,0.0002834157290890059
feature_7,0.0002839923809907375
feature_30,0.00036191789778833723
feature_12,0.00045812624833881517
feature_13,0.0004587016001840017
feature_36,0.0004934540221271086
feature_16,0.0005305846470207542
feature_19,0.0005543902960882384
feature_39,0.0005630145551608838
feature_25,0.0006593376797261605
feature_37,0.0008431865904074968
feature_35,0.0009517293947587421
feature_17,0.0009610115699457435
feature_14,0.0012844170685663108
feature_21,0.0015168478576005119
feature_1,0.0018063461063749671
feature_34,0.0021459998288288914
feature_2,0.00232377441866878
feature_22,0.002360861194736399
feature_3,0.0027995823579851317
feature_20,0.0028894059544268755
feature_5,0.003123640324545704
feature_15,0.0032541197447238926
feature_23,0.004496638576199372
feature_24,0.008919371260629621
feature_4,0.011374810786725706
