feature,mean_importance
feature_38,-4.369129124362978e-05
feature_18,-1.8124101630928592e-05
feature_16,1.5654649702427637e-06
feature_37,1.2835533202064375e-05
feature_31,1.5179290428880138e-05
feature_36,1.526955191255633e-05
feature_40,2.6021705671021993e-05
feature_26,2.8500872077632382e-05
feature_6,3.7116357810740294e-05
feature_2,5.2626630490528595e-05
feature_29,8.078932649230597e-05
feature_17,9.553533912868492e-05
feature_39,0.0001584464045321546
feature_19,0.00023098035413028766
feature_25,0.0002605900238768763
feature_35,0.0002961597969839538
feature_23,0.00029784707429450426
feature_32,0.0003003442721036073
feature_13,0.00031868946428035075
feature_12,0.0003950332846965339
feature_34,0.000849260564645176
feature_15,0.0008998986387139272
feature_20,0.0009889612726317449
feature_14,0.001400959158982417
feature_24,0.0023281162850427037
feature_5,0.0027721581575690427
feature_4,0.0032950059994865007
