feature,mean_importance
feature_27,-2.373987220775503e-05
feature_34,-2.250257376825524e-05
feature_30,-7.996309492571893e-06
feature_7,-4.96069132308926e-06
feature_12,-4.491719489214778e-06
feature_9,4.077896969106529e-06
feature_26,8.457548691070266e-06
feature_2,9.519630208157556e-06
feature_11,1.0874195179800227e-05
feature_29,1.1003590758860462e-05
feature_10,1.103076536842374e-05
feature_22,1.1361866344499795e-05
feature_21,1.2210104209723141e-05
feature_20,1.3121148256130254e-05
feature_38,1.3295985415110248e-05
feature_3,1.331992615715115e-05
feature_1,1.37414317961021e-05
feature_8,1.381741501205718e-05
feature_28,1.433970149830842e-05
feature_32,1.519060902115503e-05
feature_23,2.263844197554765e-05
feature_40,2.2888747784844017e-05
feature_13,2.2964848143566635e-05
feature_6,2.4948885637536207e-05
feature_33,2.885509807584539e-05
feature_18,3.210618102373903e-05
feature_31,3.4236765509643165e-05
feature_37,3.494524175926151e-05
feature_15,8.544959958939647e-05
feature_39,9.38785976116947e-05
feature_17,0.00011543791658408191
feature_36,0.0001219405311054746
feature_25,0.0001356037453429519
feature_14,0.00015471749660942168
feature_16,0.0002231474398109931
feature_24,0.00023288170141497736
feature_35,0.00025443245679418713
feature_19,0.0002603454109907515
feature_5,0.0005878710150163724
feature_4,0.0007527042628261285
feature_24_ratio_feature_4,0.004334682171092368
feature_23_ratio_feature_3,0.005127051850866107
feature_3_ratio_feature_23,0.0061490576356803455
feature_4_ratio_feature_24,0.006748942000249251
feature_3_diff_feature_23,0.010413450289544978
