0,0.18494315993327207,0.17412514992145756
1,0.1834344317123315,0.17280672204490727
2,0.18267151542456,0.17214337454631007
3,0.18112140297310828,0.17076466093490075
4,0.17992756885021105,0.16954656434666918
5,0.17906769436668518,0.16895818358534972
6,0.17824938005725843,0.16820501604732968
7,0.17784816994891334,0.16785371249421532
8,0.17747377921300522,0.16783825186454485
9,0.17717732328874247,0.1673963945786722
10,0.17673152401307318,0.16700817981547253
11,0.17572514929902266,0.16625563327868617
12,0.17526877321631407,0.16579187503646217
13,0.17491001875545134,0.1656039805110182
14,0.17370443423190193,0.1642198217334707
15,0.17238554608587167,0.16312232678582272
16,0.1709792339903583,0.16178651724297669
17,0.17069155453673934,0.1615853297236846
18,0.16966566834979038,0.160800436260387
19,0.1686983228427214,0.15990528911852106
20,0.16784157540880232,0.15919179525001279
21,0.16689402184115648,0.1582745022861832
22,0.16660890084597832,0.1579973280327207
23,0.16598073658813473,0.15759580802306958
24,0.16517562982255696,0.15659484699176085
25,0.16491615372009144,0.15650234818517986
26,0.16393801102273353,0.15571721840468555
27,0.1635273882317672,0.1555177187032882
28,0.16287144544822205,0.15505021149107565
29,0.16239628025816014,0.1546946695598248
30,0.1614143201922581,0.15381510084975025
31,0.16055723889298879,0.15314031550150473
32,0.1600490007475406,0.15254672081877044
33,0.1595366533935166,0.15196578276908604
34,0.1591799308188405,0.15142758836694398
35,0.15868099947055853,0.15079214200142974
36,0.15803182017525405,0.15023836336576576
37,0.1578240422498092,0.15025573458694882
38,0.15692657360264536,0.149530390869048
39,0.15634155209416942,0.14887990063989254
40,0.1556600101713547,0.14817215127546163
41,0.1551898260838694,0.14787518730620433
42,0.15460218769828143,0.14729372339367364
43,0.15417987336419542,0.14695407648826697
44,0.15405618258575673,0.14698702438008315
45,0.15370361840433006,0.1468660506145716
46,0.1531749868079377,0.1464394034904593
47,0.1528429178463821,0.14615501238849823
48,0.15255082414086404,0.1460868683521145
49,0.15213471245255797,0.14577416837756338
50,0.15195644378128118,0.14569982353632283
51,0.15171724981895945,0.1455289688124535
52,0.15135286185199623,0.14531497414364344
53,0.1511069346182281,0.1451597866331967
54,0.1509641399389146,0.1451286203729246
55,0.15063391257460162,0.14502962669024266
56,0.1503092165846092,0.14481905771409137
57,0.1501502204888942,0.14466133284591703
58,0.14987918725913923,0.1446172350227017
59,0.14935116819474292,0.14409646378533164
60,0.14930841141550186,0.14411898801008316
61,0.1491744598112864,0.14400726166910233
62,0.14868795448149982,0.14363962667933775
63,0.14810059151934132,0.14315533792417262
64,0.1479450720792012,0.14318103134482416
65,0.1478799159194201,0.14312548996079924
66,0.14766412018378136,0.1430533760913125
67,0.14745257828439318,0.14278984318028
68,0.1470758794944034,0.14259905823089639
69,0.14689590050243798,0.14256792445923472
70,0.1468510135347556,0.14257716384602762
71,0.14652707528858538,0.14227240903310112
72,0.1463381883526185,0.14220592843320545
73,0.1456109063674118,0.14152135135676305
74,0.14541851817927912,0.14145262606466769
75,0.14537140631239914,0.14145830290012557
76,0.14527887098071465,0.14142475026529938
77,0.14471251153321232,0.14095592280054883
78,0.14399464895027597,0.14045828904886684
79,0.14374473463526383,0.14047684214066988
80,0.14353341608648393,0.14022618343327659
81,0.1432701615281275,0.1399560225736211
82,0.14292559336216257,0.13975398041356177
83,0.14287710043143093,0.13973648732349409
84,0.14269185561944703,0.13957288194631465
85,0.1425940724909474,0.1395172672240455
86,0.1423414570572765,0.1393465637529424
87,0.14213127640085307,0.13911542360901413
88,0.14189758346076597,0.13901112091016116
89,0.14157286599302799,0.13879224149663144
90,0.14129678126328193,0.13853095835679097
91,0.14118273861897868,0.1384803738828829
92,0.14080831087900358,0.1380774772842928
93,0.14050836576447823,0.13775201727322423
94,0.14009407976155214,0.13744949810297538
95,0.1400606301021104,0.1374201227148942
96,0.13966206590279234,0.13701604861647318
97,0.13950775289069917,0.13701375707463542
98,0.13943410759522068,0.1370207615413959
99,0.13926131035030156,0.13701796212025671
100,0.139147317830116,0.13703938156934545
101,0.1390291509988168,0.13691749736954384
102,0.13887084771398425,0.13669486936234193
103,0.1386327820956055,0.1365784428785301
104,0.13836588066605643,0.13638800885054964
105,0.13824532606723158,0.1363137155469749
106,0.13811300323062883,0.13632756390851486
107,0.13793197125923753,0.13624919739415414
108,0.1378436832297053,0.13628980164725799
109,0.13762722020259305,0.13622410473587077
110,0.1375486257584915,0.13620923163285464
111,0.13731601960113454,0.13603592301491113
112,0.13716138349571766,0.1359547870676721
113,0.13694701131463258,0.13594011024304375
114,0.13674472752719335,0.13577812177382262
115,0.13663172512646096,0.13575439652621227
116,0.13655262972464843,0.13572880495234116
117,0.13631087256026045,0.13568565277676542
118,0.13619377039262937,0.13566582503118063
119,0.13603881694837328,0.13563748302804507
120,0.13576835849109778,0.13543798497991297
121,0.13556447348148276,0.1354123552924653
122,0.13504556233802675,0.13507099552062377
123,0.1347647550054609,0.1348166621826239
124,0.13435045300302637,0.13457809600717693
125,0.13420579685382505,0.1344900437098009
126,0.13418569878249323,0.13450898692262317
127,0.13392467968142208,0.1343625329166299
128,0.13371227420241205,0.13417635328917635
129,0.13366666452929205,0.1341747455453486
130,0.1334700029964697,0.13409789271765987
131,0.13336848976023333,0.13397996192892217
132,0.13319416118287516,0.1339476626841302
133,0.13300616553217587,0.13385052357165403
134,0.13294221605231715,0.13381644241662655
135,0.13286470303219097,0.13378456529938537
136,0.13265462897950694,0.13366530351753023
137,0.1324844725149816,0.1336378932022696
138,0.1323392769138501,0.13358436324265707
139,0.1323192813790656,0.13356773656440155
140,0.132206173674524,0.13358090306639678
141,0.13208091338102398,0.13353060633986447
142,0.1319976971217876,0.13345488285986745
143,0.13193214026851466,0.13348655254360886
144,0.13172900597302256,0.13340128144449995
145,0.13156980459910403,0.13329590712426975
146,0.13146466433763385,0.13328642134393112
147,0.13107946881515947,0.13304987713385344
148,0.13092357828619472,0.13297016796704145
149,0.13075862462116214,0.13292402222459604
150,0.13055644399993213,0.1327741161262254
151,0.130340741012553,0.13271484923792462
152,0.13010750509585534,0.13250392293288155
153,0.12988242472940748,0.132410298423411
154,0.12956190312393187,0.1321994388966231
155,0.12951555236343767,0.13218016639261576
156,0.12938571330162768,0.13210292292282805
157,0.12917063167193932,0.13188211413767714
158,0.12906800824875178,0.13181617084979855
159,0.12895208385896348,0.13177985147680019
160,0.12870808597439953,0.1316797100884173
161,0.12859987916912302,0.13169037138822856
162,0.12845520739808805,0.1315548666040003
163,0.12824137645094016,0.13140729926534916
164,0.12812182162437072,0.13136764992173394
165,0.12798234238677755,0.13121334371589485
166,0.12767858158811407,0.13093009849644327
167,0.12763227206983488,0.13093632075881417
168,0.12751962282422663,0.13079497718519512
169,0.12741596451217546,0.13079492158243486
170,0.12727953616778703,0.13074948950959997
171,0.12724031930089402,0.1307480686523032
172,0.12710841452496977,0.13067810559490797
173,0.12691173839630485,0.13053893811553025
174,0.12680101257932083,0.13054432418232598
175,0.1265968073389184,0.13037735982869614
176,0.12649516645708794,0.13033651022174642
177,0.12633468734507536,0.1303262187780263
178,0.12615607869994436,0.13019466090623524
179,0.12600936742068092,0.13013027719954048
180,0.12595090863521347,0.13015437789249049
181,0.1258005358644922,0.13012453717849104
182,0.1256870924123332,0.13013443476619452
183,0.1255840370696776,0.13015696007154315
184,0.12551546473779118,0.13014739165930606
185,0.12545565737220302,0.13012122767010378
186,0.125269685787652,0.129911083920904
187,0.1251463286709843,0.1299085148568712
188,0.12509792723511814,0.12992943136772162
189,0.12486791177053375,0.12976090225265954
190,0.12482533591481806,0.12977945842982214
191,0.12456839498031548,0.12959891362765041
192,0.12447079159901009,0.1295771200397621
193,0.12433977367348517,0.12956031645414595
194,0.12428971920778356,0.12958824497777674
195,0.12417860017753943,0.12957549922071113
196,0.12391235785525687,0.1294988484891145
197,0.1238066115601289,0.12948339218829497
198,0.12378559162332001,0.12948970350185968
199,0.12366445765355125,0.12938273905261508
200,0.12358770174784611,0.12940489436935407
201,0.12348387208034232,0.12939300307931836
202,0.12339293223206836,0.12936797145791604
203,0.12323711740550847,0.12942119383967476
204,0.12306157931796931,0.12938552338356005
205,0.12292941914835286,0.12930739531164984
206,0.12282299111182997,0.1293132906127606
207,0.12272333250416767,0.12933980603856862
208,0.12255357771544316,0.12919925304513305
209,0.12236194032973771,0.12909593790794838
210,0.12224419070372972,0.1290908277338795
211,0.12201314027990953,0.1289513564015518
212,0.12194514946810303,0.12896759057164006
213,0.12185474993540905,0.12898066949187212
214,0.12167102634904206,0.12884966650348445
215,0.12153668919321163,0.12879154436506085
216,0.12142658649804286,0.12876420644903586
217,0.12137986026866392,0.1287640196078399
218,0.12123766694953879,0.1286544464141318
219,0.12115063566569517,0.12863303719331626
220,0.12107450602731343,0.12864037525663105
221,0.12101461515699652,0.12862322276847718
222,0.1209628335642674,0.12860361256049443
223,0.12080255559954935,0.12864972743489148
224,0.1206601112442553,0.12861083755881453
225,0.12051371364507225,0.12851410589684284
226,0.12042095828415478,0.12851611250212946
227,0.12037984562807494,0.1285343705669175
228,0.12031353874074394,0.1285050494785094
229,0.12024202041880713,0.12853648530093723
230,0.12009181986932964,0.128439144545788
231,0.12007720520132804,0.12842394171800836
232,0.12001749129827013,0.12842637679457872
233,0.11990164032542375,0.12840326011989237
234,0.11985428931174485,0.1283985059444318
235,0.11968595543275062,0.12825041072162893
236,0.11957448842799799,0.128284515835616
237,0.11953644236229287,0.12829273458121224
238,0.11943769523096356,0.12823447880291303
239,0.1193764271588678,0.12818258332810742
240,0.11915597090385527,0.12798740707188588
241,0.11907023943703875,0.12803374733699693
242,0.1189179833400852,0.12792994395154653
243,0.11882443445605924,0.12788229566142223
244,0.1187361288010919,0.1278705032593938
245,0.11865320438954925,0.12788246029714176
246,0.11860897161912355,0.12787065290667637
247,0.11847957495859215,0.12783353755383844
248,0.11843259542211405,0.12778503340078637
249,0.11829176058655502,0.12773330026496246
250,0.11820372201061702,0.12775423417697562
251,0.11816760752253114,0.1277623527653881
252,0.11809280323386945,0.12775933055375324
253,0.1180340916305319,0.12779078345992856
254,0.11793128638103292,0.12777808821628392
255,0.1179011183725767,0.12778273284168057
256,0.11760698945457461,0.12754902603451213
257,0.11744953227519357,0.12745511521778494
258,0.11733197409829665,0.1274418956884411
259,0.1172299562678879,0.12742483316871384
260,0.11699732354005328,0.12728030446716404
261,0.11691040646932703,0.1272835007435197
262,0.11683558584387178,0.1272565763288084
263,0.11667633264756438,0.1272768184118766
264,0.11658060264299355,0.1272110719281801
265,0.11656048102096137,0.12720391368341374
266,0.11644348502960476,0.12721634334581697
267,0.1162397198394037,0.12722891810567613
268,0.11614278473006137,0.12725461130824708
269,0.11603868315523631,0.12729026394481463
270,0.11603070202229272,0.12729139837820624
271,0.11594685566326943,0.12730699776966004
272,0.11573478415896943,0.12735517809882024
273,0.11549695313197242,0.12705573313806848
274,0.11541809019840445,0.12699224370820605
275,0.11536399237818354,0.1269766330660355
276,0.11531880959046298,0.12694118508402627
277,0.11527519747837064,0.12695823592665414
278,0.11517362114487151,0.12697533702533623
279,0.11507849902946751,0.12697231777472967
280,0.1149825316244277,0.1269087099987124
281,0.11486947664830958,0.1268023716031119
282,0.11461257794352617,0.126850056402177
283,0.11441895916349301,0.12666618524307235
284,0.11434360751649163,0.12663045657571015
285,0.1142311334656941,0.12649232285260392
286,0.11414530614963894,0.12650617833686842
287,0.11406187838598593,0.12650731610408633
288,0.11400377298697877,0.12645340723013787
289,0.11389808963683057,0.1264444216482836
290,0.11380685846702959,0.12643278900143093
291,0.1137580371363119,0.12644054030433088
292,0.11365106731998316,0.12644836744372337
293,0.11353827530242591,0.12636968744237484
294,0.11339367032631302,0.12628425595589837
295,0.11327601426469593,0.12625393962744932
296,0.1132303190716045,0.1262693719060529
297,0.11319782972961125,0.12628556187046258
298,0.11306571575775207,0.1262218569411019
299,0.11294780584035832,0.1262104343205941
300,0.11284719547246713,0.12619243823464998
301,0.11275423275451776,0.12620076228245536
302,0.11267592012300826,0.12620554637972986
303,0.11261383097451051,0.12619194212104404
304,0.1125288698533918,0.12619583350357674
305,0.11246236782965038,0.12617528367704922
306,0.11234152501894464,0.1261125274215192
307,0.11228835006172828,0.12610880222892945
308,0.11220748061629213,0.12611266554857645
309,0.11217818876125975,0.12608757359208037
310,0.11210871808288607,0.1261130326031203
311,0.11205043801816902,0.126119770565879
312,0.11196612116202026,0.12606677546843711
313,0.11191301807544465,0.12606159681887186
314,0.11182113700724401,0.12600542752807065
315,0.11178781760279849,0.12597832492610758
316,0.11174940396343246,0.12596675390431825
317,0.11162240251730689,0.1258955859945271
318,0.11158059325397371,0.12587275641140883
319,0.11152624874109265,0.1258261303934263
320,0.11149411764611726,0.12583891003966682
321,0.11139207091147879,0.1258648621502077
322,0.1113319660623605,0.12585939011190364
323,0.11122736501771445,0.12587111935069037
324,0.11116835753318206,0.12589100849837423
325,0.1111176132728642,0.12590122796490735
326,0.11108356873399473,0.12590586972241005
327,0.11101496472365975,0.12590502619898172
328,0.11090225604183858,0.12585044917701896
329,0.1108264872356129,0.12577306121650278
330,0.1107945888996538,0.12579517090037498
331,0.11071063400350799,0.12581864585261815
332,0.11066955916856062,0.12583917665644195
333,0.11062363624043212,0.12584847121310988
334,0.1105610713448617,0.1258573201511458
335,0.1104053309181925,0.12571556491402125
336,0.11034125994348333,0.1257369195670112
337,0.11029508107583397,0.12574268922843831
338,0.11024951769301673,0.1257737013191859
339,0.11021094363654814,0.12576309755982165
340,0.11011917774550617,0.12570690116715508
341,0.11009787407021726,0.1257122415848155
342,0.11005527310277367,0.12569008959627362
343,0.11001685883011826,0.12571870699674811
344,0.10998065190517171,0.12572660334055868
345,0.10993521287130928,0.12572107699462906
346,0.10991487269444847,0.12572152515676793
347,0.10984791285314773,0.12571062812872597
348,0.10980526469459401,0.12573362983535424
349,0.10978938093401071,0.12573140048161952
350,0.10975397990934774,0.12572433321130233
351,0.10971349781256354,0.12573366313376796
352,0.10966738262476351,0.12571943315191142
353,0.10961931220088446,0.1257314632630483
354,0.10960803976991348,0.125731690947194
355,0.10953242065831675,0.1257418961168526
356,0.10946719834256219,0.12573503525531346
357,0.10940863556287872,0.12573737797246107
358,0.10936510014627122,0.12576620497183288
359,0.10932903369898143,0.125788417605947
360,0.10929526470975368,0.12577366969719225
361,0.10921065413660094,0.12579020165893906
362,0.10911119424560456,0.12580183034724735
363,0.10896799741162365,0.12568714751227442
364,0.10893292902024168,0.12566926208295745
365,0.1087650599285758,0.1255710136280622
366,0.10871039533562274,0.1255189911803394
367,0.10867340702301709,0.12553387804861585
368,0.10862331755784126,0.1254907412992325
369,0.10857530471119498,0.12546429470738918
370,0.10843909710865114,0.1254952716523055
371,0.10839256984717574,0.12543877911249593
372,0.1083315438450416,0.12539508180768694
373,0.1082577563555546,0.12535003852632468
374,0.10820441600420995,0.12532694535507644
375,0.10811083233845713,0.12534441573560184
376,0.10805279079717502,0.12532611744869085
377,0.1080020908227273,0.12531245844260472
378,0.10794005853081885,0.12531709323374654
379,0.10789715284304151,0.125329828014716
380,0.10784520965036053,0.1253945346819479
381,0.10779967583031368,0.12540486123091352
382,0.10776422357466905,0.1254643413861848
383,0.10772500346589196,0.12546101619212777
384,0.10765100044093072,0.1253476963879557
385,0.10761899649195886,0.125360010747984
386,0.10758367383459656,0.12537131681388522
387,0.10753866447976619,0.12536700961739713
388,0.10747670731456312,0.12540355081698712
389,0.1074212061926505,0.12533635794002534
390,0.10737920023640152,0.125378133593851
391,0.10733245396541666,0.1253903657763327
392,0.10730607523307559,0.12540467361393146
393,0.10723117444555012,0.1254470184750717
394,0.10716641495321555,0.12544304689225116
395,0.10714735346589069,0.1254418159634925
396,0.107034800956317,0.12541969712583845
397,0.10698506553286297,0.12539705694487124
398,0.1069494907907859,0.12541875675591732
399,0.10689423416447509,0.12538933216955578
400,0.10678953671178479,0.12541032800500776
401,0.106768221493505,0.1254286044186517
402,0.10669660472468777,0.12547765101352049
403,0.1066508550482167,0.12547477635863336
404,0.10661393834522205,0.12545155610577294
405,0.10657888847586919,0.1254716138983674
406,0.10653614889737975,0.12548699122547746
407,0.10650214102677674,0.12551152895089673
408,0.10643809076377299,0.12550263973734566
409,0.1063162759280683,0.125364677612265
410,0.1061674336491634,0.12524993109854998
411,0.10613601721939213,0.12522725723371564
412,0.10605703046862862,0.1252091861319804
413,0.10601351610709886,0.1252212412074457
414,0.10590701301026827,0.12520880452998176
415,0.10586399285374275,0.12521056048989254
416,0.105789605302567,0.1252197580423409
417,0.1056704039244526,0.1251978026891135
418,0.10560777427974777,0.12516890392931285
419,0.10556433350859667,0.12518611656033632
420,0.10549456922388159,0.12516445337916557
421,0.10542514296883934,0.1251593645034227
422,0.10530275910338849,0.1250672871769827
423,0.10528470861505655,0.12507456151662363
424,0.10520728444611065,0.1250082787392529
425,0.1051476819367963,0.12499088861722792
426,0.10509130877235169,0.12499383326628952
427,0.10500043189129422,0.12496351707744709
428,0.1049206895224344,0.12492888224197823
429,0.10490553896126034,0.12492740519285948
430,0.10486128191254951,0.124956498433856
431,0.10482247654013596,0.12494963955275683
432,0.1047271530345112,0.12481370903200137
433,0.10468981018220486,0.12483630034024804
434,0.10453886261464372,0.12480340145460345
435,0.10450623891131428,0.12482450111565276
436,0.10445522606760271,0.12480173017312841
437,0.10433358286638568,0.12478488705671564
438,0.10430420138013716,0.12476595780418406
439,0.10423238352826204,0.12469423881151102
440,0.10418468833139068,0.12470582639240714
441,0.10413318367219165,0.12472799661464265
442,0.10408405248004737,0.12473915339367578
443,0.10395496051323926,0.12466862370032496
444,0.10392611407317691,0.12467934615230096
445,0.10389733848879308,0.12469455360430363
446,0.1038404505633663,0.12470181470130062
447,0.10380355349154285,0.12469811868274516
448,0.10375676376523679,0.12469067494859744
449,0.10371655479084983,0.12470437599581094
450,0.10352435141819415,0.12458329549246934
451,0.10349358752249999,0.12458553070035996
452,0.10345372758025496,0.12459369015228355
453,0.10341980876827794,0.12459386298598851
454,0.10336214403715599,0.12454240808206514
455,0.10330700734333167,0.12455049290169139
456,0.10325842277988034,0.12451123366314355
457,0.10315682174918268,0.12448037997015633
458,0.10312944461230034,0.12451889889821578
459,0.10311430926376369,0.1245305322893639
460,0.10297735321570546,0.12436276107412506
461,0.10295572490700938,0.12435414571871165
462,0.10291669808207922,0.1243558233853914
463,0.10283776905065743,0.12434117239899449
464,0.10280057420870148,0.12436418688496104
465,0.10274084865238317,0.12434032097389253
466,0.10271407389941573,0.12433904945890427
467,0.10265454353730356,0.12429561980805572
468,0.10261064217720375,0.12431503485746383
469,0.10257122631549487,0.12431931413626483
470,0.10249557481511198,0.12433912290909485
471,0.10246221826340195,0.12434426797182961
472,0.10240959961602218,0.12433618410523706
473,0.1022271185795167,0.124194323861149
474,0.10219063704280952,0.12418329254717436
475,0.10211135361689462,0.12418088601925496
476,0.10206205170797915,0.12416809608937163
477,0.10193999186941313,0.12408115163624014
478,0.10189137489372015,0.12405444352853372
479,0.10182298363466133,0.1241037125052619
480,0.10179781665899029,0.12410873626010308
481,0.101715292684739,0.12394645386698049
482,0.10168797195469768,0.12394313043107344
483,0.10166819631220024,0.12393257006705956
484,0.10165452960174594,0.12394345536946597
485,0.10157353368479718,0.12392367853442918
486,0.1014909673277666,0.12397381013012003
487,0.10132360499237386,0.12394342048370027
488,0.10129163044285235,0.12397114101131179
489,0.10123423276181903,0.12391077077372732
490,0.10119108637473402,0.12392172586784814
491,0.10117357633770858,0.12391589903267518
492,0.10112724032205658,0.12392521318484263
493,0.10108607706654625,0.12393734123928259
494,0.1010570179659521,0.12394757394337119
495,0.10101914852933282,0.12399304845388663
496,0.10095463931603081,0.12398454205030515
497,0.10082655386234804,0.12395299213572661
498,0.10077525970545637,0.12393959501608472
499,0.10070496558811422,0.12394090895741386
500,0.10064868669351129,0.12397947861571777
501,0.10055459614015098,0.12397355938847544
502,0.1005129204687943,0.12397851259352528
503,0.10049664903959818,0.12400932415918642
504,0.1004558262666454,0.12403295744686367
505,0.10042664136928221,0.12402983315057566
506,0.10040148014477833,0.12402781374356218
507,0.100349180740445,0.12406625201598577
508,0.10028803291996119,0.1240194304522599
509,0.10023220730627024,0.1240154019436671
510,0.10020610606173352,0.12403185394660096
511,0.10014747598912094,0.12403459765926647
512,0.10009292705052632,0.12406205313539266
513,0.1000610404156846,0.12406056407065395
514,0.1000053171452303,0.1240794404544542
515,0.09995741232025275,0.124051794506647
516,0.09992211727112967,0.12402798759842382
517,0.09987838597274708,0.12406377054302584
518,0.09985144355028254,0.12408769735333955
519,0.09977488627333705,0.12407210690694893
520,0.09972444217561141,0.12410823024823409
521,0.09970239961355401,0.12410185378475494
522,0.09966994404141022,0.12409951631183773
523,0.09963360042379955,0.12412489444646067
524,0.0995915000896402,0.12412714878517458
525,0.09954107088152117,0.12413213174778528
526,0.09950634447954604,0.12413173660770258
527,0.0994670335931898,0.12412305388773882
528,0.09940759364713123,0.12412110374162688
529,0.09936722353735666,0.12411728577931694
530,0.0993511669365623,0.12413023158043726
531,0.09932440994769828,0.12411797082752826
532,0.09928407444521503,0.12412491656484212
533,0.09926774557637405,0.1241408679997934
534,0.09922733245159426,0.12414636503517935
535,0.09910552049719926,0.12402496225118975
536,0.09905522234299785,0.1240304635091514
537,0.09901156589705712,0.12405047025383349
538,0.09896415282592126,0.124000872629799
539,0.09894392353906709,0.12401569053825236
