{
    "uid": "9c9158d8-23d6-451e-ad72-0771a7b63b0b",
    "name": "14_LightGBM",
    "preprocessing": [
        {
            "ml_task": "regression",
            "params": {
                "columns_preprocessing": {},
                "target_preprocessing": [
                    "na_exclude"
                ],
                "ml_task": "regression"
            }
        },
        {
            "ml_task": "regression",
            "params": {
                "columns_preprocessing": {},
                "target_preprocessing": [
                    "na_exclude"
                ],
                "ml_task": "regression"
            }
        },
        {
            "ml_task": "regression",
            "params": {
                "columns_preprocessing": {},
                "target_preprocessing": [
                    "na_exclude"
                ],
                "ml_task": "regression"
            }
        },
        {
            "ml_task": "regression",
            "params": {
                "columns_preprocessing": {},
                "target_preprocessing": [
                    "na_exclude"
                ],
                "ml_task": "regression"
            }
        },
        {
            "ml_task": "regression",
            "params": {
                "columns_preprocessing": {},
                "target_preprocessing": [
                    "na_exclude"
                ],
                "ml_task": "regression"
            }
        }
    ],
    "learners": [
        {
            "library_version": "3.0.0",
            "algorithm_name": "LightGBM",
            "algorithm_short_name": "LightGBM",
            "uid": "d77988e9-062a-4000-b545-dbb1f89f529d",
            "params": {
                "model_type": "LightGBM",
                "ml_task": "regression",
                "seed": 1238,
                "objective": "regression",
                "metric": "l2",
                "num_leaves": 31,
                "learning_rate": 0.05,
                "feature_fraction": 0.9,
                "bagging_fraction": 1.0,
                "min_data_in_leaf": 20,
                "explain_level": 1
            }
        },
        {
            "library_version": "3.0.0",
            "algorithm_name": "LightGBM",
            "algorithm_short_name": "LightGBM",
            "uid": "a55442b6-0ef3-4473-b8cf-bd4fc98fe574",
            "params": {
                "model_type": "LightGBM",
                "ml_task": "regression",
                "seed": 1238,
                "objective": "regression",
                "metric": "l2",
                "num_leaves": 31,
                "learning_rate": 0.05,
                "feature_fraction": 0.9,
                "bagging_fraction": 1.0,
                "min_data_in_leaf": 20,
                "explain_level": 1
            }
        },
        {
            "library_version": "3.0.0",
            "algorithm_name": "LightGBM",
            "algorithm_short_name": "LightGBM",
            "uid": "2f6f9d5e-ee03-406a-9047-32f2bc8ebe22",
            "params": {
                "model_type": "LightGBM",
                "ml_task": "regression",
                "seed": 1238,
                "objective": "regression",
                "metric": "l2",
                "num_leaves": 31,
                "learning_rate": 0.05,
                "feature_fraction": 0.9,
                "bagging_fraction": 1.0,
                "min_data_in_leaf": 20,
                "explain_level": 1
            }
        },
        {
            "library_version": "3.0.0",
            "algorithm_name": "LightGBM",
            "algorithm_short_name": "LightGBM",
            "uid": "191ab9d1-d861-4861-8e70-d1e41ac1586a",
            "params": {
                "model_type": "LightGBM",
                "ml_task": "regression",
                "seed": 1238,
                "objective": "regression",
                "metric": "l2",
                "num_leaves": 31,
                "learning_rate": 0.05,
                "feature_fraction": 0.9,
                "bagging_fraction": 1.0,
                "min_data_in_leaf": 20,
                "explain_level": 1
            }
        },
        {
            "library_version": "3.0.0",
            "algorithm_name": "LightGBM",
            "algorithm_short_name": "LightGBM",
            "uid": "2ed8c3be-f08f-412b-b661-ef7ad7713611",
            "params": {
                "model_type": "LightGBM",
                "ml_task": "regression",
                "seed": 1238,
                "objective": "regression",
                "metric": "l2",
                "num_leaves": 31,
                "learning_rate": 0.05,
                "feature_fraction": 0.9,
                "bagging_fraction": 1.0,
                "min_data_in_leaf": 20,
                "explain_level": 1
            }
        }
    ],
    "params": {
        "additional": {
            "max_rounds": 10000,
            "early_stopping_rounds": 50,
            "max_rows_limit": null,
            "max_cols_limit": null
        },
        "preprocessing": {
            "columns_preprocessing": {},
            "target_preprocessing": [
                "na_exclude"
            ],
            "ml_task": "regression"
        },
        "validation_strategy": {
            "validation_type": "kfold",
            "k_folds": 5,
            "shuffle": true,
            "X_path": "AutoML_8/X.parquet",
            "y_path": "AutoML_8/y.parquet",
            "results_path": "AutoML_8"
        },
        "learner": {
            "model_type": "LightGBM",
            "ml_task": "regression",
            "seed": 1238,
            "objective": "regression",
            "metric": "l2",
            "num_leaves": 31,
            "learning_rate": 0.05,
            "feature_fraction": 0.9,
            "bagging_fraction": 1.0,
            "min_data_in_leaf": 20,
            "explain_level": 1
        },
        "ml_task": "regression",
        "explain_level": 1,
        "name": "14_LightGBM",
        "status": "initialized",
        "final_loss": null,
        "train_time": null
    },
    "saved": [
        "AutoML_8/14_LightGBM/learner_1.lightgbm",
        "AutoML_8/14_LightGBM/learner_2.lightgbm",
        "AutoML_8/14_LightGBM/learner_3.lightgbm",
        "AutoML_8/14_LightGBM/learner_4.lightgbm",
        "AutoML_8/14_LightGBM/learner_5.lightgbm"
    ],
    "predictions_fname": "AutoML_8/14_LightGBM/predictions_out_of_folds.csv",
    "metric_name": "rmse",
    "final_loss": 0.0919319081478223,
    "train_time": 4349.800746917725,
    "is_stacked": false
}