1,0.1114520860024499,0.1094872520763828
2,0.0957484750222346,0.09376203131342337
3,0.09071677189478436,0.08903898514000257
4,0.08755032355112292,0.08618565139868234
5,0.08514726658836255,0.08409712963313402
6,0.0832340706292237,0.08243972229055467
7,0.08169207701929938,0.08115141556873291
8,0.08033833826315619,0.08006516859246643
9,0.0792544777462836,0.07900356940829681
10,0.07830880936773027,0.07815204049372888
11,0.07742184749771237,0.0772735910512669
12,0.07669189762766064,0.076520147860252
13,0.07601653942457934,0.07587344800972823
14,0.0753842511339353,0.07524695863473164
15,0.07479530149114,0.07465589172780303
16,0.07430522278041377,0.07417988947879467
17,0.07377509091714056,0.07364731820021424
18,0.07333082492455685,0.07327082371213464
19,0.07283734414432642,0.07270406257433899
20,0.07243092295487963,0.0723294161813478
21,0.07202022376929647,0.07197675325062143
22,0.07164292806600774,0.07156134703741575
23,0.0713312866079901,0.07126030537174152
24,0.07096635924401233,0.07089694561865327
25,0.07071123784953506,0.07061152521491484
26,0.07038440146903273,0.07029679747569009
27,0.07010252589191096,0.07006186563435245
28,0.06987185291924887,0.06984984234939619
29,0.0695933751414992,0.06945652298019207
30,0.06934521960249324,0.06917862311635482
31,0.06912569569110497,0.0689266908566599
32,0.0689390331872609,0.06871552897048006
33,0.06873693109885512,0.06851262908193734
34,0.06851163372915209,0.0683039752377905
35,0.06833751804150709,0.068048560539383
36,0.06815792137584183,0.06782496629282182
37,0.06798952117907979,0.06771342980213395
38,0.06780514395015959,0.06745285232930875
39,0.06768369143261128,0.06733598138050713
40,0.06745114917459338,0.06703482810049427
41,0.06728441797719767,0.06685349423512674
42,0.06713162101569085,0.06667755320101248
43,0.06699377434223314,0.06650029624529635
44,0.06686843180236546,0.06637827083316518
45,0.06671803789393818,0.06619559906212348
46,0.0665892459043347,0.06609026394624434
47,0.06646548950002164,0.06590096289922631
48,0.06632676764185005,0.06575766127802445
49,0.06618275886247757,0.0656857441369475
50,0.06606184136926818,0.06561564779929395
51,0.06594471806141713,0.06554559325165796
52,0.06581347171357574,0.06544203545937413
53,0.06570013381616109,0.06540619236780601
54,0.06558087098839499,0.06528447144453797
55,0.06549344392765331,0.06524444100209244
56,0.06540096514218718,0.06511446962510907
57,0.06531379629095996,0.0650492614343981
58,0.06520268194533202,0.06501351232020569
59,0.06511288218489444,0.06494588611280831
60,0.06501881274127368,0.06485770960785939
61,0.06494131159012413,0.06481333856673355
62,0.06485752868871657,0.06473796558588807
63,0.06477506425326113,0.06469445308095674
64,0.06469692037008115,0.06459128985021713
65,0.06461591828516744,0.06453371278457633
66,0.06454708666955387,0.06446805614414823
67,0.06445017705216712,0.06442193785498938
68,0.064379616262276,0.06436295306380434
69,0.06429148210220685,0.06430937193911436
70,0.06421756129627564,0.06427740095798337
71,0.06413854674224884,0.06418744348014312
72,0.06408024423746013,0.06411771761812342
73,0.06399247645498389,0.06404744202980339
74,0.0639273977399222,0.06400326423891495
75,0.06385820566702657,0.06393265436263573
76,0.06378768093572391,0.06384428600129063
77,0.06373202731332517,0.0637904799531185
78,0.06365584607479452,0.06371822441718261
79,0.06359273755020871,0.06367107916572935
80,0.06353765229445967,0.06359043485325727
81,0.06347530983331734,0.06354509000553324
82,0.0634191529139412,0.06348928806672176
83,0.06336982283011929,0.06344943920328212
84,0.06331826304985223,0.0634408328153018
85,0.06325688184690831,0.06334988905392787
86,0.06322025439436493,0.06331106547843542
87,0.06315866274019817,0.06322484191431933
88,0.06310163807474888,0.06318603977720799
89,0.06305185715099886,0.06313880790223102
90,0.06300124030948284,0.06311553963432606
91,0.06295138656808026,0.0630480543299998
92,0.06290836127504416,0.06299478031578437
93,0.0628719038871827,0.062953580152839
94,0.06282046541798386,0.0628815223869213
95,0.06277571747259601,0.062875833139811
96,0.06272673813863555,0.06280869287169161
97,0.06268405442931266,0.06273953948185411
98,0.06263590745370291,0.06270491940724889
99,0.06259319560423722,0.06265983275342048
100,0.06255094482463659,0.06260133490156934
101,0.06251142679326441,0.06257260232593512
102,0.06247197822260437,0.0625280291926026
103,0.062429847678380036,0.06246643722037934
104,0.06239545146060646,0.06241331593700517
105,0.06235560551931393,0.06240636462247347
106,0.062321206677415364,0.06234706565017574
107,0.062290626326633215,0.06232724822346104
108,0.06224840641016495,0.06228187853795962
109,0.062216382443321644,0.06223096644249047
110,0.062176509446566997,0.06221525035403965
111,0.062143676594646056,0.06216485601396213
112,0.06211428012802455,0.062147300691307784
113,0.06207335271043591,0.062100130157073066
114,0.062041093146693926,0.062073268260732894
115,0.06200750870707814,0.06202548983110323
116,0.06197052318987644,0.061999472115398066
117,0.061938103236725425,0.061975138938029486
118,0.06190646385581715,0.0619433475560171
119,0.061882226747926226,0.061903635745832415
120,0.061847763216360284,0.061886465136967654
121,0.0618142485745904,0.06185009426677477
122,0.06178428191114494,0.06180773209836443
123,0.061752606490790916,0.061772729719479495
124,0.061722657865035085,0.06173465192507431
125,0.06169233350450913,0.06170197716941578
126,0.061665815716606426,0.0616804273302453
127,0.06163980198410815,0.06165196588205261
128,0.061612584044960166,0.06162650933967021
129,0.06158042857733112,0.061584912429844645
130,0.061551519685678846,0.06153638647972682
131,0.0615219501269039,0.06151922381306467
132,0.061498350387699116,0.06148948693637591
133,0.06146546947622739,0.061466977423748945
134,0.0614395686181762,0.06145255112914606
135,0.06141217435983406,0.061388867134139595
136,0.06138517815366518,0.06136125233162311
137,0.06135970867237477,0.06133397287009284
138,0.06133333002295205,0.06130856110179001
139,0.061311944860370636,0.06130087519009413
140,0.061286289925327066,0.06126575835442665
141,0.06126007133889997,0.061232937932511396
142,0.061236132241750355,0.0611879515410671
143,0.06121243894812879,0.06116045522761473
144,0.06118783913870297,0.0611569287343007
145,0.06116552442527185,0.06111766264605689
146,0.06114331596765026,0.06108785207187737
147,0.06112099350420035,0.06107143055132526
148,0.06109709891194612,0.06104161926581474
149,0.061075294914206456,0.06101971082619687
150,0.06105187672039531,0.06099811173984157
151,0.06103222374115494,0.06096875463209872
152,0.061004611972282796,0.06096113035800886
153,0.060980496614343606,0.06092689015640495
154,0.060955063746526934,0.06089613863270187
155,0.06093146229547225,0.06089060918135514
156,0.06090729025353302,0.06085266239960374
157,0.06088940644828198,0.0608336055350283
158,0.06086202635906368,0.06080735463017342
159,0.06083962443743787,0.060804826486463216
160,0.06081715927610051,0.060770303457308786
161,0.06079725417943967,0.060754367100385856
162,0.06077483358500266,0.060716996278237165
163,0.06075529759137702,0.060708429399311904
164,0.06073653870465586,0.06068413676633498
165,0.06071587905274886,0.06067373567965268
166,0.06069588188246825,0.060630357897472516
167,0.06067599467734929,0.06060102477938055
168,0.06065580192199325,0.06059774078273055
169,0.0606359716106454,0.06056713378638771
170,0.06061646075589245,0.060553358405326656
171,0.060597672524734046,0.06052605930164859
172,0.06057787124009922,0.06050249507901237
173,0.06056105317709673,0.06047028301902652
174,0.060540709296336565,0.060459087647669114
175,0.06052300777882303,0.06045454106545545
176,0.060507846921408134,0.06043270047744473
177,0.06048672014191044,0.060398270678966345
178,0.06046977116543651,0.060378310461439606
179,0.06045315234442644,0.06035903905455705
180,0.06043665876115207,0.060354858770221044
181,0.06041908676598183,0.06032769027952684
182,0.0604026358466929,0.06031666718573085
183,0.06038687201599921,0.06030233368898919
184,0.060370754983000506,0.06028115020408006
185,0.0603546107721256,0.0602498514713829
186,0.060339994482680424,0.06024958247406051
187,0.060323307773991676,0.06022613240386441
188,0.06030772355375956,0.060211258478181345
189,0.06029337832058071,0.06019573613078293
190,0.06027735927691324,0.06018620652115657
191,0.060267407676264734,0.06014911493754452
192,0.06024586484878217,0.06013721755086177
193,0.06023026195898927,0.06011996854461587
194,0.06021719418586361,0.06009322352651377
195,0.06020085647419653,0.06008523283235328
196,0.060185030889053484,0.060068821407447875
197,0.06017116481860883,0.060060903764058864
198,0.060155446794903616,0.060028398775722296
199,0.06014185818831534,0.06001115530747482
200,0.0601257541277402,0.059999754905336565
201,0.060111333327638544,0.05997895925581214
202,0.060099348364081866,0.05996222286034014
203,0.06008341658049006,0.05995078829256881
204,0.060070796927115255,0.05993256740828515
205,0.06005742560972259,0.059924235469992725
206,0.06004368156375742,0.05991519076879033
207,0.06003140854533211,0.05990507123918922
208,0.06001586779828248,0.05986969853759294
209,0.060002135016901485,0.05985537102048184
210,0.05998848475194455,0.0598517420648022
211,0.059974135151964085,0.05982878409143737
212,0.059961555123091904,0.05981523958043458
213,0.05994668002051533,0.059793879823237334
214,0.05993360424202245,0.059767826029474655
215,0.059919798548052974,0.05976286552914668
216,0.05990557690612583,0.059753671230276036
217,0.05989378776318443,0.0597394380091381
218,0.05987932376206174,0.05972473976396995
219,0.0598664105935457,0.05970438088432903
220,0.059852928635727956,0.05969630264730412
221,0.05984027582189997,0.05968276446105977
222,0.05982768217598202,0.059667948020768066
223,0.059816011322433825,0.059659888866851855
224,0.059802867030585426,0.059649896151380034
225,0.059791215456828764,0.05963102391423432
226,0.059779141671569336,0.059629811596236766
227,0.059767200658519266,0.059610567931383765
228,0.05975540903109353,0.05959867646409019
229,0.059746033895654325,0.05958710862425845
230,0.05973169176381238,0.05956953673324774
231,0.059720832402374566,0.059568824343422054
232,0.05970841403459204,0.059537939975349105
233,0.05969874711246707,0.05952940552899599
234,0.05968459835590647,0.05950417137326557
235,0.059672900330665454,0.05950297532774014
236,0.05966245152548017,0.05947390508760255
237,0.059649964731788525,0.05946906296452182
238,0.05963905933467082,0.059458400084667316
239,0.05962926833121423,0.05945327920695869
240,0.059616708061655956,0.05943828151284678
241,0.05960710460758717,0.05940706799134128
242,0.05959526603171279,0.05940800006735924
243,0.059585388933185206,0.05939130207743822
244,0.05957240568828109,0.059373959641422634
245,0.05956056006934632,0.05936004035406527
246,0.05954812211912441,0.0593400561822135
247,0.059535690944308946,0.05932955226688691
248,0.05952375371727107,0.0593128404655623
249,0.05951237483228836,0.0593086282002705
250,0.0595005883557876,0.05928494181332642
251,0.05948919271757395,0.05927632764939795
252,0.05947782765591112,0.059261346337058755
253,0.05946642143622367,0.05925568069394499
254,0.05945220776952247,0.0592308217972015
255,0.059439339052128955,0.05922638016043347
256,0.059426693984113745,0.059217740412438186
257,0.059414871395099524,0.05920356902171446
258,0.0594029616113928,0.059194156275292086
259,0.059391340756084626,0.05917694561013579
260,0.05938028028296927,0.05915899503928107
261,0.05936954394162273,0.05914521119796752
262,0.05935816693825349,0.05915063575777131
263,0.05934685435080964,0.05914001786122363
264,0.05933704806855226,0.059126155410315205
265,0.059325822485611426,0.05912182360408175
266,0.059315145554964734,0.0591140154110465
267,0.05930674194435232,0.059106236817773404
268,0.05929468898722287,0.059093652759225894
269,0.05928508239817077,0.05909500953424381
270,0.05927554386579856,0.059078929452628645
271,0.05926916793957084,0.0590805003976364
272,0.0592551258977441,0.05906352456042486
273,0.05924495470386534,0.059050927450385975
274,0.05923531680396568,0.05904715888420874
275,0.059225416366942944,0.059029895649221814
276,0.05921699128369925,0.059026486760022416
277,0.059205351338733524,0.05902133692876625
278,0.05919628900060007,0.05901180235399854
279,0.059186114626211976,0.05900183124417179
280,0.05917667775983515,0.058994703069042906
281,0.05916734447252935,0.05898642369188336
282,0.05915805709732168,0.058979243952498574
283,0.05914883732753498,0.058971764844532655
284,0.059139572308191106,0.05896096942853503
285,0.05913009036785922,0.0589569783597226
286,0.05911913948274623,0.058946107409416
287,0.05910826132554504,0.058934266321617176
288,0.059098597866404444,0.05892089509895693
289,0.05908784057389034,0.058924479300004357
290,0.059076483286797765,0.05892494896246084
291,0.05906236589891757,0.058919402924461295
292,0.059050299661216527,0.05890435184606572
293,0.05903765015786841,0.058903578990301846
294,0.05902636861254022,0.05889547850888029
295,0.059015337013505594,0.05888528900724001
296,0.05900520252899516,0.058872745546594954
297,0.05899405135215944,0.05887246897306432
298,0.05898436971722641,0.05886754899469521
299,0.058974396065627314,0.058854682098634994
300,0.058964700867808834,0.05885216134718149
301,0.058954456654564294,0.05883803194655963
302,0.05894448919542222,0.05883747767544368
303,0.0589352455524192,0.05883390873092071
304,0.05892496137349262,0.05882728359657728
305,0.0589164618898554,0.058815595930186454
306,0.058905887614962994,0.05881604194008976
307,0.05889692630411818,0.05881842690459473
308,0.058887412549727146,0.058802202716892946
309,0.05887850807817772,0.0588012406097095
310,0.05887006378744377,0.05880744427615217
311,0.05886234931911958,0.05879244488508147
312,0.058852380241475946,0.05878989900570362
313,0.05884410089769419,0.05878714906862469
314,0.05883611854006501,0.05877794811142792
315,0.05882763799534718,0.05878396144168961
316,0.05881947717674101,0.058765460956512666
317,0.05881128132136975,0.05876249289285459
318,0.058803742614420354,0.05876203464333821
319,0.05879531845116417,0.05875636499511121
320,0.05878782507708037,0.05874225343942659
321,0.05877984437073333,0.05874317434150427
322,0.05877238347221665,0.05873846263864514
323,0.058764825830350254,0.058744128023949634
324,0.05875669689025006,0.058728474105003314
325,0.05874923579743929,0.058728389449512954
326,0.05874184137400752,0.058705966993964014
327,0.05873358700043457,0.0587171121508979
328,0.05872645328141858,0.05870740215684743
329,0.0587191210148906,0.058706322388357636
330,0.058711593546232635,0.058708521231247715
331,0.05870478293721425,0.058692285695813334
332,0.0586973549227148,0.0586819675102775
333,0.05868976390696621,0.0586797736500453
334,0.05868243551614972,0.058679156005076574
335,0.058676073689147755,0.058671730566377256
336,0.05866865864735169,0.058674516013714664
337,0.05866173030883723,0.05866450470476883
338,0.05865528963031381,0.05864862777616337
339,0.05864761773624912,0.05865230340975032
340,0.058641077727096216,0.05865564478843654
341,0.058634238121884834,0.05863820960317958
342,0.058627924603151214,0.05862775508883291
343,0.05862075433269208,0.05863187832906319
344,0.05861466429459619,0.05862158884594864
345,0.05860768646210826,0.05862225663432176
346,0.058601554647306,0.05862959866251458
347,0.058594720621932044,0.05861046694231609
348,0.05858780683312303,0.05860964878167168
349,0.058581319753781294,0.05859761897519556
350,0.05857418147084713,0.05860031399003533
351,0.0585691229909911,0.05860459831421339
352,0.05856101409146017,0.05859327827463119
353,0.05855435405407735,0.058583122497927624
354,0.058547393975466155,0.058579969820330265
355,0.058540451773361965,0.058582563895870625
356,0.058533723729745975,0.05857852087788393
357,0.05852710637351413,0.058575611148479444
358,0.05852103149710238,0.05855701857424162
359,0.05851499362853385,0.05856947555070713
360,0.05850806006071206,0.05856314677282768
361,0.05850193739261941,0.0585627252748095
362,0.058495666360303275,0.058561585673891296
363,0.05848915273273574,0.05854790950658375
364,0.058482703932895785,0.05853723326761578
365,0.05847656661897978,0.05853765165510717
366,0.058470660655501175,0.05852883631273441
367,0.05846427834127869,0.0585208107233454
368,0.05845820286171269,0.05852792218455446
369,0.05845216079549806,0.058519916276172944
370,0.05844642853337772,0.05851723746253541
371,0.058439860016750445,0.05850910921415305
372,0.05843400493462566,0.05850597012650322
373,0.0584283056414953,0.05850411224422613
374,0.05842224232351859,0.058493717737955093
375,0.05841660253364663,0.058504463149648515
376,0.05841037100045893,0.05849828131127716
377,0.058404252696863015,0.058492323201727606
378,0.05839830236794716,0.05848974983319939
379,0.05839268807613527,0.05848976421740538
380,0.05838730738894871,0.05848098421166487
381,0.05838100357510677,0.05847946399072992
382,0.05837537685399649,0.058478399141320865
383,0.05836984032455242,0.058474668893944995
384,0.058364816112440675,0.058462756090753916
385,0.058358858320117134,0.05847685370719156
386,0.058353242419935274,0.05846393469629317
387,0.05834787767217427,0.058463190381054846
388,0.058342711101207534,0.058451914063176756
389,0.05833702851063935,0.058453993454278874
390,0.05833146240019904,0.05844813635178873
391,0.05832609851040833,0.05845293120059718
392,0.058320799847625726,0.05845362877643887
393,0.05831556168928085,0.05844113818427132
394,0.05831034831578051,0.05843782551133574
395,0.05830496230532013,0.05843887209403224
396,0.058299784744257864,0.05842881742731337
397,0.05829458239419541,0.058429098527064745
398,0.05828935428169699,0.05842636968630572
399,0.05828409178052881,0.05842502982912392
400,0.058278925975652485,0.058421219941376154
401,0.05827396281093627,0.05842149285457878
402,0.05826894301222977,0.05841611954603412
403,0.05826415041162589,0.05841927656813534
404,0.05825900405228096,0.058417325090340415
405,0.058254259288455415,0.058416836310703844
406,0.0582489970387234,0.05840430110980598
407,0.05824433826563519,0.058403342770091744
408,0.05823956143981313,0.05839375804314699
409,0.058234847124104865,0.05839239733149807
410,0.05823020275412875,0.058393399268042157
411,0.05822521567822637,0.058392976828913576
412,0.05822073930185365,0.05838692329515594
413,0.05821582645306981,0.058384472202150095
414,0.05821177011192594,0.05837029940387629
415,0.05820708242347832,0.058369343190654205
416,0.05820219965831784,0.05837662753584349
417,0.05819740434262944,0.05837414906681535
418,0.05819310261446343,0.058363471699193425
419,0.05818848758928967,0.05836110171623016
420,0.058184010436127344,0.05836036927031086
421,0.05817990568179481,0.05835409457402375
422,0.05817537486345861,0.05836219992167307
423,0.058170877072153265,0.058359723885603544
424,0.05816674876211661,0.0583574911874368
425,0.0581620369238946,0.058348200824929156
426,0.05815803266042557,0.05833462142890035
427,0.05815325947891694,0.05834109723022943
428,0.05814927473051463,0.058345796573158186
429,0.05814448635816659,0.05833650648764764
430,0.05814067911199569,0.058326580440500056
431,0.05813556025070596,0.05833554107410669
432,0.0581311716730872,0.05833189800261434
433,0.05812668170555552,0.05832245611916686
434,0.05812209430299354,0.05832775902023046
435,0.05811760612540357,0.05832521062180913
436,0.05811314969991876,0.05831955469042742
437,0.058108737030648186,0.05831644877420539
438,0.05810454925517222,0.05832130635153921
439,0.058100120597686815,0.058316530177689264
440,0.05809629360070069,0.05831674967704708
441,0.058091537987420505,0.05830399378555225
442,0.05808733155707602,0.058302938866741545
443,0.058082910550660435,0.0583065467459771
444,0.05807915760679273,0.05829431973072866
445,0.05807425645864973,0.058297605139895056
446,0.058070031471580304,0.058296284884381655
447,0.058065707150529854,0.05829111069065018
448,0.05806165340045137,0.05829399794597012
449,0.058057226953082415,0.05828544397934681
450,0.05805326287379944,0.05828269726881734
451,0.058049441164658384,0.05828649554722399
452,0.058044975729891014,0.05828243928759984
453,0.05804083893999643,0.05827678538662809
454,0.0580369231285814,0.058275747939670955
455,0.05803277505844168,0.058278532639500925
456,0.058028776567184435,0.05827004940225964
457,0.05802451497954018,0.05827131085102916
458,0.05802058995063437,0.05827103355521381
459,0.0580165469277393,0.05826300699300197
460,0.05801252318017182,0.058268890840658415
461,0.058008920184902536,0.05826106961111968
462,0.05800459763583127,0.058261684186733796
463,0.05800082673105724,0.05825802277040703
464,0.057996725962998465,0.058261426187552076
465,0.057992730608507986,0.05825999742761644
466,0.057988838877467724,0.05826253309625578
467,0.05798505952099616,0.058261551508183074
468,0.057981745380272155,0.05826433065695099
469,0.057977531140748766,0.05825279368825848
470,0.05797368558494636,0.058253120167316284
471,0.057970206570871534,0.058245082800267516
472,0.05796666711584395,0.05825658747570093
473,0.057962377737661705,0.05824774421852022
474,0.057958698994057894,0.05824542520750876
475,0.057955299843406465,0.058241959177391056
476,0.05795146772040406,0.058242490416902354
477,0.057947917430383536,0.05824515579613541
478,0.05794424877051753,0.05823476949189079
479,0.057940764197016076,0.058232170287366845
480,0.05793703954350319,0.058237086122893314
481,0.05793349069546774,0.05823487221258007
482,0.05793012900084525,0.05823492481170976
483,0.05792649385186676,0.058232043365159226
484,0.05792276121103581,0.05822429605879953
485,0.057919238450983845,0.05822402806695236
486,0.05791588487919637,0.05821957426462558
487,0.05791222685972549,0.058218415645582944
488,0.05790868275375399,0.058214569549737256
489,0.05790534179485088,0.05821548716849912
490,0.05790172455529254,0.05821231392678208
491,0.05789836253288764,0.058208508493277675
492,0.05789490338742763,0.05820896390165985
493,0.05789143087249621,0.05820608139146051
494,0.05788806095150917,0.05820087713283699
495,0.05788456840712757,0.058201407783144865
496,0.057881381002394185,0.05820439132867574
497,0.057877871997757534,0.058198394362346036
498,0.05787448712341917,0.05819415699682368
499,0.057871310979800694,0.05819841122243002
500,0.05786780063272296,0.05819735854415693
