feature,mean_importance
feature_13,-5.01845545787527e-07
feature_36,-2.477321303609448e-07
feature_27,-9.634522790680222e-08
feature_22,-7.060112040546685e-08
feature_38,-2.9282797542329318e-08
feature_21,-6.059721018025766e-09
feature_25,-5.200907603197802e-09
feature_23,1.2083305919730059e-08
feature_5,4.894933812588098e-08
feature_8,3.8281255890226795e-07
feature_1,7.004915160993552e-07
feature_16,7.396561882602737e-07
feature_2,8.733326539944741e-07
feature_30,1.1411773527050806e-06
feature_29,1.3912157257656154e-06
feature_12,1.7959495375433065e-06
feature_37,1.9518358360184895e-06
feature_3,2.0180188155291543e-06
feature_34,2.153705827767638e-06
feature_10,2.2276804828941233e-06
feature_9,2.4363105134248e-06
feature_31,3.842940971050812e-06
feature_39,4.450056891759646e-06
feature_7,4.715507214594905e-06
feature_40,5.22607320611046e-06
feature_33,7.237314263874861e-06
feature_6,8.048058880176511e-06
feature_32,8.213053884946475e-06
feature_35,8.265996979081592e-06
feature_15,1.1387677074396752e-05
feature_19,1.969970046045294e-05
feature_24,4.171761901861082e-05
feature_17,4.4279729814314384e-05
feature_11,6.44766905277025e-05
feature_4,0.00012811343055511986
feature_20,0.0004945152177492709
feature_18,0.0012890700777183559
feature_14,0.0023608062353745506
feature_28,0.016805098119669317
feature_26,0.01696916575763846
