{
    "uid": "403b67aa-4a6c-4af6-b146-cc24a496f2ff",
    "name": "25_LightGBM_GoldenFeatures",
    "preprocessing": [
        {
            "golden_features": {
                "new_features": "[\n    {\n        \"feature1\": \"feature_3\",\n        \"feature2\": \"feature_23\",\n        \"operation\": \"diff\",\n        \"score\": 0.0168407631\n    },\n    {\n        \"feature1\": \"feature_23\",\n        \"feature2\": \"feature_3\",\n        \"operation\": \"ratio\",\n        \"score\": 0.0188988713\n    },\n    {\n        \"feature1\": \"feature_3\",\n        \"feature2\": \"feature_23\",\n        \"operation\": \"ratio\",\n        \"score\": 0.0189329891\n    },\n    {\n        \"feature1\": \"feature_24\",\n        \"feature2\": \"feature_4\",\n        \"operation\": \"ratio\",\n        \"score\": 0.0279166498\n    },\n    {\n        \"feature1\": \"feature_4\",\n        \"feature2\": \"feature_24\",\n        \"operation\": \"ratio\",\n        \"score\": 0.0279166498\n    }\n]",
                "new_columns": "[\n    \"feature_3_diff_feature_23\",\n    \"feature_23_ratio_feature_3\",\n    \"feature_3_ratio_feature_23\",\n    \"feature_24_ratio_feature_4\",\n    \"feature_4_ratio_feature_24\"\n]",
                "result_file": "AutoML_6/golden_features.json",
                "ml_task": "regression"
            },
            "ml_task": "regression",
            "params": {
                "columns_preprocessing": {},
                "target_preprocessing": [
                    "na_exclude"
                ],
                "ml_task": "regression",
                "golden_features": {
                    "results_path": "AutoML_6",
                    "ml_task": "regression"
                }
            }
        },
        {
            "golden_features": {
                "new_features": "[\n    {\n        \"feature1\": \"feature_3\",\n        \"feature2\": \"feature_23\",\n        \"operation\": \"diff\",\n        \"score\": 0.0168407631\n    },\n    {\n        \"feature1\": \"feature_23\",\n        \"feature2\": \"feature_3\",\n        \"operation\": \"ratio\",\n        \"score\": 0.0188988713\n    },\n    {\n        \"feature1\": \"feature_3\",\n        \"feature2\": \"feature_23\",\n        \"operation\": \"ratio\",\n        \"score\": 0.0189329891\n    },\n    {\n        \"feature1\": \"feature_24\",\n        \"feature2\": \"feature_4\",\n        \"operation\": \"ratio\",\n        \"score\": 0.0279166498\n    },\n    {\n        \"feature1\": \"feature_4\",\n        \"feature2\": \"feature_24\",\n        \"operation\": \"ratio\",\n        \"score\": 0.0279166498\n    }\n]",
                "new_columns": "[\n    \"feature_3_diff_feature_23\",\n    \"feature_23_ratio_feature_3\",\n    \"feature_3_ratio_feature_23\",\n    \"feature_24_ratio_feature_4\",\n    \"feature_4_ratio_feature_24\"\n]",
                "result_file": "AutoML_6/golden_features.json",
                "ml_task": "regression"
            },
            "ml_task": "regression",
            "params": {
                "columns_preprocessing": {},
                "target_preprocessing": [
                    "na_exclude"
                ],
                "ml_task": "regression",
                "golden_features": {
                    "results_path": "AutoML_6",
                    "ml_task": "regression"
                }
            }
        },
        {
            "golden_features": {
                "new_features": "[\n    {\n        \"feature1\": \"feature_3\",\n        \"feature2\": \"feature_23\",\n        \"operation\": \"diff\",\n        \"score\": 0.0168407631\n    },\n    {\n        \"feature1\": \"feature_23\",\n        \"feature2\": \"feature_3\",\n        \"operation\": \"ratio\",\n        \"score\": 0.0188988713\n    },\n    {\n        \"feature1\": \"feature_3\",\n        \"feature2\": \"feature_23\",\n        \"operation\": \"ratio\",\n        \"score\": 0.0189329891\n    },\n    {\n        \"feature1\": \"feature_24\",\n        \"feature2\": \"feature_4\",\n        \"operation\": \"ratio\",\n        \"score\": 0.0279166498\n    },\n    {\n        \"feature1\": \"feature_4\",\n        \"feature2\": \"feature_24\",\n        \"operation\": \"ratio\",\n        \"score\": 0.0279166498\n    }\n]",
                "new_columns": "[\n    \"feature_3_diff_feature_23\",\n    \"feature_23_ratio_feature_3\",\n    \"feature_3_ratio_feature_23\",\n    \"feature_24_ratio_feature_4\",\n    \"feature_4_ratio_feature_24\"\n]",
                "result_file": "AutoML_6/golden_features.json",
                "ml_task": "regression"
            },
            "ml_task": "regression",
            "params": {
                "columns_preprocessing": {},
                "target_preprocessing": [
                    "na_exclude"
                ],
                "ml_task": "regression",
                "golden_features": {
                    "results_path": "AutoML_6",
                    "ml_task": "regression"
                }
            }
        },
        {
            "golden_features": {
                "new_features": "[\n    {\n        \"feature1\": \"feature_3\",\n        \"feature2\": \"feature_23\",\n        \"operation\": \"diff\",\n        \"score\": 0.0168407631\n    },\n    {\n        \"feature1\": \"feature_23\",\n        \"feature2\": \"feature_3\",\n        \"operation\": \"ratio\",\n        \"score\": 0.0188988713\n    },\n    {\n        \"feature1\": \"feature_3\",\n        \"feature2\": \"feature_23\",\n        \"operation\": \"ratio\",\n        \"score\": 0.0189329891\n    },\n    {\n        \"feature1\": \"feature_24\",\n        \"feature2\": \"feature_4\",\n        \"operation\": \"ratio\",\n        \"score\": 0.0279166498\n    },\n    {\n        \"feature1\": \"feature_4\",\n        \"feature2\": \"feature_24\",\n        \"operation\": \"ratio\",\n        \"score\": 0.0279166498\n    }\n]",
                "new_columns": "[\n    \"feature_3_diff_feature_23\",\n    \"feature_23_ratio_feature_3\",\n    \"feature_3_ratio_feature_23\",\n    \"feature_24_ratio_feature_4\",\n    \"feature_4_ratio_feature_24\"\n]",
                "result_file": "AutoML_6/golden_features.json",
                "ml_task": "regression"
            },
            "ml_task": "regression",
            "params": {
                "columns_preprocessing": {},
                "target_preprocessing": [
                    "na_exclude"
                ],
                "ml_task": "regression",
                "golden_features": {
                    "results_path": "AutoML_6",
                    "ml_task": "regression"
                }
            }
        },
        {
            "golden_features": {
                "new_features": "[\n    {\n        \"feature1\": \"feature_3\",\n        \"feature2\": \"feature_23\",\n        \"operation\": \"diff\",\n        \"score\": 0.0168407631\n    },\n    {\n        \"feature1\": \"feature_23\",\n        \"feature2\": \"feature_3\",\n        \"operation\": \"ratio\",\n        \"score\": 0.0188988713\n    },\n    {\n        \"feature1\": \"feature_3\",\n        \"feature2\": \"feature_23\",\n        \"operation\": \"ratio\",\n        \"score\": 0.0189329891\n    },\n    {\n        \"feature1\": \"feature_24\",\n        \"feature2\": \"feature_4\",\n        \"operation\": \"ratio\",\n        \"score\": 0.0279166498\n    },\n    {\n        \"feature1\": \"feature_4\",\n        \"feature2\": \"feature_24\",\n        \"operation\": \"ratio\",\n        \"score\": 0.0279166498\n    }\n]",
                "new_columns": "[\n    \"feature_3_diff_feature_23\",\n    \"feature_23_ratio_feature_3\",\n    \"feature_3_ratio_feature_23\",\n    \"feature_24_ratio_feature_4\",\n    \"feature_4_ratio_feature_24\"\n]",
                "result_file": "AutoML_6/golden_features.json",
                "ml_task": "regression"
            },
            "ml_task": "regression",
            "params": {
                "columns_preprocessing": {},
                "target_preprocessing": [
                    "na_exclude"
                ],
                "ml_task": "regression",
                "golden_features": {
                    "results_path": "AutoML_6",
                    "ml_task": "regression"
                }
            }
        }
    ],
    "learners": [
        {
            "library_version": "3.0.0",
            "algorithm_name": "LightGBM",
            "algorithm_short_name": "LightGBM",
            "uid": "cac0a1df-e218-4996-9b16-e1809bed8f1c",
            "params": {
                "model_type": "LightGBM",
                "ml_task": "regression",
                "seed": 1238,
                "objective": "regression",
                "metric": "l2",
                "num_leaves": 31,
                "learning_rate": 0.05,
                "feature_fraction": 0.9,
                "bagging_fraction": 0.9,
                "min_data_in_leaf": 20,
                "explain_level": 1
            }
        },
        {
            "library_version": "3.0.0",
            "algorithm_name": "LightGBM",
            "algorithm_short_name": "LightGBM",
            "uid": "2a32309c-29ee-406e-8b01-3bbee040a049",
            "params": {
                "model_type": "LightGBM",
                "ml_task": "regression",
                "seed": 1238,
                "objective": "regression",
                "metric": "l2",
                "num_leaves": 31,
                "learning_rate": 0.05,
                "feature_fraction": 0.9,
                "bagging_fraction": 0.9,
                "min_data_in_leaf": 20,
                "explain_level": 1
            }
        },
        {
            "library_version": "3.0.0",
            "algorithm_name": "LightGBM",
            "algorithm_short_name": "LightGBM",
            "uid": "ce7fc8d9-0a5b-434e-8ebe-dab505541f92",
            "params": {
                "model_type": "LightGBM",
                "ml_task": "regression",
                "seed": 1238,
                "objective": "regression",
                "metric": "l2",
                "num_leaves": 31,
                "learning_rate": 0.05,
                "feature_fraction": 0.9,
                "bagging_fraction": 0.9,
                "min_data_in_leaf": 20,
                "explain_level": 1
            }
        },
        {
            "library_version": "3.0.0",
            "algorithm_name": "LightGBM",
            "algorithm_short_name": "LightGBM",
            "uid": "ec35a123-9e4f-41ec-a153-bdca3fb9e8f2",
            "params": {
                "model_type": "LightGBM",
                "ml_task": "regression",
                "seed": 1238,
                "objective": "regression",
                "metric": "l2",
                "num_leaves": 31,
                "learning_rate": 0.05,
                "feature_fraction": 0.9,
                "bagging_fraction": 0.9,
                "min_data_in_leaf": 20,
                "explain_level": 1
            }
        },
        {
            "library_version": "3.0.0",
            "algorithm_name": "LightGBM",
            "algorithm_short_name": "LightGBM",
            "uid": "3dfd5ae8-3ac2-43e5-a33c-e99bdbcdf2d8",
            "params": {
                "model_type": "LightGBM",
                "ml_task": "regression",
                "seed": 1238,
                "objective": "regression",
                "metric": "l2",
                "num_leaves": 31,
                "learning_rate": 0.05,
                "feature_fraction": 0.9,
                "bagging_fraction": 0.9,
                "min_data_in_leaf": 20,
                "explain_level": 1
            }
        }
    ],
    "params": {
        "additional": {
            "max_rounds": 10000,
            "early_stopping_rounds": 50,
            "max_rows_limit": null,
            "max_cols_limit": null
        },
        "preprocessing": {
            "columns_preprocessing": {},
            "target_preprocessing": [
                "na_exclude"
            ],
            "ml_task": "regression",
            "golden_features": {
                "results_path": "AutoML_6",
                "ml_task": "regression"
            }
        },
        "validation_strategy": {
            "validation_type": "kfold",
            "k_folds": 5,
            "shuffle": true,
            "X_path": "AutoML_6/X.parquet",
            "y_path": "AutoML_6/y.parquet",
            "results_path": "AutoML_6"
        },
        "learner": {
            "model_type": "LightGBM",
            "ml_task": "regression",
            "seed": 1238,
            "objective": "regression",
            "metric": "l2",
            "num_leaves": 31,
            "learning_rate": 0.05,
            "feature_fraction": 0.9,
            "bagging_fraction": 0.9,
            "min_data_in_leaf": 20,
            "explain_level": 1
        },
        "ml_task": "regression",
        "explain_level": 1,
        "name": "25_LightGBM_GoldenFeatures",
        "status": "initialized",
        "final_loss": null,
        "train_time": null
    },
    "saved": [
        "AutoML_6/25_LightGBM_GoldenFeatures/learner_1.lightgbm",
        "AutoML_6/25_LightGBM_GoldenFeatures/learner_2.lightgbm",
        "AutoML_6/25_LightGBM_GoldenFeatures/learner_3.lightgbm",
        "AutoML_6/25_LightGBM_GoldenFeatures/learner_4.lightgbm",
        "AutoML_6/25_LightGBM_GoldenFeatures/learner_5.lightgbm"
    ],
    "predictions_fname": "AutoML_6/25_LightGBM_GoldenFeatures/predictions_out_of_folds.csv",
    "metric_name": "rmse",
    "final_loss": 0.06653704913601059,
    "train_time": 14.62716794013977,
    "is_stacked": false
}