feature,mean_importance
feature_28,5.0605735768460834e-05
feature_6,5.133941491122403e-05
feature_26,8.423334616873072e-05
feature_8,9.177188699188294e-05
feature_18,0.00013047741209769626
feature_31,0.00013588143676275186
feature_9,0.00014728354654029545
feature_11,0.00014923970465957926
feature_40,0.00017164492221973283
feature_29,0.00020104353973613467
feature_27,0.0002054430030429103
feature_10,0.0002320742771569441
feature_38,0.0002559773920585252
feature_7,0.00029324661161334205
feature_33,0.0003144150481027081
feature_13,0.0003259066530621257
feature_30,0.00033835940516551766
feature_32,0.0004071293104927234
feature_39,0.0004407953810995468
feature_35,0.00049518552379605
feature_16,0.0005329908031309709
feature_12,0.0005593031748073213
feature_19,0.0005679406221990185
feature_36,0.0006515492278784997
feature_17,0.0006776492559489748
feature_25,0.0006965109582667588
feature_37,0.0008093847026717744
feature_14,0.0011093037679972336
feature_21,0.0016556792952972434
feature_1,0.001809459785711664
feature_34,0.0018835207193237933
feature_22,0.0019356084091809555
feature_15,0.0020251777921146113
feature_20,0.002163127225165335
feature_2,0.002183565242653769
feature_3,0.0035082011469460272
feature_5,0.003766849409251362
feature_23,0.004474667584821003
feature_24,0.007466707677990766
feature_4,0.009673687155655173
