feature,mean_importance
feature_8,9.603921137198053e-05
feature_6,0.00010016200139967013
feature_18,0.00013497618657696726
feature_26,0.00013678304889310107
feature_28,0.00014096279232334862
feature_40,0.000170226325530164
feature_11,0.00019703945806529634
feature_7,0.00020357312588942868
feature_27,0.00021257872941300992
feature_29,0.000232691980917734
feature_31,0.0002502518321936025
feature_30,0.00028267449810183735
feature_9,0.00028647485809009735
feature_38,0.0002914188297202892
feature_10,0.0003024641409016315
feature_39,0.00040962079440146694
feature_33,0.00042658939612984193
feature_13,0.0004461898214327704
feature_16,0.0004705326028471575
feature_12,0.0004845561282743074
feature_32,0.0005143561551385765
feature_35,0.000568265336723783
feature_36,0.0005719113082295297
feature_25,0.0005746067619677459
feature_19,0.0006153010274807316
feature_17,0.0006418013944380734
feature_37,0.0007768141842432741
feature_14,0.0010540496036794615
feature_34,0.0016558940185460308
feature_2,0.001753321400225506
feature_22,0.0017908736678911015
feature_21,0.0019739144982114276
feature_20,0.002026400457258218
feature_15,0.002079373429347844
feature_1,0.0022401489858206057
feature_5,0.003622790427619113
feature_3,0.0036679004655486304
feature_23,0.004502002948872298
feature_24,0.007289574437968521
feature_4,0.009406532021985414
