feature,mean_importance
feature_6,-0.00011270832683350842
feature_28,1.2493136097262853e-05
feature_18,9.398642781158415e-05
feature_40,0.00013279429302611584
feature_8,0.0001400214366249257
feature_32,0.0001576998783890206
feature_9,0.000164632154495694
feature_29,0.00016846962028618657
feature_38,0.00017305681669304852
feature_7,0.00017682327339177544
feature_26,0.00018138927705950992
feature_16,0.00020122415066609541
feature_30,0.00023778203710177886
feature_36,0.00026780812623881516
feature_11,0.00027750884994035067
feature_33,0.00028177979804965556
feature_12,0.0003029128900718471
feature_13,0.0003050117436834296
feature_31,0.0003439338866956451
feature_10,0.00036016707003729204
feature_27,0.00036122559490452816
feature_37,0.00037837172929312547
feature_17,0.0006089107716224743
feature_25,0.000654439402970957
feature_39,0.0006925769574494631
feature_19,0.0007691740785326945
feature_14,0.0008439821635646445
feature_35,0.000978468062501904
feature_3,0.0009891096668012134
feature_1,0.001016375273128809
feature_2,0.001150655356913264
feature_22,0.0014659610670033026
feature_23,0.0017878337358454275
feature_20,0.001868759023030382
feature_21,0.0019591367751818226
feature_15,0.002093690945629193
feature_34,0.0021015733189720595
feature_5,0.0030239394846958553
feature_24,0.004675570119598
feature_4,0.007396406405657066
