feature,mean_importance
feature_36,3.6103614168253582e-06
feature_30,2.445731608532037e-05
feature_8,3.3176217507766696e-05
feature_27,3.598226625952036e-05
feature_26,3.994059687053228e-05
feature_7,4.1416241449680065e-05
feature_28,4.201732050741827e-05
feature_18,4.290824100204593e-05
feature_9,7.015099677736628e-05
feature_2,7.651272841432896e-05
feature_38,8.26392459918536e-05
feature_13,8.265004077388019e-05
feature_12,9.074284304547431e-05
feature_1,0.0001068749647945351
feature_16,0.00010915295613233219
feature_6,0.00011646052117707667
feature_40,0.00011847545153522848
feature_37,0.00015323906461500795
feature_3,0.00015966232289731653
feature_29,0.0001688378028662625
feature_11,0.000181549857046924
feature_32,0.00018188788128605803
feature_23,0.00018533032218440298
feature_10,0.00020798390836598014
feature_22,0.00024401312341928785
feature_33,0.00028288473856929867
feature_21,0.000352142909421848
feature_31,0.00039133384213020444
feature_34,0.0005636275739601098
feature_25,0.0006037337817484716
feature_17,0.0008668762986319502
feature_39,0.0011335013786561113
feature_15,0.001652303529224642
feature_35,0.001714660658807613
feature_19,0.0019411419713884783
feature_20,0.0019749846408171345
feature_14,0.002078100962081857
feature_5,0.0023921514690282654
feature_24,0.004166272287454891
feature_4,0.005250897240720593
