feature,mean_importance
feature_9,-1.3063022362078125e-07
feature_29,6.657581419662606e-07
feature_27,1.9167770712862077e-06
feature_10,3.280069817894471e-06
feature_33,5.335897124648242e-06
feature_13,6.249468106984263e-06
feature_7,6.6570006958477365e-06
feature_36,7.900297871780287e-06
feature_37,8.387428248474854e-06
feature_8,8.442364593945483e-06
feature_28,9.160183761741658e-06
feature_3,9.270937053015849e-06
feature_18,9.673844596388288e-06
feature_32,2.1848645378452074e-05
feature_38,2.2896616883647665e-05
feature_30,2.5033765106758503e-05
feature_31,2.818606839177784e-05
feature_6,2.8289576108690707e-05
feature_11,3.067650753819581e-05
feature_16,3.267009059661277e-05
feature_26,3.923475687453923e-05
feature_2,3.959522407911281e-05
feature_1,4.453178883439615e-05
feature_12,4.673505649713181e-05
feature_23,4.6872925166904086e-05
feature_40,6.305966374011499e-05
feature_22,7.438677383972414e-05
feature_17,8.731398622598279e-05
feature_21,8.86698315867393e-05
feature_19,0.00011208842825544199
feature_39,0.0003308145417215989
feature_34,0.000335131013113598
feature_35,0.0006731175249949567
feature_15,0.0007936823750858843
feature_25,0.0008603999511545404
feature_14,0.001409171253691365
feature_20,0.0015736494600395827
feature_24,0.001988240154526183
feature_4,0.003002247750156989
feature_5,0.0032748086215274043
