feature,mean_importance
feature_36,4.7252172410347514e-07
feature_38,1.6390482363071167e-06
feature_32,2.1648834220532043e-06
feature_29,2.2177121094681116e-06
feature_27,5.755315171755704e-06
feature_8,6.420550725060037e-06
feature_18,6.849596446185241e-06
feature_7,1.006409516804488e-05
feature_10,1.1667000821651007e-05
feature_9,1.280666680408618e-05
feature_6,1.2954611913864461e-05
feature_33,1.3326099303694744e-05
feature_30,1.342177897549271e-05
feature_11,2.2006320895102265e-05
feature_13,2.2576177000505766e-05
feature_3,2.2760520321803146e-05
feature_16,2.7013040901110312e-05
feature_2,3.62154521288266e-05
feature_28,4.350353897769679e-05
feature_37,4.447603241810941e-05
feature_12,4.586481548642454e-05
feature_26,5.075548801742741e-05
feature_21,5.207038849025514e-05
feature_17,5.4656546295552e-05
feature_23,6.140516051852535e-05
feature_22,8.882522648949523e-05
feature_1,9.363350111705679e-05
feature_40,0.00010782111529357777
feature_19,0.00011476375447904489
feature_31,0.00014308991765366665
feature_39,0.0004679781136215859
feature_34,0.0004798097615292589
feature_35,0.000961861011725719
feature_25,0.0009993597126353247
feature_20,0.001297145409220496
feature_14,0.0014875580952855884
feature_15,0.001705554903803401
feature_24,0.002307937604039695
feature_4,0.0032150342355971536
feature_5,0.003448745803310906
