{
    "uid": "9abae37c-7dfd-4605-93af-aaa167893f48",
    "name": "17_CatBoost",
    "preprocessing": [
        {
            "ml_task": "regression",
            "params": {
                "columns_preprocessing": {},
                "target_preprocessing": [
                    "na_exclude"
                ],
                "ml_task": "regression"
            }
        },
        {
            "ml_task": "regression",
            "params": {
                "columns_preprocessing": {},
                "target_preprocessing": [
                    "na_exclude"
                ],
                "ml_task": "regression"
            }
        },
        {
            "ml_task": "regression",
            "params": {
                "columns_preprocessing": {},
                "target_preprocessing": [
                    "na_exclude"
                ],
                "ml_task": "regression"
            }
        },
        {
            "ml_task": "regression",
            "params": {
                "columns_preprocessing": {},
                "target_preprocessing": [
                    "na_exclude"
                ],
                "ml_task": "regression"
            }
        },
        {
            "ml_task": "regression",
            "params": {
                "columns_preprocessing": {},
                "target_preprocessing": [
                    "na_exclude"
                ],
                "ml_task": "regression"
            }
        }
    ],
    "learners": [
        {
            "library_version": "0.24.1",
            "algorithm_name": "CatBoost",
            "algorithm_short_name": "CatBoost",
            "uid": "ed5e2c7d-953e-43fc-9880-d9409e8f36a7",
            "params": {
                "model_type": "CatBoost",
                "ml_task": "regression",
                "seed": 1237,
                "learning_rate": 0.2,
                "depth": 6,
                "rsm": 0.9,
                "subsample": 1.0,
                "min_data_in_leaf": 20,
                "explain_level": 1
            }
        },
        {
            "library_version": "0.24.1",
            "algorithm_name": "CatBoost",
            "algorithm_short_name": "CatBoost",
            "uid": "3dc1fc2a-154b-4793-9f7e-2d6e91497a57",
            "params": {
                "model_type": "CatBoost",
                "ml_task": "regression",
                "seed": 1237,
                "learning_rate": 0.2,
                "depth": 6,
                "rsm": 0.9,
                "subsample": 1.0,
                "min_data_in_leaf": 20,
                "explain_level": 1
            }
        },
        {
            "library_version": "0.24.1",
            "algorithm_name": "CatBoost",
            "algorithm_short_name": "CatBoost",
            "uid": "860711ac-bb98-4f5e-9991-5793bf37ef1f",
            "params": {
                "model_type": "CatBoost",
                "ml_task": "regression",
                "seed": 1237,
                "learning_rate": 0.2,
                "depth": 6,
                "rsm": 0.9,
                "subsample": 1.0,
                "min_data_in_leaf": 20,
                "explain_level": 1
            }
        },
        {
            "library_version": "0.24.1",
            "algorithm_name": "CatBoost",
            "algorithm_short_name": "CatBoost",
            "uid": "a52e1862-314c-47b1-b574-e5ac6a0b8fc5",
            "params": {
                "model_type": "CatBoost",
                "ml_task": "regression",
                "seed": 1237,
                "learning_rate": 0.2,
                "depth": 6,
                "rsm": 0.9,
                "subsample": 1.0,
                "min_data_in_leaf": 20,
                "explain_level": 1
            }
        },
        {
            "library_version": "0.24.1",
            "algorithm_name": "CatBoost",
            "algorithm_short_name": "CatBoost",
            "uid": "06ad6972-cd56-4152-9137-fbfbbc8c0992",
            "params": {
                "model_type": "CatBoost",
                "ml_task": "regression",
                "seed": 1237,
                "learning_rate": 0.2,
                "depth": 6,
                "rsm": 0.9,
                "subsample": 1.0,
                "min_data_in_leaf": 20,
                "explain_level": 1
            }
        }
    ],
    "params": {
        "additional": {
            "max_rounds": 10000,
            "early_stopping_rounds": 50,
            "max_rows_limit": null,
            "max_cols_limit": null
        },
        "preprocessing": {
            "columns_preprocessing": {},
            "target_preprocessing": [
                "na_exclude"
            ],
            "ml_task": "regression"
        },
        "validation_strategy": {
            "validation_type": "kfold",
            "k_folds": 5,
            "shuffle": true,
            "X_path": "AutoML_6/X.parquet",
            "y_path": "AutoML_6/y.parquet",
            "results_path": "AutoML_6"
        },
        "learner": {
            "model_type": "CatBoost",
            "ml_task": "regression",
            "seed": 1237,
            "learning_rate": 0.2,
            "depth": 6,
            "rsm": 0.9,
            "subsample": 1.0,
            "min_data_in_leaf": 20,
            "explain_level": 1
        },
        "ml_task": "regression",
        "explain_level": 1,
        "name": "17_CatBoost",
        "status": "initialized",
        "final_loss": null,
        "train_time": null
    },
    "saved": [
        "AutoML_6/17_CatBoost/learner_1.catboost",
        "AutoML_6/17_CatBoost/learner_2.catboost",
        "AutoML_6/17_CatBoost/learner_3.catboost",
        "AutoML_6/17_CatBoost/learner_4.catboost",
        "AutoML_6/17_CatBoost/learner_5.catboost"
    ],
    "predictions_fname": "AutoML_6/17_CatBoost/predictions_out_of_folds.csv",
    "metric_name": "rmse",
    "final_loss": 0.12756670348171903,
    "train_time": 34.424471378326416,
    "is_stacked": false
}