feature,mean_importance
feature_34,9.153828542954323e-07
feature_7,1.002069840851539e-06
feature_27,4.8245182711709186e-06
feature_6,7.96627230112406e-06
feature_38,1.0197858849865515e-05
feature_10,1.2211463588111901e-05
feature_11,1.4044636277917022e-05
feature_12,1.842281104827738e-05
feature_18,2.2969541774607496e-05
feature_33,3.9803594653069466e-05
feature_29,5.924594231230054e-05
feature_26,7.185913013298519e-05
feature_1,7.75168340966261e-05
feature_20,7.944145084020307e-05
feature_40,8.663578092065385e-05
feature_36,9.065999382186461e-05
feature_16,9.888375756684584e-05
feature_37,9.901019390401904e-05
feature_30,0.0001112804791447675
feature_19,0.00011215691814604007
feature_31,0.00012498428904438448
feature_28,0.00013072067094931154
feature_17,0.00013524559668918988
feature_2,0.00013790102672676238
feature_39,0.00016953933488129106
feature_14,0.0002418044795306637
feature_24,0.0002679419494834959
feature_15,0.00028685250258136925
feature_3,0.00032973268456501644
feature_22,0.00038049934685120094
feature_21,0.0003946697849421213
feature_23,0.00040660127697238473
feature_25,0.0006133934901002254
feature_4,0.0008843468322317201
feature_35,0.001002401409736183
feature_5,0.0027990613369837155
feature_24_ratio_feature_4,0.006568865803765936
feature_3_ratio_feature_23,0.006771685436399204
feature_23_ratio_feature_3,0.00683328750570773
feature_4_ratio_feature_24,0.007431682241251711
feature_3_diff_feature_23,0.008101691597388733
