feature,mean_importance
feature_16,-6.813505694693023e-06
feature_18,2.0795550619269466e-06
feature_36,1.4958134367584059e-05
feature_38,1.6911323264463816e-05
feature_7,3.0306865009830512e-05
feature_3,3.37888917309806e-05
feature_30,3.554856995466038e-05
feature_27,3.592102024936247e-05
feature_11,4.175802564460318e-05
feature_6,4.6260494334599e-05
feature_28,5.740401859587948e-05
feature_10,6.017947642985022e-05
feature_26,6.825085064516567e-05
feature_23,8.404310310452106e-05
feature_12,8.754239724291721e-05
feature_29,9.072104152546348e-05
feature_37,9.595379955261163e-05
feature_33,0.00012724882036556638
feature_40,0.00013738121202553009
feature_22,0.00013840491259624818
feature_1,0.00014109114890915457
feature_2,0.00015176197323976752
feature_31,0.0002260473043831389
feature_17,0.00022617579495986666
feature_21,0.00025769805254019366
feature_19,0.0003217567053351439
feature_39,0.0003896434381804273
feature_25,0.00039616963200046
feature_34,0.0004239240571963128
feature_35,0.0011569899489513847
feature_14,0.00124481385138907
feature_20,0.0015118348340037585
feature_15,0.0017077774498212906
feature_5,0.002317923417264895
feature_24,0.0026119417395102074
feature_4,0.003554448957123787
