feature,mean_importance
feature_31,-2.288142998466691e-05
feature_26,-1.6188026496625347e-05
feature_40,-2.4980003523598917e-06
feature_18,3.1649529771103635e-06
feature_29,8.771053220462538e-06
feature_36,1.8213635067023532e-05
feature_37,2.7478932494979376e-05
feature_38,2.806163880364615e-05
feature_17,4.741368658168488e-05
feature_6,4.9582203665818335e-05
feature_16,8.713782147519306e-05
feature_13,0.00010270900740348074
feature_2,0.000140968889615236
feature_39,0.00016075870278756607
feature_23,0.00023132742022855327
feature_32,0.0002570604350655113
feature_35,0.0002647981016253187
feature_25,0.0003174843352998183
feature_19,0.00033483027376928
feature_12,0.00034626437507669083
feature_34,0.0006844548316788122
feature_15,0.0007508340285715467
feature_20,0.0010997765393933711
feature_14,0.0014363534257591745
feature_24,0.0019928729606263997
feature_5,0.0023252096269193627
feature_4,0.0033859459658380996
