feature,mean_importance
feature_13,-3.187043413691026e-08
feature_14,-2.4942857765331006e-08
feature_38,-8.769008606746009e-09
feature_6,-5.1866781772269555e-09
feature_10,-3.892389625892445e-10
feature_9,-1.2799969001386912e-10
feature_7,5.124283233848282e-10
feature_11,1.2044427795399048e-09
feature_12,2.996018081541374e-09
feature_8,1.0064098985435032e-08
feature_34,5.572410839635444e-08
feature_18,1.8996035119345223e-07
feature_17,1.9932489205079506e-07
feature_16,2.675681127453644e-07
feature_27,2.3695801983456e-06
feature_20,5.1538810750768885e-06
feature_31,7.56434603200809e-06
feature_19,1.0540262695474256e-05
feature_15,1.1371448016405523e-05
feature_40,1.568756046312833e-05
feature_33,6.048878980169648e-05
feature_35,6.65104071154006e-05
feature_30,8.81080440875745e-05
feature_25,9.616645283604189e-05
feature_29,0.00010230165872858396
feature_26,0.000134146142360346
feature_32,0.0001644128765534103
feature_28,0.00017181592507527557
feature_36,0.00024093024600235421
feature_39,0.00036396619935910867
feature_37,0.0006742372432470813
feature_5,0.0007353823946142854
feature_3,0.0013927679272893677
feature_22,0.001419738880388388
feature_23,0.001431753190964475
feature_2,0.001557414041418189
feature_21,0.0019227986155063049
feature_4,0.0019865718138146102
feature_1,0.0020477027356738072
feature_24,0.002081008820533908
