feature,mean_importance
feature_14,-1.6007751354098903e-07
feature_38,-1.467995664364112e-07
feature_13,-6.780792290621632e-08
feature_10,-2.0125823639929875e-08
feature_7,-1.0683488592660301e-08
feature_6,1.4020583419954713e-08
feature_12,3.639455903219416e-08
feature_11,3.6538096266202494e-08
feature_9,3.710534658817738e-08
feature_16,4.3792459619544644e-08
feature_8,4.824552985137343e-08
feature_18,1.4378558079591874e-07
feature_17,1.538310259845306e-07
feature_34,3.1454544293521914e-07
feature_27,4.356876387011004e-05
feature_39,4.794348998448574e-05
feature_40,5.028023783520217e-05
feature_20,7.049083577338423e-05
feature_35,7.671104410333588e-05
feature_31,8.965147836165824e-05
feature_19,0.00013831173411802322
feature_36,0.0003749941874228829
feature_15,0.0004254026817719675
feature_37,0.00045882124014677724
feature_32,0.0006571752196473254
feature_29,0.0008641011030120549
feature_33,0.0008775252555324839
feature_30,0.0010541904044275487
feature_28,0.0028568625126491635
feature_26,0.003389699962110939
feature_25,0.00776537841214524
feature_2,0.009443089752118489
feature_22,0.011828300324413484
feature_21,0.012109388211792044
feature_1,0.012907775757766554
feature_5,0.015015188101185337
feature_24,0.025013751905925464
feature_4,0.025479687462359502
feature_23,0.02827691535894173
feature_3,0.028314092213329804
