feature,mean_importance
feature_28,5.987915405434551e-05
feature_6,0.00010286925020107848
feature_40,0.00013317465612579585
feature_26,0.00014720282475869095
feature_8,0.0001728629338544452
feature_18,0.00018002148790338817
feature_27,0.00020142482975950838
feature_29,0.0002125106877501174
feature_38,0.0002498757703845507
feature_31,0.0002807144227531002
feature_7,0.0003068882282434352
feature_10,0.0003109585487255619
feature_11,0.0003415702241340725
feature_9,0.0003452656235988092
feature_33,0.0003870413579211068
feature_30,0.00041703871041077757
feature_32,0.0004172647239473207
feature_36,0.0004443356939603852
feature_13,0.0004954319774538269
feature_39,0.0005036907150587803
feature_16,0.0005134861660019613
feature_19,0.0005215905280290964
feature_25,0.0006213698972826001
feature_12,0.000689355227980441
feature_37,0.0009240626900702271
feature_35,0.0009991835184057257
feature_17,0.001170735759660586
feature_14,0.0011891336976256484
feature_2,0.0016720428968624499
feature_22,0.0016868691514916277
feature_21,0.0017128325824259838
feature_1,0.0017288151194342096
feature_34,0.0019032348268338104
feature_20,0.002592006456517911
feature_3,0.002820421258574099
feature_5,0.002893618836629773
feature_15,0.003268076023074401
feature_23,0.004423311282392122
feature_24,0.009232829953213964
feature_4,0.011516778020472272
