{
    "uid": "8765b28e-7841-4418-b098-e738a2c057f5",
    "name": "10_Xgboost",
    "preprocessing": [
        {
            "ml_task": "regression",
            "params": {
                "columns_preprocessing": {},
                "target_preprocessing": [
                    "na_exclude"
                ],
                "ml_task": "regression"
            }
        },
        {
            "ml_task": "regression",
            "params": {
                "columns_preprocessing": {},
                "target_preprocessing": [
                    "na_exclude"
                ],
                "ml_task": "regression"
            }
        },
        {
            "ml_task": "regression",
            "params": {
                "columns_preprocessing": {},
                "target_preprocessing": [
                    "na_exclude"
                ],
                "ml_task": "regression"
            }
        },
        {
            "ml_task": "regression",
            "params": {
                "columns_preprocessing": {},
                "target_preprocessing": [
                    "na_exclude"
                ],
                "ml_task": "regression"
            }
        },
        {
            "ml_task": "regression",
            "params": {
                "columns_preprocessing": {},
                "target_preprocessing": [
                    "na_exclude"
                ],
                "ml_task": "regression"
            }
        }
    ],
    "learners": [
        {
            "library_version": "1.2.0",
            "algorithm_name": "Extreme Gradient Boosting",
            "algorithm_short_name": "Xgboost",
            "uid": "c4660af0-d801-4c28-822b-c44242d3b6d3",
            "params": {
                "model_type": "Xgboost",
                "ml_task": "regression",
                "seed": 1238,
                "objective": "reg:squarederror",
                "eval_metric": "rmse",
                "eta": 0.025,
                "max_depth": 3,
                "min_child_weight": 9,
                "subsample": 0.4,
                "colsample_bytree": 1.0,
                "explain_level": 1
            },
            "best_ntree_limit": 10000
        },
        {
            "library_version": "1.2.0",
            "algorithm_name": "Extreme Gradient Boosting",
            "algorithm_short_name": "Xgboost",
            "uid": "6bd6b5a2-3bc1-4c91-986a-84a8c486572e",
            "params": {
                "model_type": "Xgboost",
                "ml_task": "regression",
                "seed": 1238,
                "objective": "reg:squarederror",
                "eval_metric": "rmse",
                "eta": 0.025,
                "max_depth": 3,
                "min_child_weight": 9,
                "subsample": 0.4,
                "colsample_bytree": 1.0,
                "explain_level": 1
            },
            "best_ntree_limit": 10000
        },
        {
            "library_version": "1.2.0",
            "algorithm_name": "Extreme Gradient Boosting",
            "algorithm_short_name": "Xgboost",
            "uid": "7c18076f-e98e-4bb0-a39d-7054c3800141",
            "params": {
                "model_type": "Xgboost",
                "ml_task": "regression",
                "seed": 1238,
                "objective": "reg:squarederror",
                "eval_metric": "rmse",
                "eta": 0.025,
                "max_depth": 3,
                "min_child_weight": 9,
                "subsample": 0.4,
                "colsample_bytree": 1.0,
                "explain_level": 1
            },
            "best_ntree_limit": 10000
        },
        {
            "library_version": "1.2.0",
            "algorithm_name": "Extreme Gradient Boosting",
            "algorithm_short_name": "Xgboost",
            "uid": "ee0aeec6-ebe4-434b-a4ec-0350e583c7b2",
            "params": {
                "model_type": "Xgboost",
                "ml_task": "regression",
                "seed": 1238,
                "objective": "reg:squarederror",
                "eval_metric": "rmse",
                "eta": 0.025,
                "max_depth": 3,
                "min_child_weight": 9,
                "subsample": 0.4,
                "colsample_bytree": 1.0,
                "explain_level": 1
            },
            "best_ntree_limit": 9999
        },
        {
            "library_version": "1.2.0",
            "algorithm_name": "Extreme Gradient Boosting",
            "algorithm_short_name": "Xgboost",
            "uid": "203716c2-f4e6-4ed3-ba6c-d526865a2525",
            "params": {
                "model_type": "Xgboost",
                "ml_task": "regression",
                "seed": 1238,
                "objective": "reg:squarederror",
                "eval_metric": "rmse",
                "eta": 0.025,
                "max_depth": 3,
                "min_child_weight": 9,
                "subsample": 0.4,
                "colsample_bytree": 1.0,
                "explain_level": 1
            },
            "best_ntree_limit": 9997
        }
    ],
    "params": {
        "additional": {
            "max_rounds": 10000,
            "early_stopping_rounds": 50,
            "max_rows_limit": null,
            "max_cols_limit": null
        },
        "preprocessing": {
            "columns_preprocessing": {},
            "target_preprocessing": [
                "na_exclude"
            ],
            "ml_task": "regression"
        },
        "validation_strategy": {
            "validation_type": "kfold",
            "k_folds": 5,
            "shuffle": true,
            "X_path": "AutoML_8/X.parquet",
            "y_path": "AutoML_8/y.parquet",
            "results_path": "AutoML_8"
        },
        "learner": {
            "model_type": "Xgboost",
            "ml_task": "regression",
            "seed": 1238,
            "objective": "reg:squarederror",
            "eval_metric": "rmse",
            "eta": 0.025,
            "max_depth": 3,
            "min_child_weight": 9,
            "subsample": 0.4,
            "colsample_bytree": 1.0,
            "explain_level": 1
        },
        "ml_task": "regression",
        "explain_level": 1,
        "name": "10_Xgboost",
        "status": "initialized",
        "final_loss": null,
        "train_time": null
    },
    "saved": [
        "AutoML_8/10_Xgboost/learner_1.xgboost",
        "AutoML_8/10_Xgboost/learner_2.xgboost",
        "AutoML_8/10_Xgboost/learner_3.xgboost",
        "AutoML_8/10_Xgboost/learner_4.xgboost",
        "AutoML_8/10_Xgboost/learner_5.xgboost"
    ],
    "predictions_fname": "AutoML_8/10_Xgboost/predictions_out_of_folds.csv",
    "metric_name": "rmse",
    "final_loss": 0.13002154136737065,
    "train_time": 2979.2154166698456,
    "is_stacked": false
}